<?xml version="1.0" encoding="utf-8"?>
<!-- Generator: Adobe Illustrator 18.0.0, SVG Export Plug-In . SVG Version: 6.00 Build 0)  -->
<!DOCTYPE svg PUBLIC "-//W3C//DTD SVG 1.1//EN" "http://www.w3.org/Graphics/SVG/1.1/DTD/svg11.dtd">
<svg version="1.1" id="Capa_1" xmlns="http://www.w3.org/2000/svg" xmlns:xlink="http://www.w3.org/1999/xlink" x="0px" y="0px"
	 viewBox="0 0 445 346.1" enable-background="new 0 0 445 346.1" xml:space="preserve">
<g>
	<g>
		<path fill="#603016" d="M102.5,97c16.5-9.1,41.9-8.5,59.3-3.1c9.8,3.1,18.5,9.9,26.7,16c17.6,13.3,22.1,39.2,23.9,60
			c1.9,21.8-0.1,42.3,1.4,64.1c1,13.7,4,43.8-15.3,46.5c0.1-1.3,0.7-2.3,0.9-3.5c-3.6,16.7-22.9,19.1-36.5,17.1
			c-8.4-1.2-12.4-8.4-21.5-10.3c-6.7-1.7-7,1.1-12.9,3.1c-2.8,1.1-5.6,0-8.4,0.6c-7.7,1.7-16,6.6-24.4,6.6
			c-4.1,0-28.5-5.3-28.7-10.8c0.1,1.9-0.6,4.2-0.4,6.1c-7.2-2-12-13.8-8.8-20.1c-2.7,17-13-7-13.6-12.9c-1.1-10.7,2.4-20.9,3.8-30.8
			c4.1-28.8-7-66,5.3-92.4c7.8-16.8,30.3-33.8,47.3-35.8C100.6,97.4,100.5,98.1,102.5,97z"/>
	</g>
	<g>
		<path fill="#E29F8F" d="M135.1,257.1c0,0-0.8-12.4,0-14.3c0,0,16.5-0.5,29.2-8c5.8-3.4,10.4-7.5,18.5-19.3c1.3-1.9,7.7,1.9,13.8-2
			c14.9-9.6,10-25.3-7.2-24.2c0.6-9,2.2-18,3.9-27v-10.7c-3.3-13.5-9.4-29.2-20.5-38.8c-12.7-10.6-29.4-15.8-46.1-15.5l-6.8,0.2
			c-7,0.5-14,2-20.5,4.5l-4.3,1.8c-5.2,2.4-10,5.4-14.4,9c-11.1,9.6-17.1,25.3-20.5,38.8v10.7c1.7,9,3.3,18,3.9,27
			C47,188.3,42.1,204,57,213.6c6.1,3.9,12.5,0.1,13.8,2c8.1,11.8,12.7,15.9,18.5,19.3c12.7,7.4,29.2,8,29.2,8c0.9,1.9,0,14.3,0,14.3
			c-4.1,3.4-6.8,3.8-8.7,4.9c0,0-3.9,18.4,18.7,18.4c23.5,0,13.3-16.2,14.8-19.1C143.3,261.3,139.2,260.6,135.1,257.1z"/>
	</g>
	<g>
		<path fill="#C04949" d="M145.4,209.9c1.8-0.1-6.5,5.4-18.6,5.4c-8,0-13.5-2.2-17.2-4.7C127.2,211.3,126.8,211.4,145.4,209.9z"/>
	</g>
	<g opacity="0.65">
		<g>
			<path fill="#E1B09F" d="M65.6,204.6c-0.6-4.8-4.7-10.8-8.7-8.3c-1.1,0.7-1.3,2.6-1.4,3.8c-0.2,3.7,1.4,8.4,5.3,9.5
				C64.8,210.7,66,207.9,65.6,204.6z"/>
		</g>
	</g>
	<g opacity="0.65">
		<g>
			<path fill="#E1B09F" d="M188,204.6c0.6-4.8,4.7-10.8,8.7-8.3c1.1,0.7,1.3,2.6,1.4,3.8c0.2,3.7-1.4,8.4-5.3,9.5
				C188.8,210.7,187.5,207.9,188,204.6z"/>
		</g>
	</g>
	<g>
		<path fill="#832819" d="M100.6,150.5c0,0,0-0.2,0-0.5c0-0.2,0-0.3,0-0.5c0-0.2,0-0.4,0.2-0.7c0.1-0.3,0.3-0.5,0.4-0.8
			c0.2-0.3,0.4-0.5,0.7-0.7c0.3-0.2,0.5-0.5,0.8-0.6c0.3-0.2,0.6-0.3,1-0.5c0.3-0.1,0.7-0.2,1-0.3c0.3-0.1,0.7-0.1,1-0.1
			c0.6,0,1.3,0.1,1.7,0.2c0.5,0.1,0.9,0.4,1.1,0.5c0.3,0.2,0.4,0.3,0.4,0.3s-0.2,0.1-0.5,0.1c-0.3,0.1-0.7,0.1-1.1,0.2
			c-0.2,0.1-0.5,0.1-0.7,0.2c-0.2,0-0.5,0.2-0.8,0.2c-0.5,0.1-1,0.3-1.6,0.5c-0.3,0.1-0.5,0.2-0.7,0.3c-0.3,0.1-0.5,0.2-0.7,0.3
			c-0.2,0.1-0.5,0.2-0.6,0.4c-0.2,0.1-0.3,0.2-0.5,0.4c-0.2,0.1-0.4,0.3-0.5,0.4c-0.1,0.2-0.3,0.3-0.4,0.4
			C100.8,150.4,100.6,150.5,100.6,150.5z"/>
	</g>
	<g>
		<path fill="#A15B48" d="M126.5,166.9c0,0-0.2,0.7-0.5,1.9c-0.2,0.6-0.3,1.3-0.4,2.2c-0.1,0.8-0.1,1.8-0.1,2.8c0,1,0.1,2.1,0.3,3.3
			c0.2,1.1,0.5,2.4,1,3.5c0.4,1.2,1,2.3,1.8,3.4c0.7,1.1,1.6,2.1,2.6,2.9c0.9,0.9,2.2,1.6,3.3,2.5c0.6,0.5,1.1,1,1.6,1.6
			c0.5,0.7,0.8,1.5,0.8,2.4c0,0.9-0.3,1.6-0.6,2.3c-0.4,0.6-0.7,1.1-1.2,1.7c-1,1.1-2.3,1.4-3.4,1.5c-2.2,0.2-4-0.4-5.1-1
			c-0.6-0.3-0.9-0.6-1.2-0.9c-0.2-0.2-0.3-0.4-0.3-0.4s0.1,0.1,0.4,0.3c0.3,0.2,0.7,0.4,1.3,0.6c1.1,0.4,2.9,0.6,4.8,0.2
			c0.9-0.2,1.9-0.6,2.5-1.4c0.6-0.8,1.3-2,1.2-2.9c0-0.9-0.8-1.8-1.9-2.5c-1-0.8-2.2-1.5-3.4-2.5c-1.1-1-2.1-2.1-2.9-3.4
			c-0.8-1.2-1.4-2.6-1.8-3.9c-0.5-1.3-0.7-2.7-0.8-3.9c-0.1-1.3-0.1-2.5,0-3.6c0.1-1.1,0.3-2.1,0.6-2.9c0.2-0.8,0.5-1.6,0.8-2.2
			c0.2-0.6,0.5-1,0.7-1.3C126.4,167.1,126.5,166.9,126.5,166.9z"/>
	</g>
	<g opacity="0.6">
		<g>
			<path fill="#F7B9CE" d="M84.9,196.5c2.4,1.3,9.4,2.3,9.4-2c0-4.3-7.3-4.6-9.9-3.4C80.9,192.7,81.9,194.9,84.9,196.5z"/>
		</g>
	</g>
	<g>
		<path fill="#603016" d="M66.3,174.1c13.9-21.2,22-35.1,39-55.1c12.9,11.5,29.5,20.9,47,21.9c4.3,0.3,9.9,0,14.1-0.9
			c0.1,2,1.3,3.6,2.3,5.3c2.5,4,5.5,8.1,8.6,12c2.9,3.6,6.9,7.4,9,11.6c3.8,8,0,17.1,1.7,25.3c10.2-12.9,9.6-39.6,4-57
			c-4.7-15.6-19.6-31.5-34.6-37.8c-11.7-4.5-31.1-4.4-43.1-2.9c-8.7,0.9-38.7,14.2-42.9,20.2c0,0-12.1,17.4-14.8,34.3
			c-1.1,7.2,3.1,34.7,5.4,43.2c0,0,1.4,5.1,2.2,1.6C65.1,192.3,66.3,174.1,66.3,174.1z"/>
	</g>
	<g>
		<g>
			<path d="M106.6,186c3.2-0.2,3.3-4.7,2.8-7c-0.3-1.2-0.9-2.8-2-3.4c-1.3-0.7-3,0.1-3.6,1.3C102.6,179.5,102.4,186.2,106.6,186z"/>
		</g>
	</g>
	<g>
		<path fill="#832819" d="M150.5,150.5c0,0-0.1-0.1-0.3-0.3c-0.1-0.1-0.2-0.2-0.4-0.4c-0.1-0.2-0.3-0.3-0.5-0.4
			c-0.2-0.1-0.4-0.2-0.5-0.4c-0.2-0.1-0.4-0.2-0.6-0.4c-0.2-0.1-0.4-0.2-0.7-0.3c-0.2-0.1-0.5-0.2-0.7-0.3c-0.5-0.2-1-0.4-1.6-0.5
			c-0.3,0-0.5-0.2-0.8-0.2c-0.2,0-0.5-0.1-0.7-0.2c-0.5-0.1-0.8-0.1-1.1-0.2c-0.3-0.1-0.5-0.1-0.5-0.1s0.1-0.1,0.4-0.3
			c0.3-0.1,0.6-0.4,1.1-0.5c0.5-0.1,1.1-0.3,1.7-0.2c0.3,0,0.7,0,1,0.1c0.3,0.1,0.7,0.2,1,0.3c0.3,0.1,0.6,0.3,1,0.5
			c0.3,0.1,0.6,0.4,0.8,0.6c0.3,0.2,0.5,0.4,0.7,0.7c0.2,0.3,0.3,0.6,0.4,0.8c0.1,0.3,0.2,0.5,0.2,0.7c0,0.2,0,0.4,0,0.5
			C150.5,150.3,150.5,150.5,150.5,150.5z"/>
	</g>
	<g opacity="0.6">
		<g>
			<path fill="#F7B9CE" d="M167.2,196.5c-2.4,1.3-9.4,2.3-9.4-2c0-4.3,7.3-4.6,9.9-3.4C171.2,192.7,170.2,194.9,167.2,196.5z"/>
		</g>
	</g>
	<g>
		<g>
			<path d="M145.1,186c-3.2-0.2-3.3-4.8-2.7-7.1c0.3-1.2,0.9-2.7,2.1-3.3c1.3-0.6,3,0.1,3.5,1.4C149.1,179.5,149.3,186.2,145.1,186z
				"/>
		</g>
	</g>
	<g>
		<path fill="#E0AF6B" d="M60.5,175.5c0.1,1.5,3-63.9,66.3-64.7c62.9-0.8,66.7,51.3,69.1,76.5c0,0,12.5-94.9-69.1-89.9
			C50,102.2,60,160.6,60.5,175.5z"/>
	</g>
	<g>
		<path fill="#E29F8F" d="M102.3,265.6c5.5,9.3,5.2,23.3,0.6,32.7c-1.8,3.6-5.2,10.2-9.8,10.5c-8.5,0.5-5.5-12.8-4.2-20
			C90.1,281.6,99,260,102.3,265.6z"/>
	</g>
	<g>
		<path fill="#E29F8F" d="M152.1,265.3c-5.5,9.3-5.8,24.7-1.2,34.1c1.8,3.6,5.2,10.5,9.8,10.5c8.4,0,5.5-12.8,4.2-20
			C163.7,282.8,155.4,259.8,152.1,265.3z"/>
	</g>
	<g>
		<path fill="#9CC680" d="M175,367.1c-1.4-14.5-4-28.8-5.7-43.3c-0.4-3.2-4-21.4-2.6-22.8c-2.6,2.5-6,2.2-8.4-0.3
			c-7.6-7.9-6.3-26.2-4.1-36c-3.4-1.2-8.1-4.4-11.7-3.8c0.4,3.1,2.3,7,0.8,10.1c-0.9,2-2.8,3.4-4.6,4.3c-6.1,3.3-12.3,4.2-19.1,2.5
			c-8-2-8.8-9.1-7.5-17c-4.1-0.3-9,2.2-12.3,4.4c7.7,9.3,5,29.6-3.7,37.3c-2.6,2.3-5.4,2.9-8.6,1.3c1.1,0.5-1.9,35.4-2,38.5
			c-0.3,14.2-1.1,28.4-3.6,42.4"/>
	</g>
	<g>
		<path fill="#E29F8F" d="M194.4,326.7c-0.1-0.2-0.2-0.4-0.3-0.6c-6.3-14-11.9-29.1-20-42c-1.8-2.9-17.4-23.5-18.9-14
			c-3,17.9,5.7,30.9,9.6,42.2c9.1,25.9,30.2,51.6,26.1,80.7c-0.5,3.8-1.7,8.3-2.8,12c-0.9,2.8-5.6,6.9-4.4,10.1
			c2,5.3,9.2,0,10.7-2.9c1-2,1.5-4.9,3.4-6.3c2.3-1.6,3.8,1.3,5.2,2.6c2.5,2.3,4.9,4.5,7.2,7.1c1.4,1.6,2.9,3.6,5,4.4
			c2.4,1,4.6-0.9,5.1-3.1c0.7-2.9-1.2-4.7-3.1-6.5c-2.5-2.3-5.3-4.7-7.6-7.2c3.5,2.8,7.6,5.3,10.7,8.5c1.9,2,3.9,4.1,6.7,2
			c1.2-1,2.8-2.9,2.3-4.6c-0.7-2.1-3.6-3.9-5.2-5.2c-3.4-2.6-6.9-5-10.4-7.5c2.5,1.7,5.8,3.4,8.5,4.7c2.9,1.3,7.4,4.5,9.5,0.3
			c1.6-3.2-1.5-4.2-4-5.2c-3.1-1.3-6.7-3-10-3.7c2.5-0.4,5,0.2,7.5-0.3c6.1-1.1,2.1-6.2-2.6-5.5c-5.1,0.8-9.3,0.5-14.5,0.4
			c0.1-5.1,0.1-9.9-0.4-15C206.3,356.5,200.7,340.9,194.4,326.7z"/>
	</g>
	<g>
		<path fill="#E29F8F" d="M69.9,358.2c6-15.8,15.2-30.1,20.8-46c4-11.2,12.6-24.3,9.6-42.2c-1.6-9.5-17.1,11.1-18.9,14
			c-8.1,12.9-13.7,28-20,42c-0.1,0.2-0.2,0.4-0.3,0.6c-6.3,14.2-12,29.8-13.3,45.5c-0.4,4.6-2,13.1-1.9,20.1c-0.5,0.1-1,0.1-1.5,0.2
			c-5.6,1-11.3,2.6-15.6,4.5c-1.7,0.8-3.3,1.9-5,2.7c-1,3.3,0.1,6.9,3.9,5.6c-3.4,2.6-2.2,10.6,2.9,7.9c-0.8,0.4-0.7,2.6-0.4,3.3
			c0.4,0.8,1.2,1.6,2,2c1.4,0.7,3.7,0.7,4.9-0.4c-0.8,1.9,1.1,3.4,2.7,3.9c1.7,0.5,4.4-0.3,5.7-1.5c4.2-3.7,7.5-13,14.5-10
			c4.2,1.7,5.5,8.4,11.1,6c6.7-2.8-2.7-9.3-5.6-11.3c0.8,0.6,0.7-8.4-0.1-9.6c-0.4-0.6-0.8-1.1-1.3-1.6c-0.6-3.8-1.1-7.6-0.5-11.6
			C64.9,374.1,66.9,366.1,69.9,358.2z"/>
	</g>
</g>
<g>
	<g>
		<path fill="#603016" d="M102,97.6c16.5-9.1,41.9-8.5,59.3-3.1c9.8,3.1,18.5,9.9,26.7,16c17.6,13.3,22.1,39.2,23.9,60
			c1.9,21.8-0.1,42.3,1.4,64.1c1,13.7,4,43.8-15.3,46.5c0.1-1.3,0.7-2.3,0.9-3.5c-3.6,16.7-22.9,19.1-36.5,17.1
			c-8.4-1.2-12.4-8.4-21.5-10.3c-6.7-1.7-7,1.1-12.9,3.1c-2.8,1.1-5.6,0-8.4,0.6c-7.7,1.7-16,6.6-24.4,6.6
			c-4.1,0-28.5-5.3-28.7-10.8c0.1,1.9-0.6,4.2-0.4,6.1c-7.2-2-12-13.8-8.8-20.1c-2.7,17-13-7-13.6-12.9c-1.1-10.7,2.4-20.9,3.8-30.8
			c4.1-28.8-7-66,5.3-92.4C60.7,117,83.1,100,100.1,98C100.1,98,100,98.7,102,97.6z"/>
	</g>
	<g>
		<path fill="#E29F8F" d="M134.7,257.8c0,0-0.8-12.4,0-14.3c0,0,16.5-0.5,29.2-8c5.8-3.4,10.4-7.5,18.5-19.3c1.3-1.9,7.7,1.9,13.8-2
			c14.9-9.6,10-25.3-7.2-24.2c0.6-9,2.2-18,3.9-27v-10.7c-3.3-13.5-9.4-29.2-20.5-38.8C159.7,103,143,97.8,126.3,98l-6.8,0.2
			c-7,0.5-14,2-20.5,4.5l-4.3,1.8c-5.2,2.4-10,5.4-14.4,9c-11.1,9.6-17.1,25.3-20.5,38.8V163c1.7,9,3.3,18,3.9,27
			c-17.1-1.1-22.1,14.6-7.2,24.2c6.1,3.9,12.5,0.1,13.8,2c8.1,11.8,12.7,15.9,18.5,19.3c12.7,7.4,29.2,8,29.2,8
			c0.9,1.9,0,14.3,0,14.3c-4.1,3.4-6.8,3.8-8.7,4.9c0,0-3.9,18.4,18.7,18.4c23.5,0,13.3-16.2,14.8-19.1
			C142.8,261.9,138.7,261.2,134.7,257.8z"/>
	</g>
	<g>
		<path fill="#C04949" d="M144.9,210.5c1.8-0.1-6.5,5.4-18.6,5.4c-8,0-13.5-2.2-17.2-4.7C126.7,212,126.3,212,144.9,210.5z"/>
	</g>
	<g opacity="0.65">
		<g>
			<path fill="#E1B09F" d="M65.1,205.2c-0.6-4.8-4.7-10.8-8.7-8.3c-1.1,0.7-1.3,2.6-1.4,3.8c-0.2,3.7,1.4,8.4,5.3,9.5
				C64.3,211.4,65.5,208.6,65.1,205.2z"/>
		</g>
	</g>
	<g opacity="0.65">
		<g>
			<path fill="#E1B09F" d="M187.5,205.2c0.6-4.8,4.7-10.8,8.7-8.3c1.1,0.7,1.3,2.6,1.4,3.8c0.2,3.7-1.4,8.4-5.3,9.5
				C188.3,211.4,187.1,208.6,187.5,205.2z"/>
		</g>
	</g>
	<g>
		<path fill="#832819" d="M100.1,151.1c0,0,0-0.2,0-0.5c0-0.2,0-0.3,0-0.5c0-0.2,0-0.4,0.2-0.7c0.1-0.3,0.3-0.5,0.4-0.8
			c0.2-0.3,0.4-0.5,0.7-0.7c0.3-0.2,0.5-0.5,0.8-0.6c0.3-0.2,0.6-0.3,1-0.5c0.3-0.1,0.7-0.2,1-0.3c0.3-0.1,0.7-0.1,1-0.1
			c0.6,0,1.3,0.1,1.7,0.2c0.5,0.1,0.9,0.4,1.1,0.5c0.3,0.2,0.4,0.3,0.4,0.3s-0.2,0.1-0.5,0.1c-0.3,0.1-0.7,0.1-1.1,0.2
			c-0.2,0.1-0.5,0.1-0.7,0.2c-0.2,0-0.5,0.2-0.8,0.2c-0.5,0.1-1,0.3-1.6,0.5c-0.3,0.1-0.5,0.2-0.7,0.3c-0.3,0.1-0.5,0.2-0.7,0.3
			c-0.2,0.1-0.5,0.2-0.6,0.4c-0.2,0.1-0.3,0.2-0.5,0.4c-0.2,0.1-0.4,0.3-0.5,0.4c-0.1,0.2-0.3,0.3-0.4,0.4
			C100.3,151,100.1,151.1,100.1,151.1z"/>
	</g>
	<g>
		<path fill="#A15B48" d="M126,167.6c0,0-0.2,0.7-0.5,1.9c-0.2,0.6-0.3,1.3-0.4,2.2c-0.1,0.8-0.1,1.8-0.1,2.8c0,1,0.1,2.1,0.3,3.3
			c0.2,1.1,0.5,2.4,1,3.5c0.4,1.2,1,2.3,1.8,3.4c0.7,1.1,1.6,2.1,2.6,2.9c0.9,0.9,2.2,1.6,3.3,2.5c0.6,0.5,1.1,1,1.6,1.6
			c0.5,0.7,0.8,1.5,0.8,2.4c0,0.9-0.3,1.6-0.6,2.3c-0.4,0.6-0.7,1.1-1.2,1.7c-1,1.1-2.3,1.4-3.4,1.5c-2.2,0.2-4-0.4-5.1-1
			c-0.6-0.3-0.9-0.6-1.2-0.9c-0.2-0.2-0.3-0.4-0.3-0.4s0.1,0.1,0.4,0.3c0.3,0.2,0.7,0.4,1.3,0.6c1.1,0.4,2.9,0.6,4.8,0.2
			c0.9-0.2,1.9-0.6,2.5-1.4c0.6-0.8,1.3-2,1.2-2.9c0-0.9-0.8-1.8-1.9-2.5c-1-0.8-2.2-1.5-3.4-2.5c-1.1-1-2.1-2.1-2.9-3.4
			c-0.8-1.2-1.4-2.6-1.8-3.9c-0.5-1.3-0.7-2.7-0.8-3.9c-0.1-1.3-0.1-2.5,0-3.6c0.1-1.1,0.3-2.1,0.6-2.9c0.2-0.8,0.5-1.6,0.8-2.2
			c0.2-0.6,0.5-1,0.7-1.3C125.9,167.7,126,167.6,126,167.6z"/>
	</g>
	<g opacity="0.6">
		<g>
			<path fill="#F7B9CE" d="M84.4,197.1c2.4,1.3,9.4,2.3,9.4-2c0-4.3-7.3-4.6-9.9-3.4C80.4,193.4,81.4,195.5,84.4,197.1z"/>
		</g>
	</g>
	<g>
		<path fill="#603016" d="M65.8,174.7c13.9-21.2,22-35.1,39-55.1c12.9,11.5,29.5,20.9,47,21.9c4.3,0.3,9.9,0,14.1-0.9
			c0.1,2,1.3,3.6,2.3,5.3c2.5,4,5.5,8.1,8.6,12c2.9,3.6,6.9,7.4,9,11.6c3.8,8,0,17.1,1.7,25.3c10.2-12.9,9.6-39.6,4-57
			c-4.7-15.6-19.6-31.5-34.6-37.8c-11.7-4.5-31.1-4.4-43.1-2.9c-8.7,0.9-38.7,14.2-42.9,20.2c0,0-12.1,17.4-14.8,34.3
			c-1.1,7.2,3.1,34.7,5.4,43.2c0,0,1.4,5.1,2.2,1.6C64.6,192.9,65.8,174.7,65.8,174.7z"/>
	</g>
	<g>
		<g>
			<path d="M106.1,186.6c3.2-0.2,3.3-4.7,2.8-7c-0.3-1.2-0.9-2.8-2-3.4c-1.3-0.7-3,0.1-3.6,1.3C102.2,180.1,101.9,186.8,106.1,186.6
				z"/>
		</g>
	</g>
	<g>
		<path fill="#832819" d="M150,151.1c0,0-0.1-0.1-0.3-0.3c-0.1-0.1-0.2-0.2-0.4-0.4c-0.1-0.2-0.3-0.3-0.5-0.4
			c-0.2-0.1-0.4-0.2-0.5-0.4c-0.2-0.1-0.4-0.2-0.6-0.4c-0.2-0.1-0.4-0.2-0.7-0.3c-0.2-0.1-0.5-0.2-0.7-0.3c-0.5-0.2-1-0.4-1.6-0.5
			c-0.3,0-0.5-0.2-0.8-0.2c-0.2,0-0.5-0.1-0.7-0.2c-0.5-0.1-0.8-0.1-1.1-0.2c-0.3-0.1-0.5-0.1-0.5-0.1s0.1-0.1,0.4-0.3
			c0.3-0.1,0.6-0.4,1.1-0.5c0.5-0.1,1.1-0.3,1.7-0.2c0.3,0,0.7,0,1,0.1c0.3,0.1,0.7,0.2,1,0.3c0.3,0.1,0.6,0.3,1,0.5
			c0.3,0.1,0.6,0.4,0.8,0.6c0.3,0.2,0.5,0.4,0.7,0.7c0.2,0.3,0.3,0.6,0.4,0.8c0.1,0.3,0.2,0.5,0.2,0.7c0,0.2,0,0.4,0,0.5
			C150.1,150.9,150,151.1,150,151.1z"/>
	</g>
	<g opacity="0.6">
		<g>
			<path fill="#F7B9CE" d="M166.7,197.1c-2.4,1.3-9.4,2.3-9.4-2c0-4.3,7.3-4.6,9.9-3.4C170.7,193.4,169.7,195.5,166.7,197.1z"/>
		</g>
	</g>
	<g>
		<g>
			<path d="M144.6,186.6c-3.2-0.2-3.3-4.8-2.7-7.1c0.3-1.2,0.9-2.7,2.1-3.3c1.3-0.6,3,0.1,3.5,1.4
				C148.7,180.2,148.8,186.9,144.6,186.6z"/>
		</g>
	</g>
	<g>
		<path fill="#E0AF6B" d="M60.1,176.1c0.1,1.5,3-63.9,66.3-64.7c62.9-0.8,66.7,51.3,69.1,76.5c0,0,12.5-94.9-69.1-89.9
			C49.5,102.8,59.5,161.2,60.1,176.1z"/>
	</g>
	<g>
		<path fill="#E29F8F" d="M101.8,266.2c5.5,9.3,5.2,23.3,0.6,32.7c-1.8,3.6-5.2,10.2-9.8,10.5c-8.5,0.5-5.5-12.8-4.2-20
			C89.6,282.2,98.5,260.7,101.8,266.2z"/>
	</g>
	<g>
		<path fill="#E29F8F" d="M151.6,266c-5.5,9.3-5.8,24.7-1.2,34.1c1.8,3.6,5.2,10.5,9.8,10.5c8.4,0,5.5-12.8,4.2-20
			C163.2,283.4,154.9,260.4,151.6,266z"/>
	</g>
	<g>
		<path fill="#9CC680" d="M174.5,367.7c-1.4-14.5-4-28.8-5.7-43.3c-0.4-3.2-4-21.4-2.6-22.8c-2.6,2.5-6,2.2-8.4-0.3
			c-7.6-7.9-6.3-26.2-4.1-36c-3.4-1.2-8.1-4.4-11.7-3.8c0.4,3.1,2.3,7,0.8,10.1c-0.9,2-2.8,3.4-4.6,4.3c-6.1,3.3-12.3,4.2-19.1,2.5
			c-8-2-8.8-9.1-7.5-17c-4.1-0.3-9,2.2-12.3,4.4c7.7,9.3,5,29.6-3.7,37.3c-2.6,2.3-5.4,2.9-8.6,1.3c1.1,0.5-1.9,35.4-2,38.5
			c-0.3,14.2-1.1,28.4-3.6,42.4"/>
	</g>
	<g>
		<path fill="#E29F8F" d="M193.9,327.3c-0.1-0.2-0.2-0.4-0.3-0.6c-6.3-14-11.9-29.1-20-42c-1.8-2.9-17.4-23.5-18.9-14
			c-3,17.9,5.7,30.9,9.6,42.2c9.1,25.9,30.2,51.6,26.1,80.7c-0.5,3.8-1.7,8.3-2.8,12c-0.9,2.8-5.6,6.9-4.4,10.1
			c2,5.3,9.2,0,10.7-2.9c1-2,1.5-4.9,3.4-6.3c2.3-1.6,3.8,1.3,5.2,2.6c2.5,2.3,4.9,4.5,7.2,7.1c1.4,1.6,2.9,3.6,5,4.4
			c2.4,1,4.6-0.9,5.1-3.1c0.7-2.9-1.2-4.7-3.1-6.5c-2.5-2.3-5.3-4.7-7.6-7.2c3.5,2.8,7.6,5.3,10.7,8.5c1.9,2,3.9,4.1,6.7,2
			c1.2-1,2.8-2.9,2.3-4.6c-0.7-2.1-3.6-3.9-5.2-5.2c-3.4-2.6-6.9-5-10.4-7.5c2.5,1.7,5.8,3.4,8.5,4.7c2.9,1.3,7.4,4.5,9.5,0.3
			c1.6-3.2-1.5-4.2-4-5.2c-3.1-1.3-6.7-3-10-3.7c2.5-0.4,5,0.2,7.5-0.3c6.1-1.1,2.1-6.2-2.6-5.5c-5.1,0.8-9.3,0.5-14.5,0.4
			c0.1-5.1,0.1-9.9-0.4-15C205.9,357.2,200.2,341.5,193.9,327.3z"/>
	</g>
	<g>
		<path fill="#E29F8F" d="M69.4,358.9c6-15.8,15.2-30.1,20.8-46c4-11.2,12.6-24.3,9.6-42.2c-1.6-9.5-17.1,11.1-18.9,14
			c-8.1,12.9-13.7,28-20,42c-0.1,0.2-0.2,0.4-0.3,0.6c-6.3,14.2-12,29.8-13.3,45.5c-0.4,4.6-2,13.1-1.9,20.1c-0.5,0.1-1,0.1-1.5,0.2
			c-5.6,1-11.3,2.6-15.6,4.5c-1.7,0.8-3.3,1.9-5,2.7c-1,3.3,0.1,6.9,3.9,5.6c-3.4,2.6-2.2,10.6,2.9,7.9c-0.8,0.4-0.7,2.6-0.4,3.3
			c0.4,0.8,1.2,1.6,2,2c1.4,0.7,3.7,0.7,4.9-0.4c-0.8,1.9,1.1,3.4,2.7,3.9c1.7,0.5,4.4-0.3,5.7-1.5c4.2-3.7,7.5-13,14.5-10
			c4.2,1.7,5.5,8.4,11.1,6c6.7-2.8-2.7-9.3-5.6-11.3c0.8,0.6,0.7-8.4-0.1-9.6c-0.4-0.6-0.8-1.1-1.3-1.6c-0.6-3.8-1.1-7.6-0.5-11.6
			C64.4,374.7,66.4,366.7,69.4,358.9z"/>
	</g>
</g>
<path fill="#FFFFFF" d="M233.9,197.7c0.9-1.2,2.4-1.2,3.5-0.6c0.5,1.6,1.2,3.8-0.9,4.4C234.2,202.3,232.5,199.5,233.9,197.7z"/>
<path fill="#D71865" d="M290.1,164.8c-0.8-3.9,3.1-6,6.4-4.7c0.1,0,0.2,0.1,0.3,0.1c0.1,0.2,0.3,0.5,0.3,0.6
	c0.7,1.5,1.2,3.2,0.5,4.8C296.2,168.9,290.9,168.2,290.1,164.8z"/>
<path fill="#FFFFFF" d="M257.2,76.3c0.4-0.2,0.2-0.9-0.2-0.9c-1.9,0-3.8,0.4-5.5,1.1c0.9-4.5,1.7-8.7,4-12.9
	c2.9-5.2,7-9.6,12.1-12.7c11.1-6.7,22.8-5.2,34.2-0.9c-0.4,2-0.6,4.2-0.4,6.4c0.1,0.6,0.9,0.8,1.1,0.2c3.7-12.3,11.5-22.8,25.5-23.2
	c6.6-0.2,12.9,2.2,17.8,6.7c4.1,3.8,5.8,8.6,8.4,13.4c0.5,1,2,0.5,2-0.5c0.1-2.5-0.4-4.9-1.2-7.1c7.8-0.9,15-2.4,22,2.8
	c7.6,5.5,7.9,13.9,4.8,22c-0.3,0.8,0.8,1.2,1.3,0.7c2.9-2.4,4.2-5.5,4.5-8.9c13.3,4.3,23.4,13.7,22.5,29.1
	c-0.9,14.8-14.1,33.1-30.8,28.6c-0.7-0.2-1.2,0-1.5,0.4c-0.4,0.3-0.8,0.7-0.8,1.3c-2.2,20.4-26.2,29.2-40.7,14.5
	c-1-1.1-2.6-0.4-3,0.8c-4.5,11.8-18.1,3.1-23.6-2.4c-0.7-0.7-1.9-0.7-2.6,0c-2.6,2.3-5.7,3.6-9.3,3.3c-2.7-0.2-4.9-2.6-7.1-2.8
	c-1.8-0.2-3.3,1-4.9,1.7c-2.6,1-5.2,1.6-8,2c-12.8,1.8-28.2-6.3-25.7-20.7c1.4,0.3,2.8,0.3,4.3-0.1c0.1,0,0.1-0.1,0.1-0.2
	c-1.3-1.3-2.8-2.4-4.3-3.4c-0.2-0.2-0.4-0.3-0.6-0.4c-1.7-1.1-3.3-2.3-4.7-3.8c-3.3-3.7-5.4-8.6-5.3-13.7
	C241.5,86.9,249.2,80.4,257.2,76.3z"/>
<path fill="#D71865" d="M275.4,179c1-1.3,2.6-1.3,3.8-0.6c0.6,1.7,1.3,4.1-0.9,4.8C275.7,184,273.8,181,275.4,179z"/>
<path opacity="0.5" fill="#9CC680" d="M237.8,96.7c-0.1,6.3,4.2,16.5,10.7,20.3c-2.8,14.1,9.4,25.2,23.1,26c4.4,0.2,8.8-0.5,13-1.8
	c3.5-1.1,4.3-1.7,7.8-0.6c5.8,1.7,11,1.3,15.7-2.1c4.6,4.4,10.3,8.6,17,8.1c4.5-0.3,8.1-2.5,10.3-6c16.3,13.8,41.8,4.6,44.5-16.9
	c17,3.4,31-13.7,33.1-29.3c2-14.9-8.7-35.1-25.6-34.6c-0.4-4.6-2.7-9.1-6-12.3c-6.9-6.6-19.1-8.8-27.6-4c-5-9.2-17-14.8-26.9-14.2
	c-10.7,0.7-21.4,8.2-24.7,18.4c-10.8-7.3-26.7-6.2-37.4,0.6c-9.4,6-18,18.3-17.1,30C241.9,82.2,237.9,89.6,237.8,96.7z M241.4,96.7
	c0.1-9.8,7.8-16.3,15.8-20.4c0.4-0.2,0.2-0.9-0.2-0.9c-1.9,0-3.8,0.4-5.5,1.1c0.9-4.5,1.7-8.7,4-12.9c2.9-5.2,7-9.6,12.1-12.7
	c11.1-6.7,22.8-5.2,34.2-0.9c-0.4,2-0.6,4.2-0.4,6.4c0.1,0.6,0.9,0.8,1.1,0.2c3.7-12.3,11.5-22.8,25.5-23.2
	c6.6-0.2,12.9,2.2,17.8,6.7c4.1,3.8,5.8,8.6,8.4,13.4c0.5,1,2,0.5,2-0.5c0.1-2.5-0.4-4.9-1.2-7.1c7.8-0.9,15-2.4,22,2.8
	c7.6,5.5,7.9,13.9,4.8,22c-0.3,0.8,0.8,1.2,1.3,0.7c2.9-2.4,4.2-5.5,4.5-8.9c13.3,4.3,23.4,13.7,22.5,29.1
	c-0.9,14.8-14.1,33.1-30.8,28.6c-0.7-0.2-1.2,0-1.5,0.4c-0.4,0.3-0.8,0.7-0.8,1.3c-2.2,20.4-26.2,29.2-40.7,14.5
	c-1-1.1-2.6-0.4-3,0.8c-4.5,11.8-18.1,3.1-23.6-2.4c-0.7-0.7-1.9-0.7-2.6,0c-2.6,2.3-5.7,3.6-9.3,3.3c-2.7-0.2-4.9-2.6-7.1-2.8
	c-1.8-0.2-3.3,1-4.9,1.7c-2.6,1-5.2,1.6-8,2c-12.8,1.8-28.2-6.3-25.7-20.7c1.4,0.3,2.8,0.3,4.3-0.1c0.1,0,0.1-0.1,0.1-0.2
	c-1.3-1.3-2.8-2.4-4.3-3.4c-0.2-0.2-0.4-0.3-0.6-0.4c-1.7-1.1-3.3-2.3-4.7-3.8C243.3,106.7,241.3,101.8,241.4,96.7z"/>
<path opacity="0.5" fill="#9CC680" d="M301.1,167.1c0.8-2,0.8-4.4-0.2-6.4c-0.2-0.3-0.4-0.6-0.6-1c-0.2-0.3-0.3-0.6-0.6-0.9
	c-2.9-3.6-8.4-4.1-11.5-0.5c-3.1,3.4-2.7,9.4,1.2,12C293.3,173,299.3,171.6,301.1,167.1z M296.5,160.1c0.1,0,0.2,0.1,0.3,0.1
	c0.1,0.2,0.3,0.5,0.3,0.6c0.7,1.5,1.2,3.2,0.5,4.8c-1.4,3.2-6.7,2.6-7.5-0.8C289.3,160.9,293.2,158.8,296.5,160.1z"/>
<path opacity="0.5" fill="#9CC680" d="M281.8,185.5c1.7-1.7,2.3-4.2,1.5-6.5c-1.8-4.9-8.3-5.6-11-1c-1.8,3.2,0,6.9,3.1,8.1
	c0,0.1,0.1,0.3,0.2,0.4C277.3,188.3,280.3,187,281.8,185.5z M279.1,178.4c0.6,1.7,1.3,4.1-0.9,4.8c-2.5,0.8-4.4-2.2-2.8-4.2
	C276.4,177.7,278,177.7,279.1,178.4z"/>
<path opacity="0.5" fill="#9CC680" d="M260.9,195.8c1.5-1.5,2.1-3.8,1.3-5.8c-1.6-4.4-7.5-5-9.8-0.9c-1.7,2.9,0,6.2,2.7,7.2
	c0,0.1,0.1,0.3,0.2,0.4C256.9,198.4,259.5,197.2,260.9,195.8z M258.5,189.5c0.5,1.5,1.1,3.7-0.8,4.3c-2.3,0.7-3.9-2-2.5-3.8
	C256,188.9,257.4,188.9,258.5,189.5z"/>
<path opacity="0.5" fill="#9CC680" d="M239.7,203.6c1.5-1.5,2.1-3.8,1.3-5.8c-1.6-4.4-7.5-5-9.8-0.9c-1.7,2.9,0,6.2,2.7,7.2
	c0,0.1,0.1,0.3,0.2,0.4C235.7,206.2,238.4,205,239.7,203.6z M237.3,197.3c0.5,1.5,1.1,3.7-0.8,4.3c-2.3,0.7-3.9-2-2.5-3.8
	C234.8,196.7,236.2,196.7,237.3,197.3z"/>
<path fill="#E7F1E0" d="M246.6,84.1c-1.6,4.9-1.6,10.3,0.3,15c2.5,6.7,8.4,12,15.3,13.8c-0.9,4.7,1,9.8,4.8,12.7
	c3.8,2.9,9.2,3.4,13.5,1.3c1.3-0.6,2.6-1.5,4-1.3c1.6,0.2,2.7,1.7,3.7,2.9c2.8,3.1,7.2,4.7,11.3,4.1c4.1-0.5,7.9-3.1,9.9-6.8
	c0.5,6,7.6,9.9,13.4,8.6c5.9-1.3,10.3-6.4,12.5-12.1c4.5,7.8,14.8,11.7,23.3,8.7c8.5-3,14.2-12.4,12.8-21.3
	c5.6,5.3,14.8,5.7,21.6,2.1c6.8-3.6,11.5-10.4,14.1-17.7c1.1-3.3,1.9-6.6,2.4-10c0.5,2.3,0.7,4.8,0.5,7.6
	c-0.9,14.8-14.1,33.1-30.8,28.6c-0.7-0.2-1.2,0-1.5,0.4c-0.4,0.3-0.8,0.7-0.8,1.3c-2.2,20.4-26.2,29.2-40.7,14.5
	c-1-1.1-2.6-0.4-3,0.8c-4.5,11.8-18.1,3.1-23.6-2.4c-0.7-0.7-1.9-0.7-2.6,0c-2.6,2.3-5.7,3.6-9.3,3.3c-2.7-0.2-4.9-2.6-7.1-2.8
	c-1.8-0.2-3.3,1-4.9,1.7c-2.6,1-5.2,1.6-8,2c-12.8,1.8-28.2-6.3-25.7-20.7c1.4,0.3,2.8,0.3,4.3-0.1c0.1,0,0.1-0.1,0.1-0.2
	c-1.3-1.3-2.8-2.4-4.3-3.4c-0.2-0.2-0.4-0.3-0.6-0.4c-1.7-1.1-3.3-2.3-4.7-3.8c-3.3-3.7-5.4-8.6-5.3-13.7
	C241.4,91.7,243.5,87.5,246.6,84.1z"/>
<path fill="#FFFFFF" d="M255.1,189.9c0.9-1.2,2.4-1.2,3.5-0.6c0.5,1.6,1.2,3.8-0.9,4.4C255.3,194.6,253.6,191.8,255.1,189.9z"/>
<path fill="#FFFFFF" d="M233.9,197.8c0.9-1.2,2.4-1.2,3.5-0.6c0.5,1.6,1.2,3.8-0.9,4.4C234.2,202.4,232.5,199.6,233.9,197.8z"/>
<path fill="#FFFFFF" d="M290.1,164.8c-0.9-4,3.1-6.1,6.5-4.8c0.1,0,0.2,0.1,0.3,0.1c0.1,0.2,0.3,0.5,0.3,0.6
	c0.7,1.5,1.2,3.3,0.5,4.9C296.2,168.9,290.8,168.3,290.1,164.8z"/>
<path fill="#FFFFFF" d="M275.3,179c1.1-1.3,2.7-1.4,3.9-0.6c0.6,1.7,1.3,4.3-1,5C275.6,184.2,273.7,181,275.3,179z"/>
<g>
	<rect x="312.4" y="63.5" fill="#BDBDBD" width="36.8" height="2.7"/>
	<rect x="312.4" y="68.4" fill="#BDBDBD" width="36.8" height="2.7"/>
	<rect x="312.4" y="73.2" fill="#BDBDBD" width="36.8" height="2.7"/>
	<rect x="312.4" y="83.7" fill="#BDBDBD" width="36.8" height="2.7"/>
	<rect x="312.4" y="88.6" fill="#BDBDBD" width="36.8" height="2.7"/>
	<rect x="312.4" y="93.5" fill="#BDBDBD" width="36.8" height="2.7"/>
	<rect x="312.4" y="104" fill="#BDBDBD" width="36.8" height="2.7"/>
	<rect x="312.4" y="108.8" fill="#BDBDBD" width="36.8" height="2.7"/>
	<rect x="312.4" y="113.7" fill="#BDBDBD" width="36.8" height="2.7"/>
	<path fill="#E0E0E0" d="M297.1,63.5v12.4h12.4V63.5H297.1z M307.3,73.8h-8.1v-8.1h8.1V73.8z"/>
	<path fill="#E0E0E0" d="M297.1,83.7v12.4h12.4V83.7H297.1z M307.3,94h-8.1v-8.1h8.1V94z"/>
	<path fill="#E0E0E0" d="M297.1,104v12.4h12.4V104H297.1z M307.3,114.2h-8.1v-8.1h8.1V114.2z"/>
	<g>
		<polygon fill="#57CE42" points="302.4,72.9 298.5,67.6 300.5,66.1 302.8,69.2 309.5,63.5 311.1,65.4 		"/>
	</g>
	<g>
		<polygon fill="#57CE42" points="302.4,93.2 298.5,87.8 300.5,86.3 302.8,89.5 309.5,83.7 311.1,85.6 		"/>
	</g>
</g>
</svg>
