<?xml version="1.0" encoding="utf-8"?>
<!-- Generator: Adobe Illustrator 18.0.0, SVG Export Plug-In . SVG Version: 6.00 Build 0)  -->
<!DOCTYPE svg PUBLIC "-//W3C//DTD SVG 1.1//EN" "http://www.w3.org/Graphics/SVG/1.1/DTD/svg11.dtd">
<svg version="1.1" id="Capa_1" xmlns="http://www.w3.org/2000/svg" xmlns:xlink="http://www.w3.org/1999/xlink" x="0px" y="0px"
	 viewBox="0 0 445 346.1" enable-background="new 0 0 445 346.1" xml:space="preserve">
<g>
	<path fill="#FFFFFF" d="M247.8,76.2c0.4-0.2,0.2-0.9-0.2-0.9c-2,0-3.8,0.4-5.6,1.1c0.9-4.5,1.7-8.8,4.1-13.1
		c2.9-5.2,7.1-9.7,12.2-12.8c11.2-6.7,23.1-5.2,34.6-0.9c-0.4,2.1-0.6,4.2-0.4,6.4c0.1,0.6,1,0.8,1.2,0.2
		c3.8-12.4,11.6-23,25.8-23.4c6.7-0.2,13.1,2.2,18,6.8c4.2,3.9,5.9,8.7,8.5,13.6c0.5,1,2,0.5,2.1-0.6c0.1-2.5-0.4-4.9-1.2-7.2
		c7.8-0.9,15.1-2.4,22.3,2.8c7.6,5.6,7.9,14.1,4.8,22.2c-0.3,0.8,0.8,1.2,1.3,0.7c2.9-2.4,4.3-5.6,4.5-9
		c13.4,4.4,23.7,13.8,22.7,29.4c-0.9,15-14.3,33.5-31.1,28.9c-0.7-0.2-1.2,0-1.6,0.4c-0.4,0.3-0.8,0.7-0.8,1.3
		c-2.2,20.6-26.5,29.6-41.2,14.7c-1-1.1-2.6-0.4-3.1,0.8c-4.6,11.9-18.3,3.1-23.9-2.4c-0.7-0.7-1.9-0.7-2.6,0
		c-2.6,2.3-5.8,3.6-9.4,3.4c-2.7-0.2-4.9-2.6-7.2-2.8c-1.8-0.2-3.3,1.1-4.9,1.7c-2.6,1-5.3,1.7-8.1,2.1c-13,1.8-28.5-6.4-26-20.9
		c1.4,0.3,2.8,0.3,4.4-0.1c0.1,0,0.1-0.1,0.1-0.2c-1.3-1.4-2.8-2.4-4.3-3.5c-0.2-0.2-0.4-0.3-0.6-0.4c-1.7-1.1-3.3-2.3-4.7-3.9
		c-3.4-3.8-5.4-8.7-5.4-13.8C231.9,86.9,239.7,80.3,247.8,76.2z"/>
</g>
<g>
	<path fill="#A7E1FB" d="M293.1,56.6c0.2,0,0.4-0.1,0.5-0.4c3.8-12.4,11.6-23,25.8-23.4c0.2,0,0.5,0,0.7,0c6.4,0,12.5,2.4,17.2,6.8
		c4.2,3.9,5.9,8.7,8.5,13.6c0.2,0.4,0.5,0.5,0.9,0.5c0.6,0,1.2-0.4,1.2-1.1c0.1-2.5-0.4-4.9-1.2-7.2c3.5-0.4,6.8-0.9,10.1-0.9
		c4.1,0,8.2,0.8,12.2,3.7c7.6,5.6,7.9,14,4.8,22.2c-0.2,0.6,0.3,0.9,0.8,0.9c0.2,0,0.4-0.1,0.5-0.2c2.9-2.4,4.3-5.6,4.5-9
		c13.4,4.4,23.7,13.8,22.7,29.4c-0.8,13.4-11.6,29.6-25.9,29.6c-1.7,0-3.4-0.2-5.2-0.7c-0.2,0-0.3-0.1-0.5-0.1
		c-0.4,0-0.8,0.2-1.1,0.5c-0.4,0.3-0.8,0.7-0.8,1.3c-1.5,13.6-12.5,22.1-24,22.1c-6,0-12.2-2.3-17.2-7.4c-0.4-0.4-0.8-0.5-1.2-0.5
		c-0.8,0-1.5,0.5-1.8,1.4c-1.7,4.3-4.6,5.9-7.8,5.9c-5.7,0-12.5-4.8-16.1-8.4c-0.4-0.4-0.8-0.5-1.3-0.5c-0.5,0-1,0.2-1.4,0.5
		c-2.4,2.2-5.3,3.4-8.6,3.4c-0.3,0-0.5,0-0.8,0c-2.7-0.2-4.9-2.6-7.2-2.8c-0.1,0-0.2,0-0.3,0c-1.6,0-3.1,1.1-4.6,1.7
		c-2.6,1-5.3,1.7-8.1,2.1c-1.2,0.2-2.4,0.3-3.7,0.3c-12,0-24.6-8-22.4-21.1c0.6,0.1,1.3,0.2,2,0.2c0.8,0,1.6-0.1,2.4-0.3
		c0.1,0,0.1-0.2,0.1-0.2c-1.3-1.4-2.8-2.4-4.3-3.5c-0.2-0.2-0.4-0.3-0.6-0.4c-1.7-1.1-3.3-2.3-4.7-3.9c-3.4-3.8-5.4-8.7-5.4-13.8
		c0.1-9.9,7.9-16.5,16-20.7c0.4-0.2,0.2-0.9-0.2-0.9c0,0,0,0,0,0c-2,0-3.8,0.4-5.6,1.1c0.9-4.5,1.7-8.8,4.1-13.1
		c2.9-5.2,7.1-9.7,12.2-12.8c5.4-3.3,11-4.6,16.7-4.6c6,0,12,1.5,18,3.7c-0.4,2.1-0.6,4.2-0.4,6.4C292.6,56.4,292.9,56.6,293.1,56.6
		 M320,28.6c-0.5,0-1,0-1.5,0c-10.9,0.7-21.6,8.3-25,18.7c-5.1-3.5-11.4-5.1-17.8-5.1c-7.1,0-14.3,2-20.1,5.6
		c-9.5,6-18.3,18.5-17.3,30.3c-6.1,4-10.1,11.4-10.1,18.6c-0.1,6.4,4.2,16.7,10.8,20.5c-2.9,14.3,9.5,25.5,23.4,26.3
		c0.6,0,1.2,0,1.7,0c3.9,0,7.8-0.7,11.4-1.9c2.3-0.7,3.4-1.2,4.8-1.2c0.8,0,1.8,0.2,3,0.6c2.2,0.7,4.3,1,6.4,1c3.4,0,6.6-1,9.5-3.1
		c4.4,4.2,9.8,8.2,16.1,8.2c0.3,0,0.7,0,1.1,0c4.5-0.3,8.2-2.5,10.5-6.1c5.3,4.5,11.7,6.6,17.9,6.6c12.9,0,25.3-9,27.2-23.7
		c1.5,0.3,3,0.4,4.4,0.4c15.1,0,27.1-15.7,29.1-30.1c2-14.8-8.5-35-25.2-35c-0.2,0-0.5,0-0.7,0c-0.4-4.6-2.7-9.3-6-12.4
		c-4.4-4.2-11-6.7-17.4-6.7c-3.7,0-7.4,0.8-10.5,2.6C340.9,34.2,329.7,28.6,320,28.6"/>
</g>
<g>
	<path fill="#FFCD9F" d="M77.7,334.1c0,0-9.7,42.7-10.3,65.5c0,0-6.2,20.8-3.4,30.6c2.8,9.8,6.5,3,6.5,3s1.4,2,3.1,1.8
		c1.7-0.2,2.3-1.9,2.3-1.9s1.3,1.9,3.5,1.1c2.2-0.8,2.3-3,2.3-3s2.3,1,3.7,0.2c1.3-0.8,1-4.3,0-6.4c-1-2.1-2.1-5.5-2.1-6.6
		c0-1.1,2.5-14.2,0.1-18.7c-2.4-4.5-3.2-5.5-3.1-7.3c0.1-1.8,6.8-44.9,10.8-52.4c4.1-7.4-3.6-5.5-3.6-5.5l-5.1-1.2L77.7,334.1z"/>
	<path fill="#FFCD9F" d="M179.5,408.4c0,0,9-11.6,11-29.6c2-18-8.8-41.7-8.5-41.9c0.3-0.2-11.7-3.6-11.7-3.6l-1.2,6.3
		c0,0,6.6,19.5,8.2,34.8c1.6,15.2-7.4,26.8-7.4,26.8h-2.8c0,0-4.6,2.6-7,10.2c-2.4,7.6,0.2,8.2,2.4,7c0,0-1.4,7.8,2.2,6.6
		c0,0,0.4,4.9,3.6,5c0,0,1,2.4,3.3,2.2c2.3-0.2,5.3-4,4.9-12.2"/>
	<path fill="#6991AC" d="M159.6,329.8l8.3,70.1c0,0-39.6,20.4-80.5-4.8c0,0,4.4-41.6,4.8-54.9c0,0-11.2-0.4-16.8-8.8l12.8-39.2
		l31.8-12.1h20l27.9,11c0,0,18.8,33,21.2,36.6c0,0-3,15.3-25.2,11.4L159.6,329.8z"/>
	<path fill="#E2A879" d="M120,271.2v8.9c0,0,9.5,6,20,0v-8.9h-16.2H120z"/>
	<path fill="#E2A879" d="M189.2,211.3c0,0-1.3-15.9,6.1-16.7c7.4-0.8,5.5,31.7-10.9,34.4L189.2,211.3z"/>
	<path fill="#E2A879" d="M68.8,197.6c0,0-4,1.2-3.4,11.4c0.6,10.2,8.1,16.4,8.1,16.4V217c0,0-0.7-10.8-0.9-11.6
		C72.4,204.6,68.8,197.6,68.8,197.6z"/>
	<path fill="#FFCD9F" d="M68.7,194.6c0,0-0.1,79.3,62.8,79.3c53.5,0,59.5-73.9,59.5-73.9s-8.1-38.7-8.1-40.5
		c0-1.8-15.3-9.9-17.1-10.5c-1.8-0.6-45.9,0.3-48.1,0c-2.1-0.3-24.9,4.2-28.5,4.2c-3.6,0-9.6,1.8-10.2,3
		C78.3,157.4,68.7,194.6,68.7,194.6z"/>
	<path fill="#735360" d="M189.2,211.3c0,0-3.1,0.9-5.9,0l-6.2-22.1l1.2-3.6c0,0-3.4-18.4-11-24c0,0-16.4,7.8-38.4,7.2
		c-22-0.6-42.4-6.4-42.4-6.4s-5.6,2.4-10.8,18.2v8.8c0,0-5.4,9.4-6.2,13.2c0,0-5-10.8-0.7-35.4l-4.7-3.8l4.7-0.6l-17.1-14l13.8-2.2
		c0,0-13-7.6-16.6-12.6c-3.6-5-8.8-10-8.8-10s42.8-3.4,46.3-4.6c0,0-8.3-8-12.7-15.2c0,0,43.8,8.8,51,11c0,0-9-13.4-12.6-15.6
		c0,0,35.8,13.8,58.3,32.2c0,0-4.2-14.2-5.8-18.4c0,0,21.2,28.8,24.9,39.4C189.2,152.8,201.7,186.6,189.2,211.3z"/>
	<ellipse fill="#3E3947" cx="101.2" cy="208.7" rx="4.6" ry="5.8"/>
	<ellipse fill="#3E3947" cx="151.5" cy="208.7" rx="4.6" ry="5.8"/>
	<path fill="#735360" d="M104.4,189.9c0,0-2.5-2.4-5.7-1.8c-3.2,0.6-5.7,4.2-5.7,4.2s0.5-6.9,6.4-7.5c0,0,2.1-0.4,5,1V189.9z"/>
	<path fill="#735360" d="M145.7,183.8v5.1c0,0,7.4-5.4,13.9,2.3C159.6,191.2,158.5,180.1,145.7,183.8z"/>
	<path fill="#E2A879" d="M117.3,222.3c0,0-5.6,7.1,2.7,12.8c0,0-8.5,0.6-9.5-5.6C109.4,222.6,117.3,222.3,117.3,222.3z"/>
	<path fill="#FDF5ED" d="M108.6,242.3c0,0,0.1,1.8,0.8,4.2c6.2,1.7,24.4,5.5,40.5-1.8c1.5-4.2,1.6-7.8,1.6-7.8
		C134.7,248.9,108.6,242.3,108.6,242.3z"/>
	<g>
		<path fill="#9E005D" d="M109.5,246.5c0.7,2.2,2,4.8,4.3,7.1c2.1-2.1,5.1-3.7,8.3-4.9C116.5,248.2,112,247.2,109.5,246.5z"/>
		<path fill="#DA727E" d="M130.1,259.1c12.4-0.4,17.7-8.2,19.9-14.5c-9.5,4.4-19.8,4.8-27.9,4.1c-3.2,1.2-6.2,2.8-8.3,4.9
			C116.9,256.8,121.9,259.3,130.1,259.1z"/>
	</g>
	<path fill="#E2A879" d="M125.6,263.3c0,0,7.3,2.2,11.9-0.4C137.6,262.9,132.6,268.9,125.6,263.3z"/>
	<path fill="#455C7B" d="M141.4,280.6c0,0-24.3,57.5-51.1,84.8c0,0-1.2,13-1.5,15.6c0,0,51.5-39,71.7-92.9
		C160.5,288.1,142.8,281.2,141.4,280.6z"/>
	<path fill="#4A7891" d="M92.2,340.2c0,0,1.4-27.2,1.5-27.6c0.1-0.4-4.2,27.3-4.2,27.3L92.2,340.2z"/>
</g>
<path fill="#D71865" d="M280.5,164.9c-0.8-3.9,3.1-6,6.4-4.7c0.1,0,0.2,0.1,0.3,0.1c0.1,0.2,0.3,0.5,0.3,0.6
	c0.7,1.5,1.2,3.2,0.5,4.8C286.6,169,281.3,168.3,280.5,164.9z"/>
<path fill="#D71865" d="M265.8,179.1c1-1.3,2.6-1.3,3.8-0.6c0.6,1.7,1.3,4.1-0.9,4.8C266.1,184.1,264.2,181.1,265.8,179.1z"/>
<path fill="#FFFFFF" d="M280.5,164.9c-0.8-3.9,3.1-6,6.4-4.7c0.1,0,0.2,0.1,0.3,0.1c0.1,0.2,0.3,0.5,0.3,0.6
	c0.7,1.5,1.2,3.2,0.5,4.8C286.6,169,281.3,168.3,280.5,164.9z"/>
<path fill="#FFFFFF" d="M265.8,179.1c1-1.3,2.6-1.3,3.8-0.6c0.6,1.7,1.3,4.1-0.9,4.8C266.1,184.1,264.2,181.1,265.8,179.1z"/>
<path opacity="0.5" fill="#4FC3F7" d="M291.5,167.2c0.8-2,0.8-4.4-0.2-6.4c-0.2-0.3-0.4-0.6-0.6-1c-0.2-0.3-0.3-0.6-0.6-0.9
	c-2.9-3.6-8.4-4.1-11.5-0.5c-3.1,3.4-2.7,9.4,1.2,12C283.7,173.1,289.7,171.7,291.5,167.2z M286.9,160.2c0.1,0,0.2,0.1,0.3,0.1
	c0.1,0.2,0.3,0.5,0.3,0.6c0.7,1.5,1.2,3.2,0.5,4.8c-1.4,3.2-6.7,2.6-7.5-0.8C279.7,161,283.6,158.9,286.9,160.2z"/>
<path opacity="0.5" fill="#4FC3F7" d="M272.2,185.6c1.7-1.7,2.3-4.2,1.5-6.5c-1.8-4.9-8.3-5.6-11-1c-1.8,3.2,0,6.9,3.1,8.1
	c0,0.1,0.1,0.3,0.2,0.4C267.8,188.4,270.7,187.1,272.2,185.6z M269.5,178.5c0.6,1.7,1.3,4.1-0.9,4.8c-2.5,0.8-4.4-2.2-2.8-4.2
	C266.8,177.9,268.4,177.8,269.5,178.5z"/>
<path opacity="0.5" fill="#4FC3F7" d="M251.3,195.9c1.5-1.5,2.1-3.8,1.3-5.8c-1.6-4.4-7.5-5-9.8-0.9c-1.7,2.9,0,6.2,2.7,7.2
	c0,0.1,0.1,0.3,0.2,0.4C247.3,198.5,250,197.3,251.3,195.9z M248.9,189.6c0.5,1.5,1.1,3.7-0.8,4.3c-2.3,0.7-3.9-2-2.5-3.8
	C246.4,189,247.8,189,248.9,189.6z"/>
<path opacity="0.5" fill="#4FC3F7" d="M230.1,203.7c1.5-1.5,2.1-3.8,1.3-5.8c-1.6-4.4-7.5-5-9.8-0.9c-1.7,2.9,0,6.2,2.7,7.2
	c0,0.1,0.1,0.3,0.2,0.4C226.1,206.3,228.8,205.1,230.1,203.7z M227.7,197.4c0.5,1.5,1.1,3.7-0.8,4.3c-2.3,0.7-3.9-2-2.5-3.8
	C225.2,196.8,226.6,196.8,227.7,197.4z"/>
<g>
	<defs>
		<path id="SVGID_161_" d="M247.8,76c0.4-0.2,0.2-0.9-0.2-0.9c-2,0-3.8,0.4-5.6,1.1c0.9-4.5,1.7-8.8,4.1-13
			c2.9-5.2,7.1-9.7,12.2-12.8c11.2-6.7,23.1-5.2,34.6-0.9c-0.4,2.1-0.6,4.2-0.4,6.4c0.1,0.6,1,0.8,1.2,0.2
			c3.8-12.4,11.6-22.9,25.8-23.4c6.7-0.2,13.1,2.2,18,6.8c4.2,3.9,5.9,8.7,8.5,13.5c0.5,1,2,0.5,2.1-0.6c0.1-2.5-0.4-4.9-1.2-7.1
			c7.8-0.9,15.1-2.4,22.3,2.8c7.6,5.6,7.9,14,4.8,22.2c-0.3,0.8,0.8,1.2,1.3,0.7c2.9-2.4,4.3-5.6,4.5-8.9
			c13.4,4.4,23.7,13.8,22.8,29.3c-0.9,14.9-14.3,33.4-31.1,28.8c-0.7-0.2-1.2,0-1.6,0.4c-0.4,0.3-0.8,0.7-0.8,1.3
			c-2.2,20.6-26.5,29.5-41.2,14.6c-1-1.1-2.6-0.4-3.1,0.8c-4.6,11.9-18.3,3.1-23.9-2.4c-0.7-0.7-1.9-0.7-2.6,0
			c-2.6,2.3-5.8,3.6-9.4,3.4c-2.7-0.2-4.9-2.6-7.2-2.8c-1.8-0.2-3.3,1.1-4.9,1.7c-2.6,1-5.3,1.7-8.1,2c-13,1.8-28.5-6.1-26-20.5
			c1.4,0.3,2.9,0.3,4.4-0.1c0.1,0,0.1-0.1,0.1-0.2c-1.3-1.4-2.9-2.7-4.4-3.7c-0.2-0.2-0.4-0.3-0.6-0.4c-1.7-1.1-3.3-2.3-4.7-3.9
			c-3.4-3.8-5.4-8.7-5.4-13.8C231.9,86.7,239.7,80.2,247.8,76z"/>
	</defs>
	<clipPath id="SVGID_2_">
		<use xlink:href="#SVGID_161_"  overflow="visible"/>
	</clipPath>
	<g clip-path="url(#SVGID_2_)">
		<g>
			<path fill="#E6AC84" d="M306.8,114.4l5.7,5.1c0,0,0.8,1.4,3.6,0.7c2.1-0.5,9.1-1.7,12.3-2.5c1.6-0.4,1.7-0.2,3.1-2.9
				c1.7-3.4,5.2-12.3,5.2-12.3s-3.4-1.7-5.8,2.2c-1.6,2.7-2.8,4.8-3.4,6.3c-0.5,1.2-5.9,0.6-5.9,0.6s-6.4,0.8-7.7-0.9
				c-2.8-3.6-12.7-5-12.7-5C300.7,106.8,302,112.1,306.8,114.4z"/>
			<path fill="#F2BA8B" d="M306.7,117.8l7.9,2.9c0,0,1.4,1.1,4-0.7c2-1.3,8.6-5.4,11.5-7.5c1.4-1,1.7-0.9,1.9-4.2
				c0.3-4.1,0.2-14.5,0.2-14.5s-4.2-0.3-5,4.5c-0.5,3.3-0.8,6-0.9,7.7c0,1.4-5.8,3-5.8,3s-6.2,3.4-8.3,2.2c-4.3-2.5-11-7.8-11-7.8
				C301.3,104.8,300.8,117.4,306.7,117.8z"/>
			<path fill="#FBC69A" d="M307,120.6l8.7,0.9c0,0,1.7,0.7,3.8-1.7c1.6-1.9,7.2-7.6,9.5-10.4c1.2-1.4,1.4-1.4,0.8-4.7
				c-0.7-4.2-3.5-14.5-3.5-14.5s-4.3,0.8-3.8,5.8c0.3,3.4,0.7,6.2,1.1,7.9c0.3,1.4-5,4.5-5,4.5s-1.8,1.1-4.1,0.4
				c-5-1.4-6.2-7.5-6.2-7.5l-10.4,6.3C298.3,108.9,301,121.7,307,120.6z"/>
		</g>
		<g>
			<g>
				<path fill="#E8AF2E" d="M318.4,96.9c4.8,0.5,9.1-2.9,9.6-7.6c0.5-4.8-2.9-9.1-7.7-9.6c-4.8-0.5-9.1,2.9-9.6,7.6
					C310.2,92.1,313.6,96.4,318.4,96.9z"/>
				<path fill="#F9CA35" d="M318.6,95.4c3.9,0.4,7.4-2.4,7.9-6.3c0.4-3.9-2.4-7.4-6.3-7.9c-3.9-0.4-7.4,2.4-7.9,6.3
					C311.9,91.4,314.7,94.9,318.6,95.4z"/>
				<g>
					<g>
						<path fill="#C38728" d="M318.9,92.4c1.1,0.1,1.9,0,2.5-0.4c0.6-0.4,1-0.9,1-1.5c0.1-0.6-0.1-1.1-0.5-1.6
							c-0.4-0.4-1.1-0.8-2-1.1c-1-0.3-1.6-0.6-1.8-0.8c-0.3-0.2-0.4-0.5-0.3-0.8c0.1-0.7,0.7-1.1,1.8-0.9c1.2,0.1,1.8,0.7,1.8,1.6
							l1.9,0.1c-0.1-1.7-1.3-2.7-3.5-3c-0.9-0.1-1.8,0-2.5,0.4c-0.8,0.4-1.2,0.9-1.3,1.7c-0.1,0.7,0.1,1.3,0.5,1.7
							c0.4,0.5,1.1,0.9,2,1.2c0.9,0.3,1.5,0.5,1.8,0.7c0.3,0.2,0.4,0.4,0.4,0.7c-0.1,0.5-0.6,0.7-1.6,0.6c-1-0.1-1.5-0.4-1.4-1
							l-1.9-0.2C315.7,91.3,316.7,92.2,318.9,92.4z"/>
					</g>
					
						<rect x="317.8" y="92.2" transform="matrix(0.9933 0.1155 -0.1155 0.9933 12.8801 -36.1895)" fill="#C38728" width="1.8" height="1.6"/>
					
						<rect x="318.9" y="82.7" transform="matrix(0.9933 0.1155 -0.1155 0.9933 11.7947 -36.396)" fill="#C38728" width="1.8" height="1.6"/>
				</g>
			</g>
		</g>
		<g>
			<g>
				<path fill="#E8AF2E" d="M303.3,74.9c3.7,3,9.2,2.4,12.2-1.3c3-3.7,2.4-9.2-1.3-12.2c-3.7-3-9.2-2.4-12.2,1.3
					C299,66.5,299.6,71.9,303.3,74.9z"/>
				<path fill="#F9CA35" d="M304.3,73.7c3.1,2.5,7.6,2,10-1.1c2.5-3.1,2-7.5-1.1-10c-3.1-2.5-7.6-2-10,1.1
					C300.8,66.8,301.3,71.2,304.3,73.7z"/>
				<g>
					<g>
						<path fill="#C38728" d="M306.1,71.4c0.8,0.7,1.6,1,2.4,1c0.7,0,1.3-0.2,1.7-0.7c0.4-0.5,0.5-1,0.4-1.6c-0.1-0.6-0.5-1.3-1.1-2
							c-0.7-0.8-1-1.3-1.1-1.6c-0.1-0.3-0.1-0.6,0.2-0.8c0.5-0.6,1.1-0.5,2,0.2c0.9,0.7,1.2,1.5,0.7,2.3l1.5,1
							c0.8-1.5,0.4-3-1.4-4.4c-0.7-0.6-1.5-0.9-2.3-1c-0.8-0.1-1.5,0.1-2,0.8c-0.4,0.5-0.6,1.1-0.5,1.7c0.1,0.6,0.4,1.3,1.1,2
							c0.6,0.7,1,1.3,1.2,1.6c0.2,0.3,0.1,0.6-0.1,0.8c-0.3,0.4-0.9,0.3-1.6-0.3c-0.8-0.6-1-1.2-0.7-1.6l-1.5-1.1
							C304,68.8,304.5,70,306.1,71.4z"/>
					</g>
					<polygon fill="#C38728" points="306.9,71.7 305.5,70.6 304.5,71.9 305.9,73 					"/>
					<polygon fill="#C38728" points="312.9,64.3 311.6,63.2 310.5,64.4 311.9,65.6 					"/>
				</g>
			</g>
		</g>
		<g>
			<g>
				<path fill="#E8AF2E" d="M323.9,66.1c3.7,3,9.2,2.4,12.2-1.3c3-3.7,2.4-9.2-1.3-12.2c-3.7-3-9.2-2.4-12.2,1.3
					C319.5,57.6,320.1,63.1,323.9,66.1z"/>
				<path fill="#F9CA35" d="M324.8,64.8c3.1,2.5,7.6,2,10-1.1c2.5-3.1,2-7.5-1.1-10c-3.1-2.5-7.6-2-10,1.1
					C321.3,57.9,321.8,62.4,324.8,64.8z"/>
				<g>
					<g>
						<path fill="#C38728" d="M326.7,62.5c0.8,0.7,1.6,1,2.4,1c0.7,0,1.3-0.2,1.7-0.7c0.4-0.5,0.5-1,0.4-1.6c-0.1-0.6-0.5-1.3-1.1-2
							c-0.7-0.8-1-1.3-1.1-1.6c-0.1-0.3-0.1-0.6,0.2-0.8c0.5-0.6,1.1-0.5,2,0.2c0.9,0.7,1.2,1.5,0.7,2.3l1.5,1
							c0.8-1.5,0.4-3-1.4-4.4c-0.7-0.6-1.5-0.9-2.3-1c-0.8-0.1-1.5,0.1-2,0.8c-0.4,0.5-0.6,1.1-0.5,1.7c0.1,0.6,0.4,1.3,1.1,2
							c0.6,0.7,1,1.3,1.2,1.6c0.2,0.3,0.1,0.6-0.1,0.8c-0.3,0.4-0.9,0.3-1.6-0.3c-0.8-0.6-1-1.2-0.7-1.6l-1.5-1.1
							C324.6,59.9,325,61.1,326.7,62.5z"/>
					</g>
					<polygon fill="#C38728" points="327.4,62.9 326,61.8 325,63 326.4,64.1 					"/>
					<polygon fill="#C38728" points="333.4,55.4 332.1,54.3 331.1,55.6 332.4,56.7 					"/>
				</g>
			</g>
		</g>
		<g>
			<path fill="#FBC69A" d="M289.1,121.2c0,0,6.6,1.2,9.2,1c3-0.2,18.5-0.7,18.5-0.7l-11.8-16c0,0,8.2-8.4,8.7-11.3
				c0.5-2.9-0.3-6.2-1.1-5.8c-0.8,0.4-12,10.1-15.7,12.4c-2.1,1.3-9.6,5.9-9.6,5.9l-6.5,1.2l2.6,14.5L289.1,121.2z"/>
			<g>
				<polygon fill="#D0D2D3" points="283,103.5 277.7,104.5 281.1,125.2 286.3,124.2 				"/>
				<polygon fill="#F0F1F1" points="284.7,113.9 279.4,114.9 281.1,125.2 286.3,124.2 				"/>
				<polygon fill="#221F1F" points="278.6,103.5 242.9,109.6 246.3,121.6 252,131.2 282.2,126 				"/>
				<circle fill="#F0F1F1" cx="274.9" cy="107.3" r="1"/>
				<circle fill="#F0F1F1" cx="271.3" cy="107.9" r="1"/>
				<circle fill="#F0F1F1" cx="267.8" cy="108.6" r="1"/>
				<polygon fill="#403F41" points="280.4,114.7 257.3,118.6 261.9,129.6 282.2,126 				"/>
			</g>
		</g>
	</g>
</g>
<g>
	<path fill="#D3F3FC" d="M401.9,84c-0.5,3.4-1.2,6.9-2.4,10.2c-2.5,7.4-7.3,14.3-14.2,17.9c-3,1.6-6.4,2.4-9.8,2.4
		c-4.5,0-8.9-1.4-12.1-4.5c1.4,9-4.4,18.6-13,21.6c-2,0.7-4,1-6.1,1c-7,0-14-3.7-17.5-9.8c-2.2,5.7-6.7,10.9-12.6,12.2
		c-0.8,0.2-1.5,0.2-2.3,0.2c-5.3,0-10.8-3.7-11.3-9c-2,3.7-5.8,6.4-10,6.9c-0.5,0.1-1.1,0.1-1.6,0.1c-3.7,0-7.3-1.6-9.8-4.3
		c-1.1-1.2-2.2-2.7-3.8-3c-0.1,0-0.3,0-0.4,0c-1.3,0-2.5,0.8-3.6,1.4c-1.8,0.9-3.8,1.3-5.7,1.3c-2.8,0-5.7-0.9-7.9-2.6
		c-3.8-2.9-5.8-8.1-4.9-12.8c-7-1.8-12.9-7.2-15.5-13.9c-1.8-4.8-1.9-10.3-0.3-15.2c-3.1,3.5-5.3,7.7-5.3,12.8
		c-0.1,5.1,2,10.1,5.4,13.8c1.4,1.6,3.1,2.7,4.7,3.9c0.2,0.1,0.5,0.2,0.6,0.4c1.5,1,3,2.1,4.3,3.5c0.1,0.1,0,0.2-0.1,0.2
		c-0.8,0.2-1.6,0.3-2.4,0.3c-0.7,0-1.3-0.1-2-0.2c-2.2,13.1,10.3,21.1,22.4,21.1c1.2,0,2.5-0.1,3.7-0.3c2.8-0.4,5.4-1.1,8.1-2.1
		c1.6-0.6,3-1.7,4.6-1.7c0.1,0,0.2,0,0.3,0c2.3,0.2,4.5,2.6,7.2,2.8c0.3,0,0.6,0,0.8,0c3.2,0,6.1-1.2,8.6-3.4
		c0.4-0.3,0.9-0.5,1.4-0.5c0.5,0,0.9,0.2,1.3,0.5c3.5,3.5,10.4,8.4,16.1,8.4c3.3,0,6.1-1.6,7.8-5.9c0.3-0.8,1.1-1.4,1.8-1.4
		c0.4,0,0.9,0.2,1.2,0.5c5,5.1,11.2,7.4,17.2,7.4c11.5,0,22.5-8.5,24-22.1c0.1-0.6,0.4-1.1,0.8-1.3c0.3-0.3,0.6-0.5,1.1-0.5
		c0.1,0,0.3,0,0.5,0.1c1.8,0.5,3.5,0.7,5.2,0.7c14.3,0,25.1-16.2,25.9-29.6C402.6,88.9,402.4,86.3,401.9,84"/>
</g>
</svg>
