<?xml version="1.0" encoding="utf-8"?>
<!-- Generator: Adobe Illustrator 18.0.0, SVG Export Plug-In . SVG Version: 6.00 Build 0)  -->
<!DOCTYPE svg PUBLIC "-//W3C//DTD SVG 1.1//EN" "http://www.w3.org/Graphics/SVG/1.1/DTD/svg11.dtd">
<svg version="1.1" id="Capa_1" xmlns="http://www.w3.org/2000/svg" xmlns:xlink="http://www.w3.org/1999/xlink" x="0px" y="0px"
	 viewBox="0 0 445 345.7" enable-background="new 0 0 445 345.7" xml:space="preserve">
<path fill="#D71865" d="M287.5,165.6c-0.8-3.9,3.1-6,6.4-4.7c0.1,0,0.2,0.1,0.3,0.1c0.1,0.2,0.3,0.5,0.3,0.6
	c0.7,1.5,1.2,3.2,0.5,4.8C293.5,169.6,288.2,169,287.5,165.6z"/>
<path fill="#FFFFFF" d="M254.6,77.1c0.4-0.2,0.2-0.9-0.2-0.9c-1.9,0-3.8,0.4-5.5,1.1c0.9-4.5,1.7-8.7,4-12.9
	c2.9-5.2,7-9.6,12.1-12.7c11.1-6.7,22.8-5.2,34.2-0.9c-0.4,2-0.6,4.2-0.4,6.4c0.1,0.6,0.9,0.8,1.1,0.2c3.7-12.3,11.5-22.8,25.5-23.2
	c6.6-0.2,12.9,2.2,17.8,6.7c4.1,3.8,5.8,8.6,8.4,13.4c0.5,1,2,0.5,2-0.5c0.1-2.5-0.4-4.9-1.2-7.1c7.8-0.9,15-2.4,22,2.8
	c7.6,5.5,7.9,13.9,4.8,22c-0.3,0.8,0.8,1.2,1.3,0.7c2.9-2.4,4.2-5.5,4.5-8.9c13.3,4.3,23.4,13.7,22.5,29.1
	c-0.9,14.8-14.1,33.1-30.8,28.6c-0.7-0.2-1.2,0-1.5,0.4c-0.4,0.3-0.8,0.7-0.8,1.3c-2.2,20.4-26.2,29.2-40.7,14.5
	c-1-1.1-2.6-0.4-3,0.8c-4.5,11.8-18.1,3.1-23.6-2.4c-0.7-0.7-1.9-0.7-2.6,0c-2.6,2.3-5.7,3.6-9.3,3.3c-2.7-0.2-4.9-2.6-7.1-2.8
	c-1.8-0.2-3.3,1-4.9,1.7c-2.6,1-5.2,1.6-8,2c-12.8,1.8-28.2-6.3-25.7-20.7c1.4,0.3,2.8,0.3,4.3-0.1c0.1,0,0.1-0.1,0.1-0.2
	c-1.3-1.3-2.8-2.4-4.3-3.4c-0.2-0.2-0.4-0.3-0.6-0.4c-1.7-1.1-3.3-2.3-4.7-3.8c-3.3-3.7-5.4-8.6-5.3-13.7
	C238.9,87.7,246.6,81.2,254.6,77.1z"/>
<path fill="#D71865" d="M272.8,179.8c1-1.3,2.6-1.3,3.8-0.6c0.6,1.7,1.3,4.1-0.9,4.8C273,184.8,271.2,181.8,272.8,179.8z"/>
<path fill="#FFFFFF" d="M287.5,165.6c-0.8-3.9,3.1-6,6.4-4.7c0.1,0,0.2,0.1,0.3,0.1c0.1,0.2,0.3,0.5,0.3,0.6
	c0.7,1.5,1.2,3.2,0.5,4.8C293.5,169.6,288.2,169,287.5,165.6z"/>
<path fill="#FFFFFF" d="M272.8,179.8c1-1.3,2.6-1.3,3.8-0.6c0.6,1.7,1.3,4.1-0.9,4.8C273,184.8,271.2,181.8,272.8,179.8z"/>
<path opacity="0.5" fill="#D59280" d="M235.2,97.5c-0.1,6.3,4.2,16.5,10.7,20.3c-2.8,14.1,9.4,25.2,23.1,26c4.4,0.2,8.8-0.5,13-1.8
	c3.5-1.1,4.3-1.7,7.8-0.6c5.8,1.7,11,1.3,15.7-2.1c4.6,4.4,10.3,8.6,17,8.1c4.5-0.3,8.1-2.5,10.3-6c16.3,13.8,41.8,4.6,44.5-16.9
	c17,3.4,31-13.7,33.1-29.3c2-14.9-8.7-35.1-25.6-34.6c-0.4-4.6-2.7-9.1-6-12.3c-6.9-6.6-19.1-8.8-27.6-4c-5-9.2-17-14.8-26.9-14.2
	c-10.7,0.7-21.4,8.2-24.7,18.4c-10.8-7.3-26.7-6.2-37.4,0.6c-9.4,6-18,18.3-17.1,30C239.2,83,235.3,90.3,235.2,97.5z M238.8,97.5
	c0.1-9.8,7.8-16.3,15.8-20.4c0.4-0.2,0.2-0.9-0.2-0.9c-1.9,0-3.8,0.4-5.5,1.1c0.9-4.5,1.7-8.7,4-12.9c2.9-5.2,7-9.6,12.1-12.7
	c11.1-6.7,22.8-5.2,34.2-0.9c-0.4,2-0.6,4.2-0.4,6.4c0.1,0.6,0.9,0.8,1.1,0.2c3.7-12.3,11.5-22.8,25.5-23.2
	c6.6-0.2,12.9,2.2,17.8,6.7c4.1,3.8,5.8,8.6,8.4,13.4c0.5,1,2,0.5,2-0.5c0.1-2.5-0.4-4.9-1.2-7.1c7.8-0.9,15-2.4,22,2.8
	c7.6,5.5,7.9,13.9,4.8,22c-0.3,0.8,0.8,1.2,1.3,0.7c2.9-2.4,4.2-5.5,4.5-8.9c13.3,4.3,23.4,13.7,22.5,29.1
	c-0.9,14.8-14.1,33.1-30.8,28.6c-0.7-0.2-1.2,0-1.5,0.4c-0.4,0.3-0.8,0.7-0.8,1.3c-2.2,20.4-26.2,29.2-40.7,14.5
	c-1-1.1-2.6-0.4-3,0.8c-4.5,11.8-18.1,3.1-23.6-2.4c-0.7-0.7-1.9-0.7-2.6,0c-2.6,2.3-5.7,3.6-9.3,3.3c-2.7-0.2-4.9-2.6-7.1-2.8
	c-1.8-0.2-3.3,1-4.9,1.7c-2.6,1-5.2,1.6-8,2c-12.8,1.8-28.2-6.3-25.7-20.7c1.4,0.3,2.8,0.3,4.3-0.1c0.1,0,0.1-0.1,0.1-0.2
	c-1.3-1.3-2.8-2.4-4.3-3.4c-0.2-0.2-0.4-0.3-0.6-0.4c-1.7-1.1-3.3-2.3-4.7-3.8C240.7,107.4,238.7,102.5,238.8,97.5z"/>
<path opacity="0.5" fill="#D59280" d="M298.5,167.9c0.8-2,0.8-4.4-0.2-6.4c-0.2-0.3-0.4-0.6-0.6-1c-0.2-0.3-0.3-0.6-0.6-0.9
	c-2.9-3.6-8.4-4.1-11.5-0.5c-3.1,3.4-2.7,9.4,1.2,12C290.7,173.7,296.7,172.4,298.5,167.9z M293.9,160.8c0.1,0,0.2,0.1,0.3,0.1
	c0.1,0.2,0.3,0.5,0.3,0.6c0.7,1.5,1.2,3.2,0.5,4.8c-1.4,3.2-6.7,2.6-7.5-0.8C286.7,161.6,290.6,159.5,293.9,160.8z"/>
<path opacity="0.5" fill="#D59280" d="M279.2,186.2c1.7-1.7,2.3-4.2,1.5-6.5c-1.8-4.9-8.3-5.6-11-1c-1.8,3.2,0,6.9,3.1,8.1
	c0,0.1,0.1,0.3,0.2,0.4C274.7,189,277.7,187.7,279.2,186.2z M276.5,179.2c0.6,1.7,1.3,4.1-0.9,4.8c-2.5,0.8-4.4-2.2-2.8-4.2
	C273.8,178.5,275.3,178.4,276.5,179.2z"/>
<path opacity="0.5" fill="#D59280" d="M258.3,196.6c1.5-1.5,2.1-3.8,1.3-5.8c-1.6-4.4-7.5-5-9.8-0.9c-1.7,2.9,0,6.2,2.7,7.2
	c0,0.1,0.1,0.3,0.2,0.4C254.3,199.1,256.9,197.9,258.3,196.6z M255.8,190.3c0.5,1.5,1.1,3.7-0.8,4.3c-2.3,0.7-3.9-2-2.5-3.8
	C253.4,189.6,254.8,189.6,255.8,190.3z"/>
<path opacity="0.5" fill="#D59280" d="M237.1,204.4c1.5-1.5,2.1-3.8,1.3-5.8c-1.6-4.4-7.5-5-9.8-0.9c-1.7,2.9,0,6.2,2.7,7.2
	c0,0.1,0.1,0.3,0.2,0.4C233.1,206.9,235.8,205.7,237.1,204.4z M234.7,198.1c0.5,1.5,1.1,3.7-0.8,4.3c-2.3,0.7-3.9-2-2.5-3.8
	C232.2,197.4,233.6,197.4,234.7,198.1z"/>
<path fill="#FCF1EB" d="M244,84.8c-1.6,4.9-1.6,10.3,0.3,15c2.5,6.7,8.4,12,15.3,13.8c-0.9,4.7,1,9.8,4.8,12.7
	c3.8,2.9,9.2,3.4,13.5,1.3c1.3-0.6,2.6-1.5,4-1.3c1.6,0.2,2.7,1.7,3.7,2.9c2.8,3.1,7.2,4.7,11.3,4.1c4.1-0.5,7.9-3.1,9.9-6.8
	c0.5,6,7.6,9.9,13.4,8.6c5.9-1.3,10.3-6.4,12.5-12.1c4.5,7.8,14.8,11.7,23.3,8.7c8.5-3,14.2-12.4,12.8-21.3
	c5.6,5.3,14.8,5.7,21.6,2.1c6.8-3.6,11.5-10.4,14.1-17.7c1.1-3.3,1.9-6.6,2.4-10c0.5,2.3,0.7,4.8,0.5,7.6
	c-0.9,14.8-14.1,33.1-30.8,28.6c-0.7-0.2-1.2,0-1.5,0.4c-0.4,0.3-0.8,0.7-0.8,1.3c-2.2,20.4-26.2,29.2-40.7,14.5
	c-1-1.1-2.6-0.4-3,0.8c-4.5,11.8-18.1,3.1-23.6-2.4c-0.7-0.7-1.9-0.7-2.6,0c-2.6,2.3-5.7,3.6-9.3,3.3c-2.7-0.2-4.9-2.6-7.1-2.8
	c-1.8-0.2-3.3,1-4.9,1.7c-2.6,1-5.2,1.6-8,2c-12.8,1.8-28.2-6.3-25.7-20.7c1.4,0.3,2.8,0.3,4.3-0.1c0.1,0,0.1-0.1,0.1-0.2
	c-1.3-1.3-2.8-2.4-4.3-3.4c-0.2-0.2-0.4-0.3-0.6-0.4c-1.7-1.1-3.3-2.3-4.7-3.8c-3.3-3.7-5.4-8.6-5.3-13.7
	C238.8,92.4,240.9,88.2,244,84.8z"/>
<g>
	<g>
		<path fill="#B2755A" d="M218.9,277.5c-2.5-10.4-5.2-20.8-8.4-31c-2.8-8.8-1.5-14.5,0.1-23.7c3.6-21.2,2.1-43-5.8-63.1
			c-7.3-18.5-12.5-25.6-30.7-34.5c-40.1-19.7-108.5-5-125.7,39.7c-7.6,20-0.4,41.3,1.8,61.7c2.1,19.8,1.3,41-3.5,60.4
			c-3.9,15.4-7.6,32.4,8.4,42.4c6.9,4.3,13.7,6.5,20.8,0.8c5.3,14.8,22.5,5,29.6-2.9c5,4.6,11.2,10.7,18.2,11.5
			c7.9,1,11.8-5.8,17.3-5.8c5.6,0,9.3,6.3,16.5,5.2c5.7-0.8,12.3-7.5,16.6-10.9c8.6,11.1,23.8,4.6,30.3-5.1
			C227.2,327.2,224.9,302.7,218.9,277.5z"/>
	</g>
	<g opacity="0.5">
		<path fill="#D59280" d="M67.3,318.7c-14.1,2.5-13.4-18.1-12-26.7c3.1-18,13.9-33.8,13.9-52.4c1,12.6,4.9,25.7,5.3,38.8
			c7.3,0.5,9.7-9.2,13.6-14.1c1.5,12.6-15.5,58.2,10.2,58.7c-9.2,19.4-26.2-14.6-27.7-22.3c-4.4,3.9-4.9,12.6-1,17.5
			c-8.3,2.4-15.5-5.8-16-13.6"/>
	</g>
	<g>
		<path fill="#FFD8C1" d="M163.2,319.3c0-0.1-0.1-0.2-0.1-0.3c-3.4-7.4-6.4-15.3-10.7-22.1c-1-1.5-9.3-12.4-10.1-7.4
			c-1.6,9.4,3,16.2,5.2,22.1c4.9,13.6,16.1,27.1,13.9,42.4c-0.3,2-0.9,4.4-1.5,6.3c-0.5,1.5-3,3.6-2.4,5.3c1,2.8,4.9,0,5.7-1.5
			c0.5-1,0.8-2.6,1.8-3.3c1.2-0.8,2,0.7,2.8,1.4c1.3,1.2,2.6,2.4,3.8,3.7c0.8,0.9,1.6,1.9,2.6,2.3c1.3,0.5,2.4-0.5,2.7-1.6
			c0.4-1.5-0.7-2.5-1.7-3.4c-1.3-1.2-2.8-2.5-4-3.8c1.9,1.5,4,2.8,5.7,4.5c1,1,2.1,2.2,3.6,1.1c0.7-0.5,1.5-1.5,1.2-2.4
			c-0.4-1.1-1.9-2.1-2.8-2.7c-1.8-1.4-3.7-2.7-5.6-3.9c1.3,0.9,3.1,1.8,4.5,2.5c1.5,0.7,3.9,2.3,5.1,0.2c0.9-1.7-0.8-2.2-2.1-2.7
			c-1.7-0.7-3.6-1.6-5.3-1.9c1.3-0.2,2.7,0.1,4-0.2c3.3-0.6,1.1-3.3-1.4-2.9c-2.7,0.4-5,0.3-7.8,0.2c0.1-2.7,0-5.2-0.2-7.9
			C169.6,335,166.6,326.8,163.2,319.3z"/>
	</g>
	<g>
		<path fill="#FFD8C1" d="M96.7,335.9c3.2-8.3,8.1-15.8,11.1-24.2c2.1-5.9,6.8-12.7,5.2-22.1c-0.8-5-9.1,5.8-10.1,7.4
			c-4.3,6.8-7.3,14.7-10.7,22.1c0,0.1-0.1,0.2-0.1,0.3c-3.4,7.5-6.4,15.7-7.1,23.9c-0.2,2.4-1,6.9-1,10.5c-0.3,0-0.5,0.1-0.8,0.1
			c-3,0.5-6,1.3-8.3,2.4c-0.9,0.4-1.8,1-2.7,1.4c-0.5,1.7,0,3.6,2.1,2.9c-1.8,1.4-1.2,5.6,1.6,4.2c-0.5,0.2-0.4,1.4-0.2,1.7
			c0.2,0.4,0.6,0.8,1,1.1c0.8,0.4,2,0.4,2.6-0.2c-0.4,1,0.6,1.8,1.4,2.1c0.9,0.3,2.3-0.2,3-0.8c2.3-2,4-6.8,7.8-5.3
			c2.2,0.9,3,4.4,5.9,3.2c3.6-1.5-1.5-4.9-3-5.9c0.4,0.3,0.4-4.4-0.1-5.1c-0.2-0.3-0.5-0.6-0.7-0.8c-0.3-2-0.6-4-0.3-6.1
			C94.1,344.2,95.1,340,96.7,335.9z"/>
	</g>
	<g>
		<path fill="#B7809B" d="M106.2,302.4c0.5-6,4.8-18,12.9-17.4c-0.5,4.1-0.4,2.1-0.2,5.7c0.5,7.1,4.9,5.8,11.8,5.7
			c10-0.3,6.8-3.8,6.1-10.4c9.9-0.6,11.6,16.4,13.6,23.1c4.1,13.6,10.8,43.2,12.4,50.2c-4.6,3.2-20.8,3.9-26.2,4
			c-10.5,0.2-36.4-3-40.1-2.5C99.2,348.4,105.2,313.8,106.2,302.4z"/>
	</g>
	<path fill="#D19EB9" d="M118.5,284.7c0,0-7.2,14.2,9.4,14.1c16.6-0.1,9.4-14.1,9.4-14.1S130.5,280.1,118.5,284.7z"/>
	<g>
		<path fill="#D19EB9" d="M146.9,315.6c-13.7-39.2-5.6-31,1.6-25c2.5,2.1,14.7,14.5,14.3,14.7C156.1,307.7,152.6,312.9,146.9,315.6z
			"/>
	</g>
	<g>
		<path fill="#D19EB9" d="M108.6,314.5c15.2-35.5,4.7-29.1-1.3-23.5c-2.1,1.9-12.4,13.6-12.1,13.8
			C100.8,307.1,103.8,311.9,108.6,314.5z"/>
	</g>
	<g opacity="0.5">
		<path fill="#D59280" d="M203.7,313.9c9.7-6.3-0.5-18-1-25.7c-6.3,11.2-12.1,21.8-5.8,34.5c-14.1-2.4-16-22.3-16.5-34
			c-5.3,3.9-9.7,15-5.3,21.8c-8.3-10.2-13.6-18-12.1-32c1.5-12.6,4.4-23.3,4.4-36.4c9.2,13.1,16,23.3,20.9,38.8
			c5.8-15.5-1-29.6,0.5-45.1c4.4,5.3,8.3,13.6,10.2,20.9c0-6.3,0-13.1,1-18.9C199.2,241.3,230.5,325.2,203.7,313.9z"/>
	</g>
	<g>
		<g>
			<path fill="#FCC7AD" d="M40.4,219.4c6.3-9.3,16.8-4.8,21.9,2.9c3.8,5.7,5.5,18.1-2.6,21.1c-5.1,1.9-12.7-1.4-16.3-5.1
				C38.6,233.4,36.2,225.6,40.4,219.4z"/>
		</g>
		<g>
			<path fill="#FCC7AD" d="M216.5,222.6c-6-9.6-16.6-5.4-22,2.1c-4.1,5.6-6.2,17.9,1.9,21.2c5,2.1,12.8-0.9,16.5-4.5
				C217.8,236.6,220.5,228.9,216.5,222.6z"/>
		</g>
	</g>
	<path fill="#FFD8C1" d="M200.1,153.6c-8.3-16.8-31-19.6-47.7-21.5c-27-3-52.3-5.3-77.6,8c-30.3,15.9-16.2,63.3-16.7,90.4
		c-0.4,25.1,19.1,33.4,35.3,37c16.2,3.6,27.5,6.4,26,12.1c-2.5,9.9-2.4,17.5,8.5,17.4c8.5,0,11.3-6.8,7.3-17.4
		c-2.1-5.5,10.3-7.9,26.7-10.9c15.1-2.8,32.5-11.1,36.3-27.7c2-6.5,2.3-22.7,2.3-22.7c1.1-18.9,7.7-45,0.5-63
		C200.7,154.9,200.4,154.2,200.1,153.6z"/>
	<g>
		<path fill="#EAAF99" d="M131.1,234.1c-1,0.5-2.1,0.9-3.3,1c-1.3,0-2.4-0.5-3.5-1c-1.4-0.6-3.3-1.5-2.1-3.4
			c0.7-1.1,2.1-0.8,3.2-0.5c1.2,0.3,2.7,0.8,3.9,0.5c1.2-0.3,2.4-1.1,3.7-1.1c1.6-0.1,1.8,2.1,1,3.1
			C133.3,233.4,132.1,233.6,131.1,234.1C131.2,234.1,131.2,234.1,131.1,234.1z"/>
	</g>
	<g opacity="0.5">
		
			<ellipse transform="matrix(0.9741 0.2262 -0.2262 0.9741 54.6042 -12.7365)" opacity="0.5" fill="#F08888" cx="82.9" cy="231.9" rx="16" ry="10.7"/>
		
			<ellipse transform="matrix(0.9741 0.2262 -0.2262 0.9741 54.7317 -13.0947)" opacity="0.5" fill="#F08888" cx="84.5" cy="232.3" rx="16" ry="7.9"/>
		
			<ellipse transform="matrix(0.9741 0.2262 -0.2262 0.9741 54.4414 -12.2764)" opacity="0.5" fill="#FFC8A4" cx="80.8" cy="231.4" rx="17.2" ry="11.5"/>
		
			<ellipse transform="matrix(0.9741 0.2262 -0.2262 0.9741 54.6162 -12.7675)" opacity="0.5" fill="#F08888" cx="83" cy="231.9" rx="19.5" ry="10.7"/>
	</g>
	<g opacity="0.5">
		
			<ellipse transform="matrix(-0.9816 0.1911 -0.1911 -0.9816 395.8177 428.9817)" opacity="0.5" fill="#F08888" cx="177.2" cy="233.6" rx="16" ry="10.7"/>
		
			<ellipse transform="matrix(-0.9816 0.1911 -0.1911 -0.9816 392.629 429.9285)" opacity="0.5" fill="#F08888" cx="175.6" cy="233.9" rx="16" ry="7.9"/>
		
			<ellipse transform="matrix(-0.9816 0.1911 -0.1911 -0.9816 399.913 427.7656)" opacity="0.5" fill="#FFC8A4" cx="179.3" cy="233.2" rx="17.2" ry="11.5"/>
		
			<ellipse transform="matrix(-0.9816 0.1911 -0.1911 -0.9816 395.5431 429.0626)" opacity="0.5" fill="#F08888" cx="177.1" cy="233.6" rx="19.5" ry="10.7"/>
	</g>
	<g>
		<path fill="#79354F" d="M87,226.6c6.1,1.3,8.3-9.8,2.7-11.9C82.3,212,81,225.3,87,226.6z"/>
	</g>
	<g>
		<path fill="#79354F" d="M167.4,228.1c6.2,0.5,7.1-10.8,1.3-12.1C160.9,214.2,161.2,227.6,167.4,228.1z"/>
	</g>
	<g>
		<g>
			<path fill="#D5697D" d="M108.7,236.4c4.2,13.2,21.8,12.6,32.1,8.1c0.6-0.3,0.3-2-0.3-1.7c-6.3,3-11.7,4.3-18.6,2.6
				c-5.5-1.3-10.3-4.3-13-9.4C108.8,235.7,108.7,236.3,108.7,236.4L108.7,236.4z"/>
		</g>
	</g>
	<g>
		<path fill="#D59280" d="M97,185.9c-2.1-2.7-5.6-4-8.9-2.8c-3,1.1-5.3,3.8-5.1,7.1c0,0.5,0.6,1.9,1.1,0.9c1.3-2.7,2.2-4.6,5.4-5.3
			c2.6-0.5,5.2,0.2,7.3,1.7C97.3,187.8,97.2,186.2,97,185.9L97,185.9z"/>
	</g>
	<g>
		<path fill="#D59280" d="M161.8,188.6c2.2-1.3,4.3-1.8,6.9-1.5c3.3,0.4,4.5,2.6,5.6,5.3c0.4,1,1,0.5,1.1-0.3
			c0.8-7.7-9.4-10.5-13.9-5C161.2,187.4,161.2,189,161.8,188.6L161.8,188.6z"/>
	</g>
	<g>
		<path fill="#D59280" d="M83.5,188.6c2.2-1.3,4.3-1.8,6.9-1.5c3.3,0.4,4.5,2.6,5.6,5.3c0.4,1,1,0.5,1.1-0.3
			c0.8-7.7-9.4-10.5-13.9-5C82.9,187.4,82.9,189,83.5,188.6L83.5,188.6z"/>
	</g>
	<g>
		<path fill="#B2755A" d="M79.8,193c20.3-9.1,41.4-5.7,63-11.6c14.1-3.9,27-5.1,33.8-20.8c-4.5,10.5,5.1,23.7,10.5,31.7
			c8.2,12.4,7.2,20.3,9.9,34.2c0.7-1.4,2.1-3.1,2.8-4.8c-0.2,1.7,0,3.8-0.3,5.5c6.5-22,11.6-39.1,7.1-62.5
			c-9.4-48.8-73-48.7-110.9-40.1c-38.9,8.9-59.8,54.5-41,89.8c5.6-5.6,9.9-12.7,17.2-17.3C74.5,195.6,77.1,194.2,79.8,193z"/>
	</g>
	<g opacity="0.5">
		<path fill="#D59280" d="M148.9,128.9c-18-5.7-39.4-2-56.4,5.3c-8.3,3.6-15.4,8.2-22,14.4c-3.7,3.4-7.4,7-10.3,11.1
			c-2.5,3.5-3.7,10.4-6.4,13.2c7-7.2,20.4-13.3,30.5-13.3c-12.4,8.3-28.1,16.5-32.9,31.9c5.9-6.3,15.2-11.8,23.6-13.5
			c-5.8,6.4-11.9,11.8-15.5,20.1c8.8-6.8,17.5-11.8,27.9-15.8c22.4-8.7,51.3-3.6,69.2-22.3c-12.6,3.9-24.8-3.4-37.4-1.5
			c2.2-0.3,8.3-7,11.1-8.4c4.5-2.2,9.4-3.5,13.9-5.7c-7.6-2.6-19.7-5.4-27.3-1.1C125.2,135.3,137.8,128.7,148.9,128.9z"/>
	</g>
	<g opacity="0.5">
		<path fill="#D59280" d="M201.8,199.8c-3.1-5.5-11.2-6-14.6-13.2c-4-8.4-6.1-18.3-5.8-27.6c2.4,3.4,4.9,7.3,8.3,10.7
			c0-10.7-3.9-19.9-8.7-29.1c12.6,10.7,17.5,26.2,20.4,41.7c-2.4-1.9-4.9-3.9-7.8-4.9C193.5,185.2,197.9,193,201.8,199.8z"/>
	</g>
	<path fill="#D6609C" d="M57.5,217.2c0,0-27.2-47.4,15.1-76.1s88.5-19,104.5-8.8c16,10.2,34.1,31.1,25,86c0,0,23.8-50-13-82.8
		c-36.8-32.8-90.5-21-121.7-0.2C36.2,156.1,40.4,197.2,57.5,217.2z"/>
	<g>
		<path fill="#FFA7D4" d="M160.8,124c7-4.4,21,8.9,22.8,12c5.6-4.2,3.2-24.2-0.8-22.4C175,117.2,167.9,119.5,160.8,124z"/>
	</g>
	<g>
		<path fill="#FFA7D4" d="M205.3,158.3c1-8.2-15.6-15.3-18.9-15.7c1.3-6.8,19.1-13.1,19.1-8.6C205.5,142.6,206.3,149.9,205.3,158.3z
			"/>
	</g>
	<g>
		<path fill="#F196C1" d="M180.5,129.5c-4.4,2.6-6.8,6.1-4.2,10.9c0.7,1.3,9.1,9,10,8.5c4.5-2.5,11.7-5.2,8.1-11.3
			C191.5,132.6,185.7,126,180.5,129.5z"/>
	</g>
</g>
<path fill="#FFFFFF" d="M252.5,190.8c1-1.2,2.4-1.3,3.5-0.6c0.5,1.6,1.2,3.9-0.9,4.5C252.8,195.5,251,192.7,252.5,190.8z"/>
<path fill="#FFFFFF" d="M231.3,198.5c1-1.2,2.4-1.3,3.5-0.6c0.5,1.6,1.2,3.9-0.9,4.5C231.6,203.2,229.8,200.4,231.3,198.5z"/>
<g>
	<path fill="#5EC8F7" d="M280.4,79.6h4.8l8.6,15.2V79.6h4.2v21.7h-4.5l-8.9-15.4v15.4h-4.2V79.6z"/>
	<path fill="#5EC8F7" d="M308.5,79.6h5.1l7.7,21.7h-4.9l-1.4-4.5h-8l-1.5,4.5h-4.8L308.5,79.6z M308.2,93.1h5.6l-2.7-8.6L308.2,93.1
		z"/>
	<path fill="#5EC8F7" d="M338.5,79.6h6.5v21.7h-4.2V86.6c0-0.4,0-1,0-1.8c0-0.8,0-1.4,0-1.8l-4.1,18.2h-4.4l-4.1-18.2
		c0,0.4,0,1,0,1.8c0,0.8,0,1.4,0,1.8v14.7H324V79.6h6.6l4,17.1L338.5,79.6z"/>
	<path fill="#5EC8F7" d="M365.3,83.4h-11.5v4.6h10.6v3.8h-10.6v5.6h12v3.9h-16.5V79.6h15.9V83.4z"/>
</g>
</svg>
