<?xml version="1.0" encoding="utf-8"?>
<!-- Generator: Adobe Illustrator 18.0.0, SVG Export Plug-In . SVG Version: 6.00 Build 0)  -->
<!DOCTYPE svg PUBLIC "-//W3C//DTD SVG 1.1//EN" "http://www.w3.org/Graphics/SVG/1.1/DTD/svg11.dtd">
<svg version="1.1" xmlns="http://www.w3.org/2000/svg" xmlns:xlink="http://www.w3.org/1999/xlink" x="0px" y="0px"
	 viewBox="0 0 759.8 648.2" enable-background="new 0 0 759.8 648.2" xml:space="preserve">
<g id="Background">
</g>
<g id="Objects">
	<g>
		<g>
			<path fill="#BDEEF3" d="M533.1,384.7c0,0,0-20.1,20.8-19.8c0,0,12-29.6,40.4-34.5c34.3-5.9,53.5,16.9,55.1,23.4
				c0,0,20.9-29.3,55.3-23.4c49.6,8.5,20.4,44.1,20.4,44.1s50.5-17.4,29.6,16.7c-20.3,33-71.2,6.5-71.2,6.5s-49.4,11.7-75.1-0.4
				c0,0-54.5,8.2-64.9-2.2c0,0-39.2,8.3-45.6,0C491.5,386.8,521.9,384.1,533.1,384.7z"/>
			<path fill="#BDEEF3" d="M54.5,557.9c0,0,0.1-12.7,31.5-12.2c0,0,14.8-45.3,58.4-45c65.6,0.4,63.9,18.1,66.3,28
				c0,0,20-51.9,73.4-50.3c75.9,2.4,60.4,64.1,60.4,64.1s60.4,13.6,20.5,22.1s-94.3,0-94.3,0s-63.8,30.5-102.6,12.3
				c0,0-82.3,12.4-98-3.3c0,0-59.2,12.5-68.9,0C-8.3,561.1,37.6,557.1,54.5,557.9z"/>
			<path fill="#BDEEF3" d="M211.3,71.5c0,0,0-17.8,18.4-17.5c0,0,0.7-23.4,26.2-22.9c25.5,0.5,30.5,14.4,31.9,20.2
				c0,0,14.2-33.7,58.1-26.4c43.9,7.4,35.4,37.6,35.4,37.6s35.4,8,12,13c-23.4,5-55.3,0-55.3,0s-37.4,17.9-60.2,7.2
				c0,0-48.3,7.3-57.5-1.9c0,0-34.7,7.3-40.4,0C174.5,73.4,201.4,71,211.3,71.5z"/>
		</g>
		<g>
			<path fill="#259999" d="M393.5,631.5c0,0,54.9-184.4,59.7-191.1c4.8-6.7,97.4-54.9,97.4-54.9s26.3-133,36.9-209.1
				c6.6-1.2,44.9-5.4,44.9-5.4s53,281.5,56.6,289.9c12.8,7.4,36.6,32.7,36.6,32.7s26.9,139.1,26.9,154.5
				C752.5,648.2,424.4,648.6,393.5,631.5z"/>
			<path fill="#84B9C1" d="M400.8,621.1c0,0,57.1-168.4,61.6-174.8c4.5-6.4,96.2-50.7,96.2-50.7s28.8-187.9,32-218.9
				c6.8-1.6,37.7-3,37.7-3s47.9,280,51.3,287.9c9.5,7.4,35.3,34.7,35.3,34.7S741,622.3,741,637C741,637,430.3,637.4,400.8,621.1z"/>
			<path fill="#259999" d="M554.7,566.7c-1-2.2,27.3-153,30.3-158.6c3-5.6,38.1-11.6,41.8-9.4c3.7,2.2,13.4,100.4,13.4,100.4
				s-14.4-87.7-19.4-94c-7.5-0.2-25,2.7-29.6,6.2C589,416.6,554.7,566.7,554.7,566.7z"/>
		</g>
		<g>
			<path fill="#BA8900" d="M588.2,57c13.3-1.4,25.9-3.5,42.8-0.3c-0.4,27.5,37.2,78-19.8,78C558.8,134.7,592.2,82.4,588.2,57z"/>
			<path fill="#EFC206" d="M591.6,60.7c11.4-1.1,22.2-2.8,36.8-0.2c-0.3,21.6,31.9,61.4-17,61.4C566.3,121.9,595,80.7,591.6,60.7z"
				/>
			<path fill="#BA8900" d="M657.3,60.3c0,0-6.9-2.8-6.5,3.2c0.4,6.1,5.2,7.7,8.5,4.4c3.2-3.2,8.5-17.8-4.2-20.2
				c-12.7-2.4-29.4,11.7-22.3,21.8c7.1,10.1,41.8,15.3,41.8,35.1s-38.8,21.3-46.8,25.4c-8,4.1-11.7,17.8,0,19.8
				c11.7,2,12.9-7.5,12.7-9.3c-0.2-1.8-1-6.4-5.7-5.9c-4.6,0.5-5.7,8.4,1,6.9c0,0-0.2,7.6-7.7,5.2c-7.5-2.3-4.4-14.6,1.5-14.9
				c5.9-0.3,53-4.1,54.2-26.7c1.2-22.6-43.5-29.4-48-36.3c-4.5-6.9,8.5-17.8,18-17.6s7.1,12.5,3.2,14.1
				C657.1,65.6,659.9,62.1,657.3,60.3z"/>
			<path fill="#EFC206" d="M682,105.2c4.6-22.2-43-30.2-47.5-37.1c-4.5-6.9,9.8-17.5,19.3-17.7c10.7-0.2,7.8,13,4,14.7
				c0,0,0.7-2-1.9-3.8c0,0-3.8-2.2-3.8,2.1c0,6.1,4.3,6.3,7.1,2.6c1.6-2.1,8.3-14.7-4.4-17.2c-12.7-2.4-28.3,10.4-21.2,20.5
				c7.1,10.1,42.4,14,42.4,33.8C676.1,107.7,680.6,112.2,682,105.2z"/>
			<path fill="#BA8900" d="M562.9,60.3c0,0,6.9-2.8,6.5,3.2c-0.4,6.1-5.2,7.7-8.5,4.4c-3.2-3.2-8.5-17.8,4.2-20.2
				c12.7-2.4,29.4,11.7,22.3,21.8c-7.1,10.1-41.8,15.3-41.8,35.1s38.8,21.3,46.8,25.4c8,4.1,11.7,17.8,0,19.8
				c-11.7,2-12.9-7.5-12.7-9.3c0.2-1.8,1-6.4,5.7-5.9c4.6,0.5,5.7,8.4-1,6.9c0,0,0.2,7.6,7.7,5.2c7.5-2.3,4.4-14.6-1.5-14.9
				c-5.9-0.3-53-4.1-54.2-26.7c-1.2-22.6,43.5-29.4,48-36.3c4.5-6.9-8.5-17.8-18-17.6c-9.5,0.2-7.1,12.5-3.2,14.1
				C563.1,65.6,560.3,62.1,562.9,60.3z"/>
			<path fill="#EFC206" d="M538.2,105.2c-4.6-22.2,43-30.2,47.5-37.1c4.5-6.9-9.8-17.5-19.3-17.7c-10.7-0.2-7.8,13-4,14.7
				c0,0-0.7-2,1.9-3.8c0,0,3.8-2.2,3.8,2.1c0,6.1-4.3,6.3-7.1,2.6c-1.6-2.1-8.3-14.7,4.4-17.2c12.7-2.4,28.3,10.4,21.2,20.5
				c-7.1,10.1-42.4,14-42.4,33.8C544.1,107.7,539.6,112.2,538.2,105.2z"/>
			<path fill="#BA8900" d="M606.7,133.7c0,0,1.2,19.5-0.2,22.5c-1.3,3-12.2,0.9-12.8,4.4c-0.5,3.5,2.6,5.3,2.6,5.3
				s-12.6,0.9-12.6,7.9c0,4.9,51.6,8.8,51.6-1.7c0-5.9-12.4-7.2-12.4-7.2s3.5-1.8,3.5-5.2c0-4-6.7-0.7-12.6-3.4
				c-1.4-0.7,0.2-8,0.2-22.5H606.7z"/>
			<path fill="#EFC206" d="M589.4,174.1c-2.8-0.5-4.2-4.6,1.2-5.6c5.4-1.1,28.6-3.3,36.6-1.6c8.1,1.8,6.1,6-4.4,7.2
				C612.3,175.3,594.1,175,589.4,174.1z"/>
			<path fill="#EFC206" d="M596.7,161.8c-1.4-0.6,0.1-2.3,3.1-2.6c3-0.4,7.7-0.5,8.1-3c0.4-2.4-0.3-17.7,1.6-18.2s2.9,1.9,2.6,8.2
				c-0.3,6.3-0.5,11,1.1,11.6c1.6,0.5,6.7,0.2,8.6,1.1c1.9,0.9,0.3,2.6-1.4,3c-1.7,0.4-8.4-1.4-12.2-1.1
				C604.3,161.1,599.7,163,596.7,161.8z"/>
			<g>
				<path fill="#BA8900" d="M599.5,73.8c0,0,6.6,0.4,7.3-4.9H619c0,0-1.5,26.6,0.3,27.7c1.8,1.1,4.6,1.2,4.6,1.2v9.8h-23.7v-9.8
					c0,0,4.8,1,4.8-2.8c0-3.8,0-12.6,0-12.6h-5.4V73.8z"/>
				<path fill="#FFCF03" d="M600.3,74.9c0,0,6.5,0.8,7.2-4.4h10.1c0,0-0.8,22.7-0.5,24.8c0.7,4.7,5.2,3.4,5.2,3.4v5h-20.1l-0.4-4.8
					c0,0,5,0.5,5-3.3c0-3.8-0.2-15.4-0.2-15.4l-6.1-0.2L600.3,74.9z"/>
			</g>
			<g>
				<g>
					<path fill="#EFA02E" d="M584.3,19.4c-2-5.8-4.1-11.7-6.1-17.5c-1.2-3.3-6.5-1.9-5.3,1.5c2,5.8,4.1,11.7,6.1,17.5
						C580.1,24.2,585.5,22.8,584.3,19.4L584.3,19.4z"/>
				</g>
				<g>
					<path fill="#EFA02E" d="M528.8,59.2c-4.4-2.1-8.8-4.2-13.2-6.3c-3.2-1.5-6,3.2-2.8,4.8c4.4,2.1,8.8,4.2,13.2,6.3
						C529.2,65.5,532,60.7,528.8,59.2L528.8,59.2z"/>
				</g>
				<g>
					<path fill="#EFA02E" d="M531.3,128.9c-5.9,2.1-11.9,4.2-17.8,6.2c-3.3,1.2-1.9,6.5,1.5,5.3c5.9-2.1,11.9-4.2,17.8-6.2
						C536.1,133.1,534.7,127.8,531.3,128.9L531.3,128.9z"/>
				</g>
				<g>
					<path fill="#EFA02E" d="M570.9,177.9c-2.8,5.8-5.6,11.6-8.4,17.4c-1.5,3.2,3.2,6,4.8,2.8c2.8-5.8,5.6-11.6,8.4-17.4
						C577.2,177.5,572.5,174.7,570.9,177.9L570.9,177.9z"/>
				</g>
				<g>
					<path fill="#EFA02E" d="M648.9,180.7c1.9,5.3,3.7,10.7,5.6,16c1.2,3.3,6.5,1.9,5.3-1.5c-1.9-5.3-3.7-10.7-5.6-16
						C653.1,175.9,647.7,177.3,648.9,180.7L648.9,180.7z"/>
				</g>
				<g>
					<path fill="#EFA02E" d="M691.7,134.4c5.1,2.5,10.3,4.9,15.4,7.4c3.2,1.5,6-3.2,2.8-4.8c-5.1-2.5-10.3-4.9-15.4-7.4
						C691.3,128.1,688.5,132.8,691.7,134.4L691.7,134.4z"/>
				</g>
				<g>
					<path fill="#EFA02E" d="M693.8,69.5c5.9-2.1,11.7-4.1,17.6-6.2c3.3-1.2,1.9-6.5-1.5-5.3c-5.9,2.1-11.7,4.1-17.6,6.2
						C689,65.3,690.4,70.7,693.8,69.5L693.8,69.5z"/>
				</g>
				<g>
					<path fill="#EFA02E" d="M647.7,21.6c2.1-4.4,4.2-8.8,6.3-13.2c1.5-3.2-3.2-6-4.8-2.8c-2.1,4.4-4.2,8.8-6.3,13.2
						C641.4,22,646.2,24.8,647.7,21.6L647.7,21.6z"/>
				</g>
			</g>
		</g>
		<g>
			<path fill="#EFC7A3" d="M337.6,208.6c0,0,4.1,9.6,3.2,11.1c-1,1.5-7,3.9-9.5,3c-2.5-0.9-10.2-6.3-8.1-9.7
				C325.4,209.6,335.3,205.2,337.6,208.6z"/>
			<g>
				<path fill="#755403" d="M648.7,367.1c-21.2-41.5-48.7-76.5-81.7-103.9c-36.1-29.9-78.2-50.3-125.3-60.7
					c-38.7-8.5-76.2-7.5-111.4,3c-28.2,8.4-54.9,22.8-79.5,42.9c-41.8,34-62.6,72.1-63.5,73.7c-1.4,2.6-0.5,5.8,2,7.3
					c3.3-6,23.9-41.1,62.4-72.9c24.4-20.1,50.9-34.5,78.8-42.9c34.9-10.5,72.1-11.5,110.4-3c46.6,10.3,88.4,30.8,124.1,60.7
					c32.7,27.4,60,62.4,81,103.9c37.6,74.5,52.9,167.2,42,254.9c1.3-0.8,2.2-2.2,2.5-3.9C702.6,537.2,687.3,442.7,648.7,367.1z"/>
				<path fill="#5B4002" d="M646.1,375.1c-21-41.5-48.2-76.5-81-103.9c-35.7-29.9-77.5-50.3-124.1-60.7c-38.3-8.5-75.5-7.5-110.4,3
					c-27.9,8.4-54.4,22.8-78.8,42.9c-38.5,31.7-59.1,66.9-62.4,72.9c0.1,0.1,0.2,0.1,0.3,0.2c2.7,1.4,6.1,0.4,7.5-2.3
					c0.2-0.4,20.6-37.7,60.7-70.4c53.5-43.6,114.6-58.3,181.4-43.6c186.5,41,263,242.6,240.2,411.6c-0.4,3,1.7,5.8,4.8,6.2
					c0.2,0,0.5,0,0.7,0c1.1,0,2.2-0.3,3-0.9C699,542.3,683.8,449.6,646.1,375.1z"/>
			</g>
			<g>
				<g>
					<path fill="#464B4C" d="M347.1,325c0,0,19.1-37.5,15-55.5c-3.8-16.9-34.8-43.8-36.5-46.4c0,0,7.4-1.5,14.4-4.7
						c0,0,30.8,30,32.9,50.3c2.5,25-15.9,59.5-15.9,59.5S348.1,334.2,347.1,325z"/>
					<g>
						<path fill="#FFDCB8" d="M321.8,215.9c0,0-8-9.2-5.9-11.7c2-2.5,6.1,1,6.1,1s-2.2-5.6,0.9-7.4c3.1-1.9,5.6,4,5.6,4
							s-0.1-3.3,2.9-4.8c2.9-1.6,10.1,13.4,6.2,14.7c-3.9,1.2-6.2-3.1-6.2-3.1s2.6,4.4-1.1,6.2c-2.1,1-4.7-2.4-4.7-2.4
							S327.5,219.6,321.8,215.9z"/>
						<path fill="#FFDCB8" d="M326.7,223.4c0,0-3.6,0-5.5-2.3c-1.8-2.2-4.1-5.7-2.7-6.8c1.5-1.1,8.3-4.5,8.9-5.6
							c0.6-1,4.4,4.4-1.4,6.8c0,0,8,0.5,8,5.1C331.9,222.4,326.7,223.4,326.7,223.4z"/>
						<path fill="#CB8F5E" d="M320.6,213.2c0,0,6.5-4.3,7.2-4.5c0.7-0.2,4.2,4.9-1.7,6.9c0.4-0.3,5.4,0.3,6.7,2.8
							c0,0-3.4-2.8-8.7-2.1c0,0,6.2-3.4,3.7-6.2C326,209.9,320.6,213.2,320.6,213.2z"/>
					</g>
				</g>
				<g>
					<g>
						<path fill="#382B19" d="M523.3,301c0,0,7.3-14.9,7.5-19.4s-3.2-18.8-3.2-18.8s10.9-5.4,12-2.1c1.1,3.4,3.5,26,0.2,32.6
							c-3.3,6.5-4.9,7.1-4.9,7.1l3.4,4.2c0,0-2.5,8.4-4.3,9.6c-1.8,1.2-7.3-4-11-6C519.2,306.3,523.3,301,523.3,301z"/>
					</g>
					<path fill="#464B4C" d="M419.6,351.2c0,0,15-76.8,33.4-82.2c26.2-7.7,75.9,23.4,75.9,23.4s-4,12.1-7.2,15.8
						c0,0-48.8-37.7-66.7-25.8c-9.5,6.3-18.6,70.7-21.6,81c-1.9,6.6-15.4,10.4-15.4,10.4L419.6,351.2z"/>
				</g>
				<g>
					<path fill="#382B19" d="M483.5,197c0,0-6.4-11.6-10.9-14.1c-4.5-2.6-11.7-7.5-11.7-7.5s7-9,9.8-9.4c2.8-0.3,15.9,8.5,23,23.2
						l-0.2,4.5c0,0,4.2,0.7,5,1.7c0.9,1,1.9,8.1,2.7,11.8c0.7,3.7-16.9,3.3-16.9,3.3L483.5,197z"/>
					<path fill="#464B4C" d="M420.1,334.6c0,0-8.1-57,4.9-77.1c15.5-23.9,56.1-57.7,56.1-57.7s12.2,7.6,11.3,12.9
						c0,0-41.5,27.4-55.4,48.3c-12.4,18.6-2.1,72.2-6.4,79.5C426.4,347.9,400.8,343.9,420.1,334.6z"/>
				</g>
				<g>
					<path fill="#464B4C" d="M350.7,321.7c0,0,23.4,6.3,32.9,8.7c9.4,2.4,29.9-4.5,35-8.4c0,0,4.5,9.8,5.1,11.7l-5.6,3.7l4.3,3.6
						c0,0,0.2,27.2-4.3,41.4c0,0-1.6-4.4-7-4.9c-13.5-1.3-39.1-4.4-53.9-10.3c-20.9-8.2-31.3-20.7-28.7-25.6
						C331,336.5,350.7,321.7,350.7,321.7z"/>
					<path fill="#FFDCB8" d="M334.6,319.5c0,0,8.2,8.4,12.2,9.4c3.9,1,0.8,8.1-3.6,7.6c-4.4-0.4-14.1-10.6-14.8-10.7
						C327.6,325.8,334.6,319.5,334.6,319.5z"/>
					<path fill="#E5E5E5" d="M340.7,328.5l7.1,2.8l-4.6-4.2l8.9-0.5c0,0,32.8,11.3,42.4,11.4c0,0-43.3,9.2-51.8,1.7
						c-8.5-7.5-4.3-5.9-4.3-5.9L340.7,328.5z"/>
					<path fill="#676B6B" d="M350.4,325.4c0,0,14.3-1.3,16.8-3.9l3.4,9.3c0,0,8.5-6,9.9-8c0,0,14.3,14.2,24.6,14.8
						c0,0-16.7,5.7-58.7-12.9C344.9,324.2,350.4,325.4,350.4,325.4z"/>
					<path fill="#676B6B" d="M338.5,335.6c0,0,1.1,11.2,6.3,15.9c0,0,13-6.5,16.4-7.8c0,0,11.3,11.7,16.1,14.6
						c0,0,21.7-18.8,27.8-20.7c0,0-8.3,0.2-17.1,1.7C379.2,340.7,348,346.8,338.5,335.6z"/>
					<path fill="#141414" d="M345.7,333.4c0,0,0.3-3.2,2-3.9c0,0,4,0.2,4.9,0.8c0.9,0.5-0.5,5.3-1.8,6.1
						C349.5,337.1,345.7,333.4,345.7,333.4z"/>
					<path fill="#141414" d="M349.9,334.3c0,0,5.6,1,6.4,5.2c0.8,4.3-2.1,18.7-20.4,22.4c-18.3,3.7-29.6,13.2-30.5,18.6
						c0,0-0.5,11.7,0.5,20.2c0,0,19.2-5,22.2-6.4c0,0-0.7-14.5,14.5-20.9s19.9-18.7,20.4-23.7c0.6-5,1-16.1-11.7-18.4L349.9,334.3z"
						/>
					<path fill="#FFFFFF" d="M342.8,326.9c0,0,0.1-1.3,1.7-3.2c0,0,4.8,1.6,7.3,1.9l-2.8,3.9C349,329.4,344.5,328.1,342.8,326.9z"/>
					<path fill="#FFFFFF" d="M332.6,330.1l8-1.6c0,0,2.2,6.2,2.6,7.2c0,0-6.1,0.1-8.8-0.9L332.6,330.1z"/>
					<path fill="#232728" d="M421.4,326.7l2.1,6.6l-5.4,3.3l3.5,1.5c0,0,1.7,22-0.4,31.8c0,0,4.4-12.8,1.3-33.3l-1.5,0.1
						c0,0,3.7-2.3,4-3C425,333.7,423.2,329.6,421.4,326.7z"/>
					<ellipse fill="#232728" cx="407.3" cy="340.5" rx="1.8" ry="1.2"/>
					
						<ellipse transform="matrix(0.9854 -0.1702 0.1702 0.9854 -51.7855 75.5715)" fill="#232728" cx="414.8" cy="339.8" rx="1.8" ry="1.2"/>
					<path fill="#232728" d="M407.2,336.8c0,0,7.1-0.9,9.9-1.1C417.1,335.7,412.6,338.2,407.2,336.8z"/>
				</g>
				<g>
					<path fill="#FFDCB8" d="M319.4,260.2c0,0,35.3,28.9,39.3,39.5c4,10.6-16.3,23-24.2,27.1c-11.6,6-44.9-37.6-46-41.2
						c-1-3.5-5.7-13,9.3-23C312.8,252.7,319.4,260.2,319.4,260.2z"/>
					<path fill="#725C2B" d="M311.2,314.8c0,0-5.1-19.7-14.6-23c0,0,19.1-6.6,19.2-10.7s-5.3-3.4-5.3-3.4s13.9-6.1,13.8-8.6
						c-0.1-2.5-3.2-2.4-3.2-2.4s8.6-3.2,7.5-6.7c-1-3.5-6.4-1.6-6.4-1.6s6-14.2-9.3-17.6c-15.3-3.5-14.4,7.4-10.4,11
						c0,0-12-6.8-20.1,0.2c-8.1,7,9.6,8.8,9.6,8.8s-24.9,16.9-18.2,34.3c0,0-8.4-2.5-9.4,2.1c-1,4.6,9.5,3.5,9.5,3.5s-6,5.6-0.3,7.6
						c5.8,2,3.4-5.1,3.4-5.1s5.4,8.7,26.1,11.5c0,0-3.5,8.9,0,9.6s4-5.1,4-5.1s0.6,7.1,3.9,5.4C314.1,322.7,311.2,317.8,311.2,314.8
						z"/>
					<path fill="#CB8F5E" d="M328.1,283.3c0,0,5,6.9,7.6,5.6c2.6-1.4,3.8-4.7,5.7-2.2c1.9,2.5-3.1,5.5-3.1,5.5s7.1-2.7,4.3-6.9
						c-2.8-4.2-6.3,3.1-8,2.4C332.9,286.9,328.1,283.3,328.1,283.3z"/>
					
						<ellipse transform="matrix(0.6664 -0.7456 0.7456 0.6664 -111.0965 337.8158)" fill="#190F08" cx="321.9" cy="293.1" rx="2.3" ry="3.3"/>
					
						<ellipse transform="matrix(0.6664 -0.7456 0.7456 0.6664 -97.8164 343.0935)" fill="#190F08" cx="334.5" cy="280.9" rx="2.3" ry="3.3"/>
					<path fill="#725C2B" d="M318.4,283c0,0-7,0.6-5.2,8.2C313.1,291.2,315.9,284.9,318.4,283z"/>
					<path fill="#725C2B" d="M333.8,273.4c0,0-5.4-4.4-9.5,2.2C324.3,275.6,330.7,273.1,333.8,273.4z"/>
					<g>
						<path fill="#753427" d="M345.3,312.6c4.3-7.9-2-18.8-2-18.8c-4.9,3-22.8,13.2-22.8,13.2s3.1,3.5,7.2,6.6
							C331.2,310.9,338.4,307.1,345.3,312.6z"/>
						<path fill="#EDA69D" d="M327.7,313.5c4.4,3.3,10,6,14,3.1c1.7-1.2,2.8-2.6,3.6-4C338.4,307.1,331.2,310.9,327.7,313.5z"/>
					</g>
					<path fill="#FFDCB8" d="M311.4,308.6c-2.7-1.5-8.5-2.5-13.2,1.3c-8,6.5,10.8,16.9,15.3,9.1C315.8,315,313.4,309.8,311.4,308.6z
						"/>
				</g>
				<g>
					<path fill="#FFDCB8" d="M248.2,271.7c0,0-5.3,4.7-7.8,3.8c-2.5-1-0.5-5-0.5-5s-5.4-8-7.6-8s-2.4-4.5,1.5-5.7
						c0,0,0.5-5.6,2.1-6.5c2-1.1,6.1,0,6.1,0s0.8-2.9,3.1-2.4c2.2,0.4,10.7,8.3,11.1,13.2C256.6,266,248.2,271.7,248.2,271.7z"/>
					<path fill="#464B4C" d="M333.6,337.9c0,0-15.6-31.2-28.3-42.1c-10.1-8.7-38.4-29.1-50.9-34.2c0,0-9.8-0.8-9,12.2
						c0,0,38.6,18.5,52.8,29.9c15.9,12.7,25.5,45.8,34.7,48C338.2,352.9,333.6,337.9,333.6,337.9z"/>
				</g>
			</g>
			<g>
				<path fill="#F3FEFF" d="M184.4,326.5c0,0-8.2,35.7,4.6,79C189,405.6,181.1,350.3,184.4,326.5z"/>
				<path fill="#F3FEFF" d="M193.3,351.7c0,0-6.6,27.5,3,61.1C196.2,412.8,190.6,370.1,193.3,351.7z"/>
			</g>
		</g>
	</g>
</g>
</svg>
