<?xml version="1.0" encoding="utf-8"?>
<!-- Generator: Adobe Illustrator 18.0.0, SVG Export Plug-In . SVG Version: 6.00 Build 0)  -->
<!DOCTYPE svg PUBLIC "-//W3C//DTD SVG 1.1//EN" "http://www.w3.org/Graphics/SVG/1.1/DTD/svg11.dtd">
<svg version="1.1" id="Capa_1" xmlns="http://www.w3.org/2000/svg" xmlns:xlink="http://www.w3.org/1999/xlink" x="0px" y="0px"
	 viewBox="0 0 600 600" enable-background="new 0 0 600 600" xml:space="preserve">
<g>
	<g>
		<path fill="#D71865" d="M439.1,247.7c-0.7-3.5,2.7-5.3,5.7-4.2c0.1,0,0.2,0.1,0.3,0.1c0.1,0.2,0.2,0.4,0.3,0.5
			c0.6,1.3,1,2.9,0.4,4.3C444.5,251.3,439.8,250.8,439.1,247.7z"/>
		<path fill="#FFFFFF" d="M376.4,153.4c0.5-0.3,0.3-1-0.3-1c-2.3,0-4.4,0.5-6.5,1.2c1.1-5.2,2-10.2,4.7-15.2
			c3.4-6,8.2-11.3,14.1-14.8c13-7.8,26.7-6,40.1-1c-0.5,2.4-0.7,4.9-0.4,7.5c0.1,0.7,1.1,0.9,1.3,0.2c4.4-14.4,13.5-26.7,29.9-27.2
			c7.7-0.2,15.2,2.6,20.8,7.9c4.8,4.5,6.8,10.1,9.8,15.7c0.6,1.2,2.3,0.6,2.4-0.6c0.1-2.9-0.4-5.7-1.4-8.3c9.1-1,17.5-2.8,25.8,3.3
			c8.9,6.5,9.2,16.3,5.6,25.8c-0.3,0.9,0.9,1.4,1.5,0.9c3.3-2.8,4.9-6.5,5.3-10.4c15.6,5.1,27.4,16,26.4,34.1
			c-1,17.3-16.6,38.8-36.1,33.5c-0.8-0.2-1.4,0-1.8,0.5c-0.5,0.3-0.9,0.8-1,1.5c-2.6,23.9-30.7,34.3-47.7,17c-1.2-1.2-3-0.5-3.6,0.9
			c-5.3,13.8-21.2,3.6-27.7-2.8c-0.9-0.9-2.2-0.8-3,0c-3.1,2.7-6.7,4.2-10.9,3.9c-3.2-0.2-5.7-3-8.4-3.2c-2.1-0.2-3.8,1.2-5.7,1.9
			c-3,1.1-6.1,1.9-9.3,2.4c-15.1,2.1-33-7.4-30.2-24.2c1.6,0.3,3.3,0.3,5.1-0.1c0.1,0,0.1-0.2,0.1-0.3c-1.5-1.6-3.3-2.8-5-4
			c-0.2-0.2-0.5-0.4-0.7-0.5c-1.9-1.3-3.9-2.7-5.5-4.5c-3.9-4.4-6.3-10.1-6.2-16C357.9,165.9,367,158.2,376.4,153.4z"/>
		<path fill="#D71865" d="M426,260.4c0.9-1.2,2.3-1.2,3.3-0.5c0.5,1.5,1.1,3.7-0.8,4.3C426.2,264.8,424.6,262.2,426,260.4z"/>
	</g>
	<g>
		<rect x="412.5" y="143.4" fill="#B8B8B8" width="17.9" height="19.9"/>
		<g>
			<rect x="417" y="134.8" fill="#A1A1A1" width="4.5" height="8.5"/>
			<rect x="421.5" y="134.8" fill="#8A8A8A" width="4.5" height="8.5"/>
		</g>
		<g>
			<polygon fill="#CBC1B1" points="400.6,179.6 400.6,222.2 500,222.2 500,179.6 450.3,137.9 			"/>
			<polygon fill="#989185" points="450.3,133.6 400.6,175.4 400.6,179.6 450.3,137.9 500,179.6 500,175.4 			"/>
		</g>
		<rect x="437.2" y="193" fill="#FFFFFF" width="26.3" height="29.2"/>
		<g>
			<polygon fill="#24474C" points="450.3,128.7 397.2,173.2 397.2,178.3 450.3,133.8 450.3,128.7 			"/>
			<polygon fill="#1B3539" points="450.3,128.7 450.3,133.8 503.5,178.3 503.5,173.2 			"/>
		</g>
		<polygon fill="#1B3539" points="400.6,175.4 400.6,179.3 401,179.3 405.6,175.4 		"/>
		<g>
			<polygon fill="#1B3539" points="500,175.4 495,175.4 499.7,179.3 500,179.3 			"/>
			<polygon fill="#24474C" points="405.6,175.4 401,179.3 499.7,179.3 495,175.4 			"/>
		</g>
		<g>
			<rect x="415.7" y="203.3" fill="#747474" width="4.5" height="6.5"/>
			<rect x="422.1" y="203.3" fill="#747474" width="4.5" height="6.5"/>
			<rect x="415.7" y="194.9" fill="#747474" width="4.5" height="6.5"/>
			<rect x="422.1" y="194.9" fill="#747474" width="4.5" height="6.5"/>
			<path fill="#FFFFFF" d="M413.9,193v18.7h6.4h1.9h6.4V193H413.9z M422.1,194.9h4.5v6.5h-4.5V194.9z M415.7,194.9h4.5v6.5h-4.5
				V194.9z M420.2,209.8h-4.5v-6.5h4.5V209.8z M426.6,209.8h-4.5v-6.5h4.5V209.8z"/>
		</g>
		<g>
			<rect x="474" y="203.3" fill="#747474" width="4.5" height="6.5"/>
			<rect x="480.4" y="203.3" fill="#747474" width="4.5" height="6.5"/>
			<rect x="474" y="194.9" fill="#747474" width="4.5" height="6.5"/>
			<rect x="480.4" y="194.9" fill="#747474" width="4.5" height="6.5"/>
			<path fill="#FFFFFF" d="M472.2,193v18.7h6.4h1.9h6.4V193H472.2z M480.4,194.9h4.5v6.5h-4.5V194.9z M474,194.9h4.5v6.5H474V194.9z
				 M478.5,209.8H474v-6.5h4.5V209.8z M484.9,209.8h-4.5v-6.5h4.5V209.8z"/>
		</g>
		<rect x="440" y="196.1" fill="#506269" width="20.7" height="26.1"/>
		<polygon fill="#3C4A4F" points="460.6,196.1 442.7,196.1 440,196.1 440,198.9 440,222.2 442.7,222.2 442.7,198.9 460.6,198.9 		
			"/>
		<path opacity="0.3" fill="#24474C" d="M465.6,160.6c1.1-0.7,1.9-1.9,1.9-3.3c0-2.1-1.7-3.8-3.9-3.8c-2.1,0-3.8,1.6-3.8,3.8
			l-14.8,0.1c-0.1-2.2-1.8-3.7-3.9-3.7c-2.1,0-3.8,1.7-3.8,3.9c0,1.4,0.8,2.7,1.9,3.3c-1.1,0.7-1.9,1.9-1.9,3.3
			c0,2.1,1.7,3.8,3.9,3.8c2.1,0,3.8-1.6,3.8-3.9l14.8-0.1c0.1,2.2,1.8,3.8,3.9,3.8c2.1,0,3.8-1.7,3.8-3.8
			C467.5,162.5,466.7,161.3,465.6,160.6z"/>
		<path fill="#FFFFFF" d="M463.5,159c1.1-0.7,1.9-1.9,1.9-3.3c0-2.1-1.7-3.8-3.9-3.8c-2.1,0-3.8,1.6-3.8,3.8l-14.8,0.1
			c-0.1-2.2-1.8-3.7-3.9-3.7c-2.1,0-3.8,1.7-3.8,3.9c0,1.4,0.8,2.7,1.9,3.3c-1.1,0.7-1.9,1.9-1.9,3.3c0,2.1,1.7,3.8,3.9,3.8
			c2.1,0,3.8-1.6,3.8-3.9l14.8-0.1c0.1,2.2,1.8,3.8,3.9,3.8c2.1,0,3.8-1.7,3.8-3.8C465.5,160.8,464.7,159.6,463.5,159z"/>
	</g>
	<path fill="#FFFFFF" d="M439.1,247.7c-0.7-3.5,2.7-5.3,5.7-4.2c0.1,0,0.2,0.1,0.3,0.1c0.1,0.2,0.2,0.4,0.3,0.5
		c0.6,1.3,1,2.9,0.4,4.3C444.5,251.3,439.8,250.8,439.1,247.7z"/>
	<path fill="#FFFFFF" d="M426,260.4c0.9-1.2,2.3-1.2,3.3-0.5c0.5,1.5,1.1,3.7-0.8,4.3C426.2,264.8,424.6,262.2,426,260.4z"/>
	<g>
		<path fill="#A7E1FB" d="M428.9,130.8c0.3,0,0.5-0.1,0.6-0.5c4.4-14.4,13.5-26.7,29.9-27.2c0.3,0,0.6,0,0.9,0
			c7.4,0,14.5,2.8,20,7.9c4.8,4.5,6.8,10.1,9.8,15.7c0.2,0.4,0.6,0.6,1,0.6c0.7,0,1.3-0.5,1.4-1.3c0.1-2.9-0.4-5.7-1.4-8.3
			c4-0.4,7.9-1,11.7-1c4.8,0,9.5,0.9,14.1,4.3c8.9,6.5,9.2,16.3,5.6,25.8c-0.2,0.7,0.3,1.1,0.9,1.1c0.2,0,0.4-0.1,0.6-0.2
			c3.3-2.8,4.9-6.5,5.3-10.4c15.6,5.1,27.4,16,26.4,34.1c-0.9,15.5-13.5,34.3-30,34.3c-2,0-4-0.3-6-0.8c-0.2-0.1-0.4-0.1-0.5-0.1
			c-0.5,0-0.9,0.2-1.3,0.5c-0.5,0.3-0.9,0.8-1,1.5c-1.7,15.7-14.4,25.6-27.8,25.6c-7,0-14.1-2.7-19.9-8.6c-0.4-0.4-0.9-0.6-1.4-0.6
			c-0.9,0-1.8,0.6-2.1,1.6c-1.9,5-5.3,6.9-9.1,6.9c-6.6,0-14.5-5.6-18.6-9.7c-0.4-0.4-0.9-0.6-1.5-0.6c-0.6,0-1.1,0.2-1.6,0.6
			c-2.8,2.5-6.2,3.9-9.9,3.9c-0.3,0-0.6,0-1,0c-3.2-0.2-5.7-3-8.4-3.2c-0.1,0-0.2,0-0.4,0c-1.9,0-3.6,1.3-5.4,2
			c-3,1.1-6.1,1.9-9.3,2.4c-1.4,0.2-2.8,0.3-4.3,0.3c-14,0-28.5-9.3-25.9-24.5c0.7,0.2,1.5,0.2,2.3,0.2c0.9,0,1.8-0.1,2.8-0.3
			c0.1,0,0.1-0.2,0.1-0.3c-1.5-1.6-3.3-2.8-5-4c-0.2-0.2-0.5-0.4-0.7-0.5c-1.9-1.3-3.9-2.7-5.5-4.5c-3.9-4.4-6.3-10.1-6.2-16
			c0.1-11.5,9.1-19.1,18.6-23.9c0.5-0.3,0.3-1-0.3-1c0,0,0,0,0,0c-2.3,0-4.4,0.5-6.5,1.2c1.1-5.2,2-10.2,4.7-15.2
			c3.4-6,8.2-11.3,14.1-14.8c6.3-3.8,12.8-5.3,19.3-5.3c6.9,0,13.9,1.7,20.8,4.3c-0.5,2.4-0.7,4.9-0.4,7.5
			C428.2,130.5,428.6,130.8,428.9,130.8 M460,98.3c-0.6,0-1.2,0-1.7,0.1c-12.6,0.8-25.1,9.6-28.9,21.6c-5.9-4-13.2-5.9-20.6-5.9
			c-8.3,0-16.6,2.3-23.2,6.5c-11,7-21.2,21.5-20.1,35.1c-7,4.6-11.7,13.2-11.8,21.6c-0.1,7.4,4.9,19.3,12.5,23.8
			c-3.3,16.5,11,29.6,27.1,30.5c0.7,0,1.3,0.1,2,0.1c4.5,0,9-0.8,13.2-2.1c2.6-0.8,3.9-1.4,5.6-1.4c1,0,2,0.2,3.5,0.6
			c2.5,0.8,5,1.2,7.4,1.2c3.9,0,7.6-1.1,11.1-3.6c5.1,4.9,11.4,9.5,18.7,9.5c0.4,0,0.8,0,1.2,0c5.2-0.4,9.5-2.9,12.1-7
			c6.2,5.3,13.5,7.7,20.7,7.7c14.9,0,29.3-10.4,31.5-27.5c1.7,0.3,3.4,0.5,5.1,0.5c17.6,0,31.5-18.2,33.7-34.8
			c2.3-17.2-9.9-40.5-29.2-40.5c-0.3,0-0.5,0-0.8,0c-0.5-5.3-3.1-10.7-7-14.4c-5.1-4.9-12.8-7.8-20.2-7.8c-4.3,0-8.5,1-12.2,3
			C484.2,104.8,471.2,98.3,460,98.3"/>
	</g>
	<path opacity="0.5" fill="#4FC3F7" d="M448.9,249.8c0.7-1.8,0.7-3.9-0.2-5.7c-0.1-0.3-0.3-0.6-0.6-0.9c-0.2-0.3-0.3-0.5-0.5-0.8
		c-2.5-3.2-7.4-3.7-10.3-0.5c-2.7,3.1-2.4,8.3,1.1,10.7C442,255,447.2,253.8,448.9,249.8z M444.8,243.5c0.1,0,0.2,0.1,0.3,0.1
		c0.1,0.2,0.2,0.4,0.3,0.5c0.6,1.3,1,2.9,0.4,4.3c-1.3,2.9-6,2.3-6.7-0.7C438.4,244.2,441.8,242.4,444.8,243.5z"/>
	<path opacity="0.5" fill="#4FC3F7" d="M431.7,266.1c1.5-1.5,2.1-3.7,1.3-5.8c-1.6-4.3-7.4-5-9.8-0.9c-1.6,2.9,0,6.1,2.7,7.2
		c0,0.1,0.1,0.3,0.2,0.4C427.7,268.6,430.4,267.4,431.7,266.1z M429.3,259.9c0.5,1.5,1.1,3.7-0.8,4.3c-2.3,0.7-3.9-2-2.5-3.7
		C426.9,259.2,428.3,259.2,429.3,259.9z"/>
	<path opacity="0.5" fill="#4FC3F7" d="M413.1,275.3c1.4-1.4,1.9-3.3,1.2-5.2c-1.4-3.9-6.6-4.5-8.7-0.8c-1.5,2.6,0,5.5,2.4,6.4
		c0,0.1,0.1,0.2,0.2,0.3C409.5,277.6,411.9,276.5,413.1,275.3z M410.9,269.7c0.4,1.3,1,3.3-0.7,3.8c-2,0.6-3.5-1.8-2.3-3.3
		C408.7,269.2,410,269.2,410.9,269.7z"/>
	<path opacity="0.5" fill="#4FC3F7" d="M394.2,282.3c1.4-1.4,1.9-3.3,1.2-5.2c-1.4-3.9-6.6-4.5-8.7-0.8c-1.5,2.6,0,5.5,2.4,6.4
		c0,0.1,0.1,0.2,0.2,0.3C390.7,284.5,393,283.5,394.2,282.3z M392.1,276.7c0.4,1.3,1,3.3-0.7,3.8c-2,0.6-3.5-1.8-2.3-3.3
		C389.9,276.1,391.1,276.1,392.1,276.7z"/>
	<g>
		<path fill="#D3F3FC" d="M554.9,162.5c-0.6,4-1.4,7.9-2.8,11.8c-3,8.6-8.5,16.6-16.5,20.7c-3.5,1.8-7.4,2.7-11.3,2.7
			c-5.2,0-10.3-1.7-14-5.2c1.6,10.4-5.1,21.5-15,25c-2.3,0.8-4.6,1.2-7,1.2c-8.1,0-16.2-4.3-20.3-11.4c-2.5,6.6-7.7,12.6-14.6,14.1
			c-0.9,0.2-1.8,0.3-2.7,0.3c-6.2,0-12.5-4.3-13.1-10.4c-2.3,4.3-6.8,7.4-11.6,8c-0.6,0.1-1.2,0.1-1.8,0.1c-4.3,0-8.5-1.8-11.4-5
			c-1.3-1.4-2.5-3.2-4.4-3.4c-0.2,0-0.3,0-0.5,0c-1.5,0-2.8,0.9-4.2,1.6c-2.1,1-4.3,1.5-6.6,1.5c-3.3,0-6.6-1-9.2-3
			c-4.4-3.4-6.7-9.4-5.7-14.8c-8.1-2.1-15-8.3-18-16.1c-2.1-5.6-2.2-11.9-0.3-17.6c-3.6,4-6.1,8.9-6.2,14.9
			c-0.1,5.9,2.3,11.7,6.2,16c1.6,1.8,3.6,3.2,5.5,4.5c0.3,0.1,0.5,0.3,0.7,0.5c1.8,1.2,3.5,2.4,5,4c0.1,0.1,0,0.2-0.1,0.3
			c-0.9,0.2-1.9,0.3-2.8,0.3c-0.8,0-1.5-0.1-2.3-0.2c-2.6,15.2,12,24.5,25.9,24.5c1.4,0,2.9-0.1,4.3-0.3c3.2-0.5,6.3-1.3,9.3-2.4
			c1.8-0.7,3.5-2,5.4-2c0.1,0,0.2,0,0.4,0c2.7,0.2,5.2,3,8.4,3.2c0.3,0,0.6,0,1,0c3.7,0,7.1-1.4,9.9-3.9c0.4-0.4,1-0.6,1.6-0.6
			c0.5,0,1.1,0.2,1.5,0.6c4.1,4.1,12,9.7,18.6,9.7c3.8,0,7.1-1.8,9.1-6.9c0.4-0.9,1.2-1.6,2.1-1.6c0.5,0,1,0.2,1.4,0.6
			c5.8,5.9,13,8.6,19.9,8.6c13.4,0,26.1-9.9,27.8-25.6c0.1-0.7,0.5-1.2,1-1.5c0.3-0.3,0.7-0.5,1.3-0.5c0.2,0,0.4,0,0.5,0.1
			c2.1,0.6,4.1,0.8,6,0.8c16.6,0,29.1-18.8,30-34.3C555.7,168.2,555.5,165.2,554.9,162.5"/>
	</g>
	<path fill="#FFCD9F" d="M279.3,494.8l-12.7-1.6l-2.9,27.3c0,0,6.4,2.6,11.9,1.7L279.3,494.8z"/>
	<path fill="#FFCD9F" d="M318.5,496.7l2.7,25.1c0,0,7.1,4,11.6-0.7l-2.5-26.1C330.3,495,321.4,493.3,318.5,496.7z"/>
	<path fill="#AC6C82" d="M263.8,437l-7.3,50.4c0,0,3.7,6.8,17.3,8.6c13.5,1.8,18.5-5.7,18.5-5.7l4.7-35.5l5.3,35.1
		c0,0,5.5,8.8,22.1,6.4c16.9-2.5,14.1-11.1,14.1-11.1l-6.9-44.9l-25.7-5.7h-16.2L263.8,437z"/>
	<path fill="#FFCD9F" d="M252.3,382.6c0,0-8.6,38-9.2,58.3c0,0-5.5,18.5-3,27.3c2.5,8.7,5.8,2.7,5.8,2.7s1.3,1.8,2.8,1.6
		c1.5-0.2,2-1.7,2-1.7s1.2,1.7,3.1,1c2-0.7,2-2.7,2-2.7s2.1,0.9,3.3,0.2c1.2-0.7,0.9-3.8,0-5.7c-0.9-1.9-1.8-4.9-1.8-5.9
		c0-1,2.2-12.7,0.1-16.7c-2.1-4-2.9-4.9-2.8-6.5c0.1-1.6,6-40,9.6-46.6c3.6-6.6-3.2-4.9-3.2-4.9l-4.5-1.1L252.3,382.6z"/>
	<path fill="#FFCD9F" d="M339.8,412.5c-1.4-13.5-6.2-24.9-6.2-24.9c7.3,0.5,11.8-2.6,11.5-2.4c-0.2,0.1,5.5,13.7,7.1,27.8
		c0.2,1.5-1.5,3.9-1.5,3.9l-9.3-3.1L339.8,412.5z"/>
	<path fill="#6991AC" d="M325.2,378.8l7.4,62.4c0,0-35.3,18.2-71.6-4.3c0,0,3.9-37.1,4.3-48.8c0,0-10-0.4-15-7.8l11.4-34.9
		l28.3-10.7h17.8l24.8,9.8c0,0,16.7,29.4,18.9,32.6c0,0-2.7,13.6-22.5,10.2L325.2,378.8z"/>
	<path fill="#E2A879" d="M290,326.6v7.9c0,0,8.4,5.3,17.8,0v-7.9h-14.4H290z"/>
	<path fill="#E2A879" d="M351.5,273.4c0,0-1.1-14.2,5.5-14.9c6.6-0.7,4.9,28.2-9.7,30.6L351.5,273.4z"/>
	<path fill="#E2A879" d="M244.4,261.2c0,0-3.6,1.1-3,10.2c0.5,9.1,7.2,14.6,7.2,14.6v-7.5c0,0-0.6-9.6-0.8-10.3
		C247.6,267.4,244.4,261.2,244.4,261.2z"/>
	<path fill="#FFCD9F" d="M244.3,258.5c0,0-0.1,70.6,55.9,70.6c47.6,0,52.9-65.7,52.9-65.7s-7.2-34.5-7.2-36.1
		c0-1.6-13.6-8.8-15.2-9.4c-1.6-0.5-40.9,0.3-42.8,0c-1.9-0.3-22.2,3.7-25.4,3.7c-3.2,0-8.6,1.6-9.1,2.7
		C252.8,225.3,244.3,258.5,244.3,258.5z"/>
	<path fill="#735360" d="M351.5,273.4c0,0-2.7,0.8-5.2,0l-5.5-19.7l1.1-3.2c0,0-3-16.4-9.8-21.4c0,0-14.6,6.9-34.2,6.4
		c-19.6-0.5-37.8-5.7-37.8-5.7s-5,2.1-9.6,16.2v7.8c0,0-4.8,8.4-5.5,11.8c0,0-4.4-9.6-0.6-31.5l-4.2-3.4l4.2-0.5l-15.2-12.5
		l12.2-1.9c0,0-11.5-6.8-14.7-11.2c-3.2-4.5-7.8-8.9-7.8-8.9s38.1-3,41.2-4.1c0,0-7.4-7.1-11.3-13.5c0,0,39,7.8,45.4,9.8
		c0,0-8-11.9-11.2-13.9c0,0,31.9,12.3,51.9,28.7c0,0-3.7-12.7-5.2-16.4c0,0,18.8,25.7,22.2,35.1
		C351.5,221.2,362.7,251.3,351.5,273.4z"/>
	<path fill="none" stroke="#3E3947" stroke-width="2" stroke-linecap="round" stroke-linejoin="round" stroke-miterlimit="10" d="
		M269.2,269.5c0.6-2.2,2.3-3.7,4.1-3.6c1.9,0.1,3.5,1.9,3.8,4.2"/>
	<path fill="none" stroke="#3E3947" stroke-width="2" stroke-linecap="round" stroke-linejoin="round" stroke-miterlimit="10" d="
		M315.3,270.2c0.1-2.2,1.5-4.1,3.3-4.3c1.9-0.3,3.8,1.1,4.5,3.3"/>
	<path fill="#735360" d="M276.1,254.3c0,0-2.2-2.1-5.1-1.6c-2.8,0.5-5.1,3.7-5.1,3.7s0.4-6.1,5.7-6.7c0,0,1.9-0.4,4.4,0.9V254.3z"/>
	<path fill="#735360" d="M312.8,248.9v4.5c0,0,6.6-4.8,12.4,2C325.2,255.5,324.2,245.6,312.8,248.9z"/>
	<path fill="#E2A879" d="M287.6,283.2c0,0-5,6.3,2.4,11.4c0,0-7.6,0.5-8.5-5C280.6,283.4,287.6,283.2,287.6,283.2z"/>
	<g>
		<path fill="#DA727E" d="M306.7,311.5c8.8-2,10.7-7.4,13-12c0.2-0.3-0.3-0.7-0.6-0.4c-6.6,8.3-14.5,11.8-28.2,7.9
			c-0.7-0.2-0.8,0.2-0.3,0.8C292.5,310.1,301.2,312.7,306.7,311.5z"/>
	</g>
	<path fill="#E2A879" d="M295,319.6c0,0,6.5,2,10.6-0.4C305.6,319.2,301.2,324.6,295,319.6z"/>
	<path fill="#EDF9FD" d="M278.7,521.1c0,0-8.8-5.1-16.7-2.2c0,0-1.8,0.4-2,4.4c-0.3,3.9-0.5,7.8-0.5,7.8s12.4,6.1,14.7,5.4
		c2.3-0.6,5.2-2,5.2-2.3s0.4-9.8,0.4-9.8S279.8,521.8,278.7,521.1z"/>
	<path fill="#DDDDDD" d="M260.5,558.6c13.5,1,19.2-6.9,20.8-9.6v-3.9c0,0.5-10.5,7.2-20.5,6.8c-10-0.4-10.3-3.7-10.3-3.7v5.8
		C250.5,554,250.8,557.8,260.5,558.6z"/>
	<g>
		<path fill="#67727A" d="M256.9,532.8c-2.2,3.1-5.3,9.2-6.4,15.4c0,0,0.1,0.5,0.7,1.1c0,0,3.6-14.2,9.5-19.9
			C259.3,530.2,257.9,531.4,256.9,532.8z"/>
		<path fill="#67727A" d="M279.3,530.1l0.1,1.7c0,0-2,2.5-4.7,1.9c-1.4-0.3-3-1.5-4.5-2.7l0,0c0,0-6.5,6.7-7.6,20.9h0
			c9.4-0.4,18.6-6.3,18.6-6.8v-14C281.2,531.1,280.4,530.2,279.3,530.1z"/>
		<path fill="#DDDDDD" d="M260.8,551.9c-6.1-0.3-8.6-1.6-9.6-2.5l0,0c0,0,0.8,2.5,3.2,3.3c2.3,0.9,8.3-0.8,8.3-0.8
			C262,551.9,261.4,551.9,260.8,551.9z"/>
		<path fill="#DDDDDD" d="M270.2,531L270.2,531c-1.4-1.1-2.9-2.3-4.2-2.6c-1.5-0.4-3.5,0.1-5.3,1.1c-5.9,5.7-9.5,19.9-9.5,19.9
			c1,1,3.5,2.3,9.6,2.5c0.6,0,1.2,0,1.9,0h0C263.7,537.6,270.2,531,270.2,531z"/>
	</g>
	<path fill="#EDF9FD" d="M337.6,529.5c0,0-0.2-5.3-0.4-6.7c-0.3-1.3-1.8-3.4-4.4-3.3c-2.6,0.1-10.3-0.1-11.8,0.7
		c-1.5,0.7-1.8,1.3-2.5,3.9c-0.7,2.6-0.5,8.3-0.5,8.3s2.1,4.3,2.7,4.2c0.5-0.1,5.1-0.9,5.6-1.3c0.5-0.4,5.3-1.5,6.1-2
		c0.7-0.4,3.6-1.2,3.7-1.4C336.1,531.5,337.6,529.5,337.6,529.5z"/>
	<path fill="#DDDDDD" d="M338.8,558.6c7.3-0.4,9.1-3.7,9.1-3.7v-5c-0.3,1.2-1.6,3-6.5,3.5c-7.7,0.8-21.1-1-25.1-7.9c0,0,0,0,0-0.1
		v3.2C320.5,557.2,331.5,559,338.8,558.6z"/>
	<path fill="#EDF9FD" d="M341.4,553.3c4.8-0.5,6.1-2.2,6.5-3.5v-1.3c-0.7-2.3-1.7-5-2.9-7.6c-1.2-0.6-3.5-1.4-6.7-0.9
		c-4.5,0.8-10.4,3.1-11.9,11.8C331.5,553.4,337.3,553.7,341.4,553.3z"/>
	<g>
		<path fill="#67727A" d="M326,532.3c-1.1,0.8-2.1,1.4-3,1.6c-2.5,0.4-5-2.9-5-2.9l0-2c-1.6,0.2-1.7,2.5-1.7,2.5v14c0,0,0,0,0,0.1
			c1.9,3.2,5.7,5.2,10.1,6.5c0.8-4.3,2.6-7.1,4.8-8.8l0,0C330.1,538.6,327,533.8,326,532.3z"/>
		<path fill="#DDDDDD" d="M345,541c-3-6.6-7.2-12.8-10.9-12.5c-3.4,0.3-6,2.3-8.1,3.8c1.1,1.5,4.2,6.3,5.2,10.8l0,0
			c2.2-1.8,4.9-2.6,7.2-3C341.5,539.5,343.8,540.4,345,541z"/>
	</g>
	<path fill="#455C7B" d="M309,335c0,0-21.7,51.2-45.5,75.4c0,0-1.1,11.6-1.3,13.9c0,0,45.8-34.7,63.8-82.7
		C326,341.7,310.3,335.5,309,335z"/>
	<path fill="#4A7891" d="M265.2,388c0,0,1.2-24.2,1.3-24.6c0.1-0.4-3.8,24.3-3.8,24.3L265.2,388z"/>
	<path fill="#EDF9FD" d="M250.5,548.2c0,0,0.5-2.7,1.6-6c0.1-0.2,0.3-0.6,0.4-0.7c1.3-1.7,3.4-2.8,6.9-2.5c8.8,0.7,10.8,13,10.8,13
		s-9.2,3.4-9.8,3.4c-0.6,0-9.1-3.3-9.1-3.3L250.5,548.2z"/>
	<g>
		<path fill="#EDD5C0" d="M343.5,416.2c-1.6-2-1.7-2.3-3.7-3.8c1.8-6.7,2.9-13.9,2.3-20.9c-0.6-7-3.1-14-7.5-18.7l-27.7-0.6
			c-4.4,4.6-6.8,11.6-7.5,18.7c-0.6,7,0.5,14.2,2.3,20.9c-1.9,1.5-2.1,1.8-3.7,3.8c-1,1.2-1.9,2.8-1.6,4.4c0.2,1.2,1.1,2,2,2.6
			c3.7,2.5,6.8,3.7,10.3,0.9c0.3-0.3,0.7-0.6,1.1-0.7c0.2-0.1,0.5,0,0.7,0c6.5,2.2,13.4,2.4,20,0.7c0.4-0.1,0.7-0.2,1.1-0.1
			c0.4,0.1,0.8,0.4,1.1,0.7c3.5,2.8,6.6,1.6,10.3-0.9c0.9-0.6,1.8-1.4,2-2.6C345.4,419,344.5,417.4,343.5,416.2z"/>
	</g>
	<g>
		<g>
			<path fill="#736357" d="M299.6,340.6c-4.3,5.1-9.7,8.9-15,13c-1.3,1-2.7,2.1-3.7,3.4c-2.5,3.1-3.4,7.5-2.1,11.3
				c0.5,1.6,1.4,3.1,2.7,4.1c1.3,1.1,3,1.7,4.6,1.5c1.1-0.1,2.1-0.6,3.1-1.1c1-0.6,2-1.2,2.8-2c0.9-1,1.5-2.2,2-3.5
				c1.2-3.1,1.9-6.3,3.1-9.4c1.2-3.1,3.1-6,6-7.5c0,0,5.9-10.4-3.2-10L299.6,340.6z"/>
		</g>
		<g>
			<path fill="#736357" d="M340.2,338.6c4.5,4.9,10.1,8.5,15.5,12.3c1.4,1,2.8,2,3.9,3.3c2.7,3,3.7,7.4,2.6,11.2
				c-0.5,1.6-1.3,3.1-2.5,4.2c-1.2,1.1-2.9,1.8-4.6,1.7c-1.1-0.1-2.2-0.5-3.2-1c-1-0.5-2.1-1.1-2.9-1.9c-1-0.9-1.6-2.2-2.2-3.4
				c-1.4-3-2.1-6.2-3.5-9.2c-1-2.3-2.5-4.6-4.5-6.2c-2-1.5-3.4-3.7-3.9-6.2c-0.4-2.5,0.3-5.1,4.8-5.1L340.2,338.6z"/>
		</g>
		<path fill="#F4DFCC" d="M339.2,361.4c1.2-3,1.9-6.2,1.8-9.7c-0.4-12.2-10-18.4-21.4-18c-11.5,0.4-20.5,7.2-20.1,19.4
			c0.1,3.2,0.8,6.1,2,8.8c-2.3,2.9-3.6,6.3-3.5,9.9c0.3,9.7,10.5,16.3,22.8,15.9c12.3-0.4,22.2-7.6,21.9-17.3
			C342.6,367,341.3,363.9,339.2,361.4z"/>
		<path fill="#998675" d="M326.2,339.6c1.2,3.8,0.6,8-0.1,11.9c-0.4,2.3-0.8,4.6-1.2,6.9c-0.4,2.4-0.8,4.9,0.1,7.2
			c0.6,1.6,1.9,3,3.4,3.7c1.2,0.6,2.5,0.8,3.9,0.9c2.3,0.2,4.7,0.1,6.6-1.1c1.5-0.9,2.5-2.7,2.5-4.4c-0.6-1.2-1.3-2.4-2.2-3.4
			c1.2-3,1.9-6.2,1.8-9.7c-0.2-5.6-2.3-9.9-5.6-12.9c-1.5-1.3-3.2-2.4-5.1-3.2c-2.4-1-5-1.6-7.8-1.8l-0.5,0
			C323.8,335.2,325.4,337.4,326.2,339.6z"/>
		<path fill="#998675" d="M301.6,369.1c1.9,1.2,4.4,1.3,6.6,1.1c1.3-0.1,2.7-0.4,3.9-0.9c1.6-0.8,2.8-2.1,3.4-3.7
			c0.9-2.3,0.5-4.8,0.1-7.2c-0.4-2.3-0.8-4.6-1.2-6.9c-0.7-4-1.3-8.1-0.1-11.9c0.7-2.1,2.3-4.3,4-5.8c-8.1,0.6-14.8,4.5-17.6,11.3
			c-0.5,1.3-0.8,2.6-1.1,4c-0.2,1.2-0.3,2.6-0.2,3.9c0.1,3.2,0.8,6.1,2,8.8c-1,1.2-1.7,2.5-2.3,3.8
			C299.5,367,300.4,368.3,301.6,369.1z"/>
		<path fill="#FFE9D8" d="M332,376.6c0,6.3-5.1,10.4-11.6,10.4c-6.5,0-11.8-4.1-11.8-10.4c0-6.3,5.2-8,11.7-8S332,370.2,332,376.6z"
			/>
	</g>
	<path fill="none" stroke="#4D4D4D" stroke-linecap="round" stroke-linejoin="round" stroke-miterlimit="10" d="M333.3,360.3
		c-0.2-1.4-1.5-2.4-3-2.2c-0.9,0.1-1.7,0.8-2,1.6"/>
	<path fill="none" stroke="#4D4D4D" stroke-linecap="round" stroke-linejoin="round" stroke-miterlimit="10" d="M307.2,360.3
		c0.2-1.4,1.5-2.4,3-2.2c0.9,0.1,1.7,0.8,2,1.6"/>
	<path fill="#4D4D4D" d="M314.7,370.5c0,1.9,2.5,4.9,5.7,4.9c3.1,0,5.6-3,5.6-4.9c0-1.9-2.5-3.4-5.7-3.4S314.7,368.6,314.7,370.5z"
		/>
	<line fill="none" stroke="#4D4D4D" stroke-miterlimit="10" x1="320.5" y1="375" x2="320.5" y2="379"/>
	<path fill="none" stroke="#4D4D4D" stroke-linecap="round" stroke-linejoin="round" stroke-miterlimit="10" d="M314.7,381.9
		c4.4,0.1,5.6-3.4,5.6-3.4s1.8,3.4,5.8,3.4"/>
	<path fill="#FFCD9F" d="M324.6,425.2c0,0,8.7,2,20-0.7c5-1.2,8.4-5.9,7.9-11c-0.2-2.5-0.7-4.5-1.8-3.8c-3.1,2-7.8,2-10.8,2.8
		c-8.2,2.2-13.5,2.2-13.5,2.2s-1.2-1.7-1.7-2c-1-0.6-3.3-2.8-10.3-1.6c-7,1.2-6.4,3.5-4.6,4.8c0,0-6.8,2-4.3,4.4c0,0-4.2,2.4-2,4.7
		c0,0-2,1.9-1,3.7c1.1,1.8,5.3,2.6,11.7-1C314.1,427.5,322.2,427,324.6,425.2z"/>
	<path fill="#FFCD9F" d="M379.2,416.5"/>
	<g>
		<path fill="#F4DFCC" d="M317.4,426.2C317.4,426.2,317.4,426.2,317.4,426.2c2-1,3.4-3,3.4-5.1c0-1.5-0.7-2.9-1.2-4.3
			c-1.6-4.6-1.2-9.6-1.3-14.4c-0.1-4.1-0.7-8.4-3-12c-0.6-0.9-1.9-1.5-3.2-1.5l0,0c-1.4,0-2.6,0.6-3.2,1.6
			c-2.3,3.7-2.7,8.1-2.6,12.3c0.1,4.8,0.7,9.7-0.6,14.4c-0.4,1.4-1,2.9-0.9,4.4c0.1,2,1.5,4,3.6,4.9c0,0,0,0,0,0
			c0.1,0,0.1,0,0.2,0.1c0,0,0.1,0,0.1,0C311.5,427.2,314.8,427.5,317.4,426.2z"/>
	</g>
	<g>
		<path fill="#F4DFCC" d="M334.1,426.2C334.1,426.2,334.1,426.2,334.1,426.2c2-1,3.4-3,3.4-5.1c0-1.5-0.7-2.9-1.2-4.3
			c-1.6-4.6-1.2-9.6-1.3-14.4c-0.1-4.1-0.7-8.4-3-12c-0.6-0.9-1.9-1.5-3.2-1.5l0,0c-1.4,0-2.6,0.6-3.2,1.6
			c-2.3,3.7-2.7,8.1-2.6,12.3c0.1,4.8,0.7,9.7-0.6,14.4c-0.4,1.4-1,2.9-0.9,4.4c0.1,2,1.5,4,3.6,4.9c0,0,0,0,0,0
			c0.1,0,0.1,0,0.2,0.1c0,0,0.1,0,0.1,0C328.2,427.2,331.5,427.5,334.1,426.2z"/>
	</g>
	<g>
		<path fill="#EDD5C0" d="M314.4,427c0,0-1.2-2-0.6-4.2c0,0-1.5,3.1-1.3,4.4C312.5,427.2,313.7,427.4,314.4,427z"/>
		<path fill="#EDD5C0" d="M308.7,426.6c0,0-0.5-2.8,0-4.3c0,0-1.5,2.3-1.6,3.8C307.2,426.1,308,426.6,308.7,426.6z"/>
		<path fill="#EDD5C0" d="M325.7,426.5c0,0,1.4-1.9,1.1-4.1c0,0,1.2,3.2,0.8,4.6C327.6,426.9,326.4,426.9,325.7,426.5z"/>
		<path fill="#EDD5C0" d="M331.9,426.7c0,0,0.5-2.8,0-4.3c0,0,1.5,2.3,1.6,3.8C333.5,426.2,332.6,426.7,331.9,426.7z"/>
	</g>
	<g>
		<g>
			<path fill="#8BC543" d="M230.4,447.2c6.7,5.4,13.5,10.7,21,14.3c-1.7,3.6-3.4,7.2-5.1,10.9c-7.7-3.2-15.6-5-23.8-8
				C224.5,458.2,227.1,452.6,230.4,447.2z"/>
			<path fill="#006738" d="M252.5,461.1l-1.3,2.8c-1.4,2.9-2.8,5.8-4.1,8.8l-0.3,0.7L246,473c-4.3-1.8-8.7-3.2-13.3-4.6
				c-3.4-1-6.9-2.1-10.4-3.4l-0.7-0.2l0.2-0.7c1.9-5.9,4.5-11.6,8-17.3l0.4-0.7l0.7,0.5c6.8,5.5,13.5,10.7,20.9,14.2L252.5,461.1z
				 M245.9,471.3c1.3-2.7,2.6-5.4,3.8-8.1l0.7-1.4c-7-3.4-13.4-8.3-19.8-13.5c-3.1,5.2-5.4,10.3-7.2,15.5c3.3,1.2,6.5,2.2,9.7,3.1
				C237.6,468.3,241.8,469.6,245.9,471.3z"/>
		</g>
		<path fill="#006738" d="M233.1,459.3c1.5-3.2,4.7-4.5,6.9-3c2.2,1.5,3.1,4.7,1.9,7.3c-1.2,2.6-4.2,4.1-6.7,3.2
			C232.7,466,231.6,462.5,233.1,459.3z"/>
		<path fill="#006738" d="M246.3,472.3c0.5-1,0.9-1.9,1.4-2.9c-1.6-0.7-3.5,0-4.3,1.7C244.4,471.5,245.4,471.9,246.3,472.3z"/>
		<g>
			<g>
				<path fill="#8BC543" d="M236,462.5c-0.2,0.4,0.1,0.8,0.7,1c0.6,0.3,1,0.2,1.2-0.2c0.1-0.2,0.1-0.4-0.1-0.6
					c-0.1-0.2-0.5-0.5-1-0.9c-0.5-0.4-0.8-0.8-1-1.3c-0.1-0.5-0.1-0.9,0.2-1.5c0.3-0.6,0.7-0.9,1.3-1c0.6-0.1,1.1,0,1.7,0.4
					c1.3,0.8,1.8,1.8,1.4,3c-0.4-0.2-0.8-0.3-1.2-0.5c0.2-0.7,0-1.2-0.7-1.6c-0.7-0.4-1.1-0.3-1.4,0.3c-0.1,0.2-0.1,0.5,0,0.7
					c0.1,0.2,0.4,0.5,1,1c0.5,0.4,0.9,0.9,1,1.3c0.1,0.4,0.1,0.8-0.1,1.2c-0.2,0.4-0.5,0.7-1,0.9c-0.5,0.2-1.1,0.1-1.7-0.2
					c-1.3-0.5-1.8-1.4-1.4-2.5C235.2,462.2,235.6,462.3,236,462.5z"/>
			</g>
			<path fill="#8BC543" d="M235.6,464.1c0.4,0.1,0.7,0.3,1.1,0.4c-0.2,0.4-0.3,0.8-0.5,1.2c-0.4-0.1-0.7-0.3-1.1-0.4
				C235.3,464.9,235.5,464.5,235.6,464.1z"/>
			<path fill="#8BC543" d="M238.8,457.2c0.3,0.2,0.7,0.4,1,0.6c-0.2,0.4-0.4,0.8-0.5,1.1c-0.3-0.2-0.7-0.4-1-0.6
				C238.5,457.9,238.7,457.6,238.8,457.2z"/>
		</g>
		<path fill="#006738" d="M251.4,461.6c-1-0.5-1.9-0.9-2.8-1.5c-0.8,1.6-0.1,3.6,1.5,4.3C250.5,463.5,250.9,462.6,251.4,461.6z"/>
		<path fill="#006738" d="M230.3,447.4c-0.9,1.4-1.7,2.9-2.5,4.4c1.6,1,3.8,0,5.1-2.3C232,448.8,231.1,448.1,230.3,447.4z"/>
		<path fill="#006738" d="M222.5,464.3c1.1,0.4,2.1,0.7,3.1,1.1c0.9-2.5,0.3-5-1.4-5.9C223.6,461.1,223,462.7,222.5,464.3z"/>
		<path fill="#006738" d="M243.8,464.5c0.3-0.6,0.9-0.8,1.5-0.6c0.5,0.3,0.8,0.9,0.5,1.5c-0.3,0.6-0.9,0.8-1.5,0.6
			C243.8,465.7,243.6,465.1,243.8,464.5z"/>
		<path fill="#006738" d="M229.2,457.2c0.4-0.8,1.1-1.2,1.7-0.9c0.5,0.3,0.7,1.2,0.4,1.9c-0.3,0.8-1.1,1.2-1.6,0.9
			C229,458.9,228.8,458,229.2,457.2z"/>
	</g>
	<g>
		<g>
			<path fill="#8BC543" d="M225.9,449.3c7.4,4.4,14.9,8.7,22.9,11.1c-1.2,3.8-2.3,7.7-3.5,11.5c-8-2.1-16.2-2.7-24.7-4.5
				C221.6,461,223.5,455.1,225.9,449.3z"/>
			<path fill="#006738" d="M249.8,459.9l-0.8,2.5c-1,3.2-2,6.5-3,9.8l-0.2,0.7l-0.7-0.2c-4.6-1.2-9.1-1.9-13.9-2.6
				c-3.5-0.6-7.1-1.1-10.8-1.9l-0.7-0.1l0.1-0.7c1-6.1,2.8-12.1,5.4-18.3l0.3-0.8l0.7,0.4c7.5,4.5,14.9,8.7,22.7,11L249.8,459.9z
				 M244.8,471c0.9-3,1.9-6.1,2.8-9.1l0.3-1c-7.4-2.4-14.4-6.3-21.6-10.5c-2.3,5.6-3.9,10.9-4.9,16.4c3.4,0.7,6.8,1.2,10,1.7
				C236,469.2,240.4,469.9,244.8,471z"/>
		</g>
		<path fill="#006738" d="M230.3,460.9c1-3.4,4-5.1,6.4-3.9c2.4,1.2,3.8,4.2,3,7c-0.8,2.7-3.6,4.6-6.2,4.2
			C230.9,467.6,229.3,464.3,230.3,460.9z"/>
		<path fill="#006738" d="M245.3,471.9c0.3-1,0.6-2.1,0.9-3.1c-1.7-0.5-3.5,0.5-4,2.3C243.2,471.4,244.3,471.6,245.3,471.9z"/>
		<g>
			<g>
				<path fill="#8BC543" d="M233.6,463.6c-0.1,0.4,0.2,0.7,0.8,0.9c0.6,0.2,1,0.1,1.1-0.3c0.1-0.2,0-0.4-0.2-0.6
					c-0.2-0.2-0.5-0.4-1.1-0.7c-0.6-0.3-1-0.7-1.1-1.1c-0.2-0.4-0.2-0.9,0-1.5c0.2-0.6,0.6-1,1.1-1.2c0.6-0.2,1.1-0.1,1.7,0.1
					c1.4,0.6,2,1.5,1.8,2.8c-0.4-0.1-0.8-0.2-1.2-0.3c0.1-0.7-0.2-1.2-1-1.5c-0.7-0.3-1.1-0.1-1.3,0.5c-0.1,0.3,0,0.5,0.1,0.7
					c0.1,0.2,0.5,0.5,1.1,0.8c0.6,0.4,1,0.7,1.2,1.1c0.2,0.4,0.2,0.8,0.1,1.2c-0.1,0.5-0.4,0.8-0.9,1c-0.5,0.2-1,0.3-1.7,0.1
					c-1.4-0.3-2-1.1-1.7-2.3C232.8,463.4,233.2,463.5,233.6,463.6z"/>
			</g>
			<path fill="#8BC543" d="M233.5,465.3c0.4,0.1,0.8,0.2,1.1,0.3c-0.1,0.4-0.2,0.8-0.3,1.2c-0.4-0.1-0.8-0.2-1.1-0.3
				C233.3,466.2,233.4,465.7,233.5,465.3z"/>
			<path fill="#8BC543" d="M235.7,458c0.4,0.2,0.7,0.3,1.1,0.5c-0.1,0.4-0.2,0.8-0.4,1.2c-0.4-0.1-0.7-0.3-1.1-0.4
				C235.4,458.8,235.6,458.4,235.7,458z"/>
		</g>
		<path fill="#006738" d="M248.8,460.5c-1-0.3-2-0.7-3-1c-0.5,1.7,0.4,3.6,2.1,4.1C248.1,462.6,248.4,461.6,248.8,460.5z"/>
		<path fill="#006738" d="M225.8,449.5c-0.7,1.6-1.3,3.1-1.8,4.7c1.7,0.8,3.7-0.6,4.7-3C227.7,450.6,226.8,450.1,225.8,449.5z"/>
		<path fill="#006738" d="M220.6,467.4c1.1,0.2,2.2,0.4,3.3,0.6c0.5-2.6-0.4-5-2.3-5.6C221.2,464,220.8,465.7,220.6,467.4z"/>
		<path fill="#006738" d="M241.7,464.5c0.2-0.6,0.8-0.9,1.4-0.8c0.6,0.2,0.9,0.8,0.7,1.4c-0.2,0.6-0.8,0.9-1.4,0.8
			C241.8,465.7,241.5,465.1,241.7,464.5z"/>
		<path fill="#006738" d="M226.1,459.4c0.2-0.8,0.9-1.3,1.5-1.1c0.6,0.2,0.9,1.1,0.6,1.9c-0.2,0.8-0.9,1.3-1.5,1.1
			C226.2,461.1,225.9,460.2,226.1,459.4z"/>
	</g>
	<path fill="#E2A879" d="M241,453.1c0,0-1,6.2,2.4,7.1c3.4,0.9,3.3-1.1,3.7-4c0.4-2.9,1.6-5.4,2.5-6.6c0,0-1.7,4.5-1.6,6.9
		s-0.8,6.1-4.6,5.3C239.5,461.1,240.1,455.6,241,453.1z"/>
	<path fill="#E2A879" d="M241,453.3c0,0-1,6.2,2.4,7.1c3.4,0.9,3.3-1.1,3.7-4c0.4-2.9,1.6-5.4,2.5-6.6c0,0-1.7,4.5-1.6,6.9
		c0.1,2.4-0.8,6.1-4.6,5.3C239.5,461.2,240.1,455.7,241,453.3z"/>
	<path fill="#FFCD9F" d="M241,453.3c0,0-1,6.2,2.4,7.1c3.4,0.9,3.3-1.1,3.7-4c0.4-2.9,1.6-5.4,2.5-6.6
		C249.6,449.8,240.1,455.7,241,453.3z"/>
</g>
<g>
	<g>
		<circle fill="#FFFFFF" cx="123" cy="126.9" r="58.3"/>
		<path fill="#EFCC3A" d="M123,190.7L123,190.7L123,190.7L123,190.7c-35.1,0-63.7-28.6-63.7-63.7c0-35.1,28.6-63.7,63.7-63.7
			c17,0,33,6.6,45.1,18.7c12,12,18.7,28,18.7,45.1C186.8,162.1,158.2,190.7,123,190.7z M123,74c-29.2,0-52.9,23.7-52.9,52.9
			c0,29.2,23.7,52.9,52.9,52.9l0,0c29.2,0,52.9-23.7,52.9-52.9c0-14.1-5.5-27.4-15.5-37.4C150.5,79.5,137.2,74,123,74z"/>
	</g>
	<g>
		<path fill="#EFCC3A" d="M55.7,84.2l-7-5.7c-2-1.6-3-3.3-3.1-5.1c-0.1-1.8,0.6-3.6,2-5.3c1.4-1.8,3-2.9,4.8-3.3
			c1.8-0.4,3.4,0,4.9,1.2c0.6,0.5,0.9,0.9,0.9,1.4c0,0.4-0.2,0.9-0.7,1.5c-0.9,1.1-1.6,1.3-2.4,0.8c-0.8-0.5-1.6-0.8-2.3-0.8
			s-1.5,0.5-2.3,1.4c-1.4,1.8-1.2,3.4,0.8,5l7,5.7c1.9,1.6,3.6,1.5,5-0.3c0.7-0.8,1-1.7,0.8-2.5c-0.1-0.9-0.7-1.7-1.6-2.4l-1.5-1.2
			l-1.6,2c-0.3,0.3-0.6,0.5-1,0.4c-0.4,0-0.8-0.2-1.1-0.5c-0.3-0.3-0.6-0.6-0.7-1c-0.1-0.4,0-0.7,0.2-1l3.4-4.3
			c0.3-0.3,0.6-0.5,0.9-0.5c0.4,0,0.7,0.1,1,0.3l3,2.4c2,1.6,3,3.3,3.1,5.1c0.1,1.8-0.6,3.6-2.1,5.4c-1.4,1.8-3.1,2.9-4.8,3.2
			C59.6,86.4,57.7,85.8,55.7,84.2z"/>
		<path fill="#EFCC3A" d="M67.8,71.1L66.1,69c-1.1-1.4-1.5-3-1.3-4.9c0.3-1.9,1.1-3.4,2.7-4.6c1.5-1.2,3.2-1.7,5.1-1.6
			c1.9,0.1,3.4,0.9,4.5,2.3l1.7,2.1c1.1,1.4,1.5,3,1.2,4.9c-0.3,1.9-1.1,3.5-2.6,4.6c-1.5,1.2-3.2,1.7-5.1,1.5
			C70.4,73.2,68.9,72.4,67.8,71.1z M71.1,68.4c0.5,0.6,1.1,1,1.9,1.1c0.8,0.1,1.5-0.1,2.1-0.5c0.6-0.5,0.9-1.1,1-1.9
			c0.1-0.8-0.1-1.5-0.6-2.1l-1.6-2.1c-0.5-0.6-1.1-0.9-1.9-1c-0.8-0.1-1.5,0.1-2.1,0.5c-0.6,0.5-0.9,1.1-1,1.9
			c-0.1,0.8,0.1,1.5,0.6,2.1L71.1,68.4z"/>
		<path fill="#EFCC3A" d="M81.4,63.2c-0.8-1.5-0.7-2.9,0.1-4.1c0.8-1.2,2.3-2.4,4.5-3.5l1.2-0.6L87,54.7c-0.4-0.7-0.9-1.3-1.6-1.6
			s-1.5-0.3-2.3,0.2c-0.9,0.4-1.5,1-2,1.6c-0.4,0.6-0.7,1-0.8,1c-0.4,0.2-0.8,0.2-1.2-0.1c-0.4-0.3-0.8-0.6-1-1.1
			c-0.3-0.6,0-1.3,0.7-2.2c0.8-0.9,1.7-1.7,2.8-2.2c2.1-1.1,3.9-1.3,5.5-0.8c1.6,0.5,2.8,1.6,3.6,3.2l3.6,7.1
			c0.2,0.3,0.1,0.7-0.1,1.1c-0.2,0.4-0.6,0.7-1.1,1c-0.5,0.2-0.9,0.3-1.4,0.2c-0.4-0.1-0.8-0.3-0.9-0.7l-0.5-0.9
			c-0.5,2.3-1.6,3.8-3.1,4.7c-1.1,0.6-2.2,0.7-3.2,0.4C82.9,65.3,82.1,64.5,81.4,63.2z M84.9,60.8c0.3,0.5,0.6,0.8,1,0.9
			c0.4,0.1,0.8,0,1.3-0.2c0.6-0.3,1.1-0.9,1.4-1.7c0.3-0.8,0.3-1.6-0.1-2.2L88.2,57l-0.4,0.2c-1.2,0.6-2,1.2-2.6,1.7
			C84.6,59.5,84.5,60.2,84.9,60.8z"/>
		<path fill="#EFCC3A" d="M97,59l-6.9-20.6c-0.1-0.4,0-0.7,0.2-1.1c0.3-0.3,0.7-0.6,1.3-0.8c0.6-0.2,1.1-0.2,1.5-0.1
			c0.5,0.1,0.8,0.3,0.9,0.7l6.9,20.6c0.1,0.3,0,0.7-0.3,1.1c-0.3,0.4-0.7,0.7-1.3,0.9c-0.6,0.2-1.1,0.2-1.5,0.1
			C97.4,59.5,97.1,59.3,97,59z"/>
	</g>
	<g>
		<path fill="#FDC33D" d="M143.6,106.4c0,0-0.1,13.7-12.4,18.2c-1,0.4-2.1,0.7-3.4,0.9l0.4-3.2c0,0,2.4,0,5.2-1.6
			c3-1.7,6.5-5.2,7.5-12.6c0,0,0.3-1.6-1.7-1.7l-4.4,0l-0.1-2.4l7.1,0C141.8,104.2,143.6,104.6,143.6,106.4z"/>
		<path opacity="0.15" fill="#231F20" d="M128.2,122.4c0,0,2.4,0,5.2-1.6c-0.6,1.4-1.4,2.6-2.2,3.8c-1,0.4-2.1,0.7-3.4,0.9
			L128.2,122.4z"/>
		<path opacity="0.15" fill="#231F20" d="M137.1,104.2c0,0.7-0.1,1.6-0.2,2.4l-2.1,0l-0.1-2.4L137.1,104.2z"/>
		<path fill="#FDC33D" d="M118.2,125.6c-1.6-0.3-2.9-0.8-4.2-1.3c-11.4-4.9-11.5-17.9-11.5-17.9c0-1.8,1.7-2.3,1.7-2.3l7.1,0
			l-0.1,2.4l-4.4,0c-2,0.1-1.7,1.7-1.7,1.7c0.9,6.7,3.9,10.2,6.6,12.1c3.1,2.1,6,2.1,6,2.1L118.2,125.6z"/>
		<path opacity="0.15" fill="#231F20" d="M111.3,104.1l-0.1,2.4l-2.7,0c-0.1-0.9-0.2-1.7-0.2-2.4L111.3,104.1z"/>
		<path opacity="0.15" fill="#231F20" d="M118.2,125.6c-1.6-0.3-2.9-0.8-4.2-1.3c-0.8-1.2-1.6-2.6-2.2-4c3.1,2.1,6,2.1,6,2.1
			L118.2,125.6z"/>
		<path fill="#FFD454" d="M125.3,128.8l-0.4,0.4c-0.5,0.5-1.3,0.7-2,0.7l-0.4,0c-0.6,0-1.2-0.2-1.7-0.6l-0.5-0.4
			c-11.1-5.6-10.8-28.6-10.8-28.6c0-1.5,1.8-1.9,1.8-1.9l23.2,0c0,0,1.8,0.4,1.8,1.9C136.2,100.3,136.5,123.3,125.3,128.8z"/>
		<path fill="#F8BD36" d="M135.9,102.3l-26.1,0c-0.9,0-1.6-0.7-1.6-1.6l0-2.1c0-0.9,0.7-1.6,1.6-1.6l26.1,0c0.9,0,1.6,0.7,1.6,1.6
			l0,2.1C137.5,101.6,136.8,102.3,135.9,102.3z"/>
		<rect x="121.1" y="127.2" fill="#FFD454" width="3.5" height="28"/>
		
			<rect x="111.6" y="149.9" transform="matrix(1 1.420022e-03 -1.420022e-03 1 0.2214 -0.1742)" fill="#804F31" width="22.4" height="11.9"/>
		
			<rect x="110.1" y="159.9" transform="matrix(1 1.420117e-03 -1.420117e-03 1 0.2285 -0.1742)" fill="#71452C" width="25.4" height="1.9"/>
		
			<rect x="115.8" y="152.5" transform="matrix(1 1.420050e-03 -1.420050e-03 1 0.2207 -0.1742)" fill="#FFEAA9" width="14" height="5.7"/>
		
			<rect x="117.2" y="148.5" transform="matrix(1 1.420127e-03 -1.420127e-03 1 0.212 -0.1742)" fill="#F8BD36" width="11.2" height="1.4"/>
		<path fill="#FFD454" d="M121,141.4c0,0,0.4,7.1-3.3,7.1l5,0l0-7.1L121,141.4z"/>
		<path fill="#FFD454" d="M124.5,141.4c0,0-0.4,7.1,3.2,7.1l-5,0l0-7.1L124.5,141.4z"/>
		<path fill="#FFEAA9" d="M118,102.3c0,0-4.5,18.8,6.1,27.3c0,0-9.9-4.8-10.9-19.1c0,0-0.3-5,0.6-8.2L118,102.3z"/>
	</g>
</g>
</svg>
