<?xml version="1.0" encoding="utf-8"?>
<!-- Generator: Adobe Illustrator 18.0.0, SVG Export Plug-In . SVG Version: 6.00 Build 0)  -->
<!DOCTYPE svg PUBLIC "-//W3C//DTD SVG 1.1//EN" "http://www.w3.org/Graphics/SVG/1.1/DTD/svg11.dtd">
<svg version="1.1" id="Capa_1" xmlns="http://www.w3.org/2000/svg" xmlns:xlink="http://www.w3.org/1999/xlink" x="0px" y="0px"
	 viewBox="0 0 445 346.1" enable-background="new 0 0 445 346.1" xml:space="preserve">
<g>
	<defs>
		<circle id="SVGID_17_" cx="222.8" cy="-339.7" r="126.4"/>
	</defs>
	<use xlink:href="#SVGID_17_"  overflow="visible" fill="#FFFFFF"/>
	<clipPath id="SVGID_2_">
		<use xlink:href="#SVGID_17_"  overflow="visible"/>
	</clipPath>
	<g clip-path="url(#SVGID_2_)">
		<g>
			<path fill="#E29F8F" d="M214.9-96.6c-3.5-10.2-13.7-20.6-24.1-13.3c-13.4,9.4-10.8,44.8-10.1,59.6c0.5,11.6,2.7,23.5,4.4,35
				c1.3,9.1-1.2,24.4,4.2,32.2c4.3,6.3,16.4,8.3,22.2,3c7-6.4,5.1-16.2,4.4-24.5c-1.3-15.7-2.7-31.7-1.7-48.5
				C215.1-67.6,220-81.9,214.9-96.6z"/>
		</g>
		<g>
			<path fill="#E29F8F" d="M234.4-51.1c-0.2-9.9-2-19.5-3.2-29.5c-1-9.3,1.1-17.2,7.8-24.2c5.2-5.4,15.2-10.2,22.3-5.1
				c8.3,5.8,8.2,19,8.2,28.1c-0.1,11.3,0.8,21.9,0.2,33.2c-0.7,14.1-3,27.5-3.8,41.6c-0.4,6.6,2,17.1-1.8,22.9
				c-4.4,6.8-17.5,9.6-23.5,4.2c-5.3-4.8-3.7-12.1-4-18.7C235.9-16,234.7-34,234.4-51.1z"/>
		</g>
		<g>
			<path fill="#FFFFFF" d="M187.6,1.8c0.3,0.2,0.5,0.4,0.7,0.5c2.3,1.8,4.1,2.3,7,2.6c5,0.5,10.2-0.6,14.7-2.7
				c2.3-1.1,9.9-7.4,8.6-0.6c-0.4,2.1-1.8,3.9-2.3,5.9c-0.6,2.2,0.1,3.2-2.1,4.7c-3.2,2.2-7,4.5-10.9,5.3c-4.7,1-13.4,0.7-17.1-3.1
				c-2.3-2.3-1.1-5.7-1.6-8.4c-0.3-1.8-4-4-2.2-6C183.8-1.2,186.1,0.7,187.6,1.8z"/>
		</g>
		<g>
			<path fill="#9CC680" d="M216.9,5.9c-0.7,4.8-6.4,6.8-10.4,7.9c-6.8,1.8-20.8,1.7-21.9-7.9c-2.5,2.7-4.2,6.3-6,9.5
				c-1.9,3.4-3.9,6.8-5.5,10.4c-1.9,4-3.8,7.7-3.2,12.2c0.3,2.1-0.2,5,1.1,6.8c1,1.4,3.8,2.6,5.4,3.1c8.2,2.4,16.7,2.6,25.1,1.5
				c2.9-0.4,6-0.1,8.5-2c2-1.6,3.5-3.4,4.4-5.6c3.1-7.5,7.8-18.8,5.5-27.1C219.2,12.4,219.2,7.1,216.9,5.9z"/>
		</g>
		<path fill="#D4D4D4" d="M170,42c0,0,2.4,4.9,17.7,5.1c15.3,0.2,21.2-1,23.8-3.8c3.6-3.7,8.2-20.6,8.8-26.3c0,0,0.5,5.7,0,8.4
			c-0.5,2.8-3.7,22.6-9.2,24.8c-5.5,2.2-14.7,3.4-23.1,2.8c-8.4-0.6-16.5-3.4-17.6-5.8C169.3,44.9,169.5,42.7,170,42z"/>
		<g>
			<path fill="#FFFFFF" d="M264.2,1.8c-0.3,0.2-0.5,0.4-0.7,0.5c-2.3,1.8-4.1,2.3-7,2.6c-5,0.5-10.2-0.6-14.7-2.7
				c-2.3-1.1-9.9-7.4-8.6-0.6c0.4,2.1,1.8,3.9,2.3,5.9c0.6,2.2-0.1,3.2,2.1,4.7c3.2,2.2,7,4.5,10.9,5.3c4.7,1,13.4,0.7,17.1-3.1
				c2.3-2.3,1.1-5.7,1.6-8.4c0.3-1.8,4-4,2.2-6C268-1.2,265.7,0.7,264.2,1.8z"/>
		</g>
		<g>
			<path fill="#9CC680" d="M235,6.2c0.7,4.8,6.4,6.8,10.4,7.9c6.8,1.8,20.8,1.7,21.9-7.9c2.5,2.7,4.2,6.3,6,9.5
				c1.9,3.4,3.9,6.8,5.5,10.4c1.9,4,3.8,7.7,3.2,12.2c-0.3,2.1,0.2,5-1.1,6.8c-1,1.4-3.8,2.6-5.4,3.1c-8.2,2.4-16.7,2.6-25.1,1.5
				c-2.9-0.4-6-0.1-8.5-2c-2-1.6-3.5-3.4-4.4-5.6c-3.1-7.5-7.8-18.8-5.5-27.1C232.7,12.7,232.6,7.5,235,6.2z"/>
		</g>
		<path fill="#D4D4D4" d="M281.8,42c0,0-2.4,4.9-17.7,5.1c-15.3,0.2-21.2-1-23.8-3.8c-3.6-3.7-8.2-20.6-8.8-26.3c0,0-0.5,5.7,0,8.4
			c0.5,2.8,3.7,22.6,9.2,24.8c5.5,2.2,14.7,3.4,23.1,2.8c8.4-0.6,16.5-3.4,17.6-5.8C282.5,44.9,282.4,42.7,281.8,42z"/>
		<g>
			<path fill="#D4D4D4" d="M182.1,19.2c-1.1,0.6-0.8,5.5,0.4,5.2c3.6-0.9,8.5-1.6,13-1.1c-4.6-0.3-9.1,0.1-13.7,2.7
				c-0.7,0.4-0.5,3.4,0.2,3.1c4.2-1.4,8.2-1.6,12.6-1c4.6,0.6,8.8,2.7,13.4,3.3c1.9,0.2,1.2-5,0.9-5.8c-0.8-1.8-1.9-3.2-3.2-4.3
				c1.8,0.6,3.4,1.6,4.4,3.1c1.4,2,2.3-4.3,1.2-5.8C205.3,10.5,189.3,15.6,182.1,19.2z"/>
			<path fill="#D4D4D4" d="M270,26c-4.5-2.5-8.8-2.9-13.2-2.7c4.5-0.4,9.2,0.2,12.6,1.1c1.2,0.3,1.3-4.6,0.2-5.2
				c-7.3-3.6-23.2-8.6-29.1-0.5c-1.1,1.5,0.1,7.8,1.5,5.7c1-1.4,2.4-2.4,4.1-3c-1.3,1.1-2.4,2.5-3.2,4.3c-0.4,0.9-0.8,6,1.1,5.8
				c3.9-0.5,7.5-2.4,11.5-3c4.9-0.8,9.4-0.9,14.2,0.7C270.7,29.4,270.7,26.4,270,26z"/>
		</g>
	</g>
</g>
<g>
	<path fill="#FFCD9F" d="M77.2,333.3c0,0-9.7,42.7-10.3,65.5c0,0-6.2,20.8-3.4,30.6c2.8,9.8,6.5,3,6.5,3s1.4,2,3.1,1.8
		c1.7-0.2,2.3-1.9,2.3-1.9s1.3,1.9,3.5,1.1c2.2-0.8,2.3-3,2.3-3s2.3,1,3.7,0.2c1.3-0.8,1-4.3,0-6.4c-1-2.1-2.1-5.5-2.1-6.6
		c0-1.1,2.5-14.2,0.1-18.7c-2.4-4.5-3.2-5.5-3.1-7.3c0.1-1.8,6.8-44.9,10.8-52.4c4.1-7.4-3.6-5.5-3.6-5.5l-5.1-1.2L77.2,333.3z"/>
	<path fill="#FFCD9F" d="M179,407.6c0,0,9-11.6,11-29.6c2-18-8.8-41.7-8.5-41.9c0.3-0.2-11.7-3.6-11.7-3.6l-1.2,6.3
		c0,0,6.6,19.5,8.2,34.8c1.6,15.2-7.4,26.8-7.4,26.8h-2.8c0,0-4.6,2.6-7,10.2c-2.4,7.6,0.2,8.2,2.4,7c0,0-1.4,7.8,2.2,6.6
		c0,0,0.4,4.9,3.6,5c0,0,1,2.4,3.3,2.2c2.3-0.2,5.3-4,4.9-12.2"/>
	<path fill="#6991AC" d="M159.1,328.9l8.3,70.1c0,0-39.6,20.4-80.5-4.8c0,0,4.4-41.6,4.8-54.9c0,0-11.2-0.4-16.8-8.8l12.8-39.2
		l31.8-12.1h20l27.9,11c0,0,18.8,33,21.2,36.6c0,0-3,15.3-25.2,11.4L159.1,328.9z"/>
	<path fill="#E2A879" d="M119.5,270.3v8.9c0,0,9.5,6,20,0v-8.9h-16.2H119.5z"/>
	<path fill="#E2A879" d="M188.7,210.5c0,0-1.3-15.9,6.1-16.7c7.4-0.8,5.5,31.7-10.9,34.4L188.7,210.5z"/>
	<path fill="#E2A879" d="M68.3,196.8c0,0-4,1.2-3.4,11.4c0.6,10.2,8.1,16.4,8.1,16.4v-8.4c0,0-0.7-10.8-0.9-11.6
		C71.9,203.8,68.3,196.8,68.3,196.8z"/>
	<path fill="#FFCD9F" d="M68.2,193.8c0,0-0.1,79.3,62.8,79.3c53.5,0,59.5-73.9,59.5-73.9s-8.1-38.7-8.1-40.5
		c0-1.8-15.3-9.9-17.1-10.5c-1.8-0.6-45.9,0.3-48.1,0c-2.1-0.3-24.9,4.2-28.5,4.2c-3.6,0-9.6,1.8-10.2,3
		C77.8,156.5,68.2,193.8,68.2,193.8z"/>
	<path fill="#735360" d="M188.7,210.5c0,0-3.1,0.9-5.9,0l-6.2-22.1l1.2-3.6c0,0-3.4-18.4-11-24c0,0-16.4,7.8-38.4,7.2
		c-22-0.6-42.4-6.4-42.4-6.4s-5.6,2.4-10.8,18.2v8.8c0,0-5.4,9.4-6.2,13.2c0,0-5-10.8-0.7-35.4l-4.7-3.8l4.7-0.6l-17.1-14l13.8-2.2
		c0,0-13-7.6-16.6-12.6c-3.6-5-8.8-10-8.8-10s42.8-3.4,46.3-4.6c0,0-8.3-8-12.7-15.2c0,0,43.8,8.8,51,11c0,0-9-13.4-12.6-15.6
		c0,0,35.8,13.8,58.3,32.2c0,0-4.2-14.2-5.8-18.4c0,0,21.2,28.8,24.9,39.4C188.7,151.9,201.2,185.7,188.7,210.5z"/>
	<ellipse fill="#3E3947" cx="100.7" cy="207.9" rx="4.6" ry="5.8"/>
	<ellipse fill="#3E3947" cx="151" cy="207.9" rx="4.6" ry="5.8"/>
	<path fill="#735360" d="M103.9,189c0,0-2.5-2.4-5.7-1.8c-3.2,0.6-5.7,4.2-5.7,4.2s0.5-6.9,6.4-7.5c0,0,2.1-0.4,5,1V189z"/>
	<path fill="#735360" d="M145.2,183v5.1c0,0,7.4-5.4,13.9,2.3C159.1,190.4,158,179.2,145.2,183z"/>
	<path fill="#E2A879" d="M116.9,221.5c0,0-5.6,7.1,2.7,12.8c0,0-8.5,0.6-9.5-5.6C108.9,221.8,116.9,221.5,116.9,221.5z"/>
	<path fill="#FDF5ED" d="M108.1,241.4c0,0,0.1,1.8,0.8,4.2c6.2,1.7,24.4,5.5,40.5-1.8c1.5-4.2,1.6-7.8,1.6-7.8
		C134.3,248,108.1,241.4,108.1,241.4z"/>
	<g>
		<path fill="#9E005D" d="M109,245.6c0.7,2.2,2,4.8,4.3,7.1c2.1-2.1,5.1-3.7,8.3-4.9C116,247.3,111.5,246.3,109,245.6z"/>
		<path fill="#DA727E" d="M129.6,258.2c12.4-0.4,17.7-8.2,19.9-14.5c-9.5,4.4-19.8,4.8-27.9,4.1c-3.2,1.2-6.2,2.8-8.3,4.9
			C116.4,255.9,121.4,258.5,129.6,258.2z"/>
	</g>
	<path fill="#E2A879" d="M125.2,262.4c0,0,7.3,2.2,11.9-0.4C137.1,262,132.2,268,125.2,262.4z"/>
	<path fill="#455C7B" d="M140.9,279.8c0,0-24.3,57.5-51.1,84.8c0,0-1.2,13-1.5,15.6c0,0,51.5-39,71.7-92.9
		C160,287.3,142.3,280.3,140.9,279.8z"/>
	<path fill="#4A7891" d="M91.7,339.3c0,0,1.4-27.2,1.5-27.6C93.3,311.3,89,339,89,339L91.7,339.3z"/>
</g>
<path fill="#D71865" d="M280,164.1c-0.8-3.9,3.1-6,6.4-4.7c0.1,0,0.2,0.1,0.3,0.1c0.1,0.2,0.3,0.5,0.3,0.6c0.7,1.5,1.2,3.2,0.5,4.8
	C286.1,168.1,280.8,167.5,280,164.1z"/>
<path fill="#FFFFFF" d="M247.1,75.6c0.4-0.2,0.2-0.9-0.2-0.9c-1.9,0-3.8,0.4-5.5,1.1c0.9-4.5,1.7-8.7,4-12.9
	c2.9-5.2,7-9.6,12.1-12.7c11.1-6.7,22.8-5.2,34.2-0.9c-0.4,2-0.6,4.2-0.4,6.4c0.1,0.6,0.9,0.8,1.1,0.2c3.7-12.3,11.5-22.8,25.5-23.2
	c6.6-0.2,12.9,2.2,17.8,6.7c4.1,3.8,5.8,8.6,8.4,13.4c0.5,1,2,0.5,2-0.5c0.1-2.5-0.4-4.9-1.2-7.1c7.8-0.9,15-2.4,22,2.8
	c7.6,5.5,7.9,13.9,4.8,22c-0.3,0.8,0.8,1.2,1.3,0.7c2.9-2.4,4.2-5.5,4.5-8.9c13.3,4.3,23.4,13.7,22.5,29.1
	c-0.9,14.8-14.1,33.1-30.8,28.6c-0.7-0.2-1.2,0-1.5,0.4c-0.4,0.3-0.8,0.7-0.8,1.3c-2.2,20.4-26.2,29.2-40.7,14.5
	c-1-1.1-2.6-0.4-3,0.8c-4.5,11.8-18.1,3.1-23.6-2.4c-0.7-0.7-1.9-0.7-2.6,0c-2.6,2.3-5.7,3.6-9.3,3.3c-2.7-0.2-4.9-2.6-7.1-2.8
	c-1.8-0.2-3.3,1-4.9,1.7c-2.6,1-5.2,1.6-8,2c-12.8,1.8-28.2-6.3-25.7-20.7c1.4,0.3,2.8,0.3,4.3-0.1c0.1,0,0.1-0.1,0.1-0.2
	c-1.3-1.3-2.8-2.4-4.3-3.4c-0.2-0.2-0.4-0.3-0.6-0.4c-1.7-1.1-3.3-2.3-4.7-3.8c-3.3-3.7-5.4-8.6-5.3-13.7
	C231.4,86.2,239.1,79.7,247.1,75.6z"/>
<path fill="#D71865" d="M265.3,178.3c1-1.3,2.6-1.3,3.8-0.6c0.6,1.7,1.3,4.1-0.9,4.8C265.6,183.3,263.7,180.3,265.3,178.3z"/>
<path fill="#FFFFFF" d="M280,164.1c-0.8-3.9,3.1-6,6.4-4.7c0.1,0,0.2,0.1,0.3,0.1c0.1,0.2,0.3,0.5,0.3,0.6c0.7,1.5,1.2,3.2,0.5,4.8
	C286.1,168.1,280.8,167.5,280,164.1z"/>
<path fill="#FFFFFF" d="M265.3,178.3c1-1.3,2.6-1.3,3.8-0.6c0.6,1.7,1.3,4.1-0.9,4.8C265.6,183.3,263.7,180.3,265.3,178.3z"/>
<path opacity="0.5" fill="#D59280" d="M227.7,96c-0.1,6.3,4.2,16.5,10.7,20.3c-2.8,14.1,9.4,25.2,23.1,26c4.4,0.2,8.8-0.5,13-1.8
	c3.5-1.1,4.3-1.7,7.8-0.6c5.8,1.7,11,1.3,15.7-2.1c4.6,4.4,10.3,8.6,17,8.1c4.5-0.3,8.1-2.5,10.3-6c16.3,13.8,41.8,4.6,44.5-16.9
	c17,3.4,31-13.7,33.1-29.3c2-14.9-8.7-35.1-25.6-34.6c-0.4-4.6-2.7-9.1-6-12.3c-6.9-6.6-19.1-8.8-27.6-4c-5-9.2-17-14.8-26.9-14.2
	c-10.7,0.7-21.4,8.2-24.7,18.4c-10.8-7.3-26.7-6.2-37.4,0.6c-9.4,6-18,18.3-17.1,30C231.8,81.5,227.8,88.9,227.7,96z M231.3,96
	c0.1-9.8,7.8-16.3,15.8-20.4c0.4-0.2,0.2-0.9-0.2-0.9c-1.9,0-3.8,0.4-5.5,1.1c0.9-4.5,1.7-8.7,4-12.9c2.9-5.2,7-9.6,12.1-12.7
	c11.1-6.7,22.8-5.2,34.2-0.9c-0.4,2-0.6,4.2-0.4,6.4c0.1,0.6,0.9,0.8,1.1,0.2c3.7-12.3,11.5-22.8,25.5-23.2
	c6.6-0.2,12.9,2.2,17.8,6.7c4.1,3.8,5.8,8.6,8.4,13.4c0.5,1,2,0.5,2-0.5c0.1-2.5-0.4-4.9-1.2-7.1c7.8-0.9,15-2.4,22,2.8
	c7.6,5.5,7.9,13.9,4.8,22c-0.3,0.8,0.8,1.2,1.3,0.7c2.9-2.4,4.2-5.5,4.5-8.9c13.3,4.3,23.4,13.7,22.5,29.1
	c-0.9,14.8-14.1,33.1-30.8,28.6c-0.7-0.2-1.2,0-1.5,0.4c-0.4,0.3-0.8,0.7-0.8,1.3c-2.2,20.4-26.2,29.2-40.7,14.5
	c-1-1.1-2.6-0.4-3,0.8c-4.5,11.8-18.1,3.1-23.6-2.4c-0.7-0.7-1.9-0.7-2.6,0c-2.6,2.3-5.7,3.6-9.3,3.3c-2.7-0.2-4.9-2.6-7.1-2.8
	c-1.8-0.2-3.3,1-4.9,1.7c-2.6,1-5.2,1.6-8,2c-12.8,1.8-28.2-6.3-25.7-20.7c1.4,0.3,2.8,0.3,4.3-0.1c0.1,0,0.1-0.1,0.1-0.2
	c-1.3-1.3-2.8-2.4-4.3-3.4c-0.2-0.2-0.4-0.3-0.6-0.4c-1.7-1.1-3.3-2.3-4.7-3.8C233.3,105.9,231.2,101,231.3,96z"/>
<path opacity="0.5" fill="#D59280" d="M291,166.4c0.8-2,0.8-4.4-0.2-6.4c-0.2-0.3-0.4-0.6-0.6-1c-0.2-0.3-0.3-0.6-0.6-0.9
	c-2.9-3.6-8.4-4.1-11.5-0.5c-3.1,3.4-2.7,9.4,1.2,12C283.3,172.2,289.2,170.9,291,166.4z M286.4,159.4c0.1,0,0.2,0.1,0.3,0.1
	c0.1,0.2,0.3,0.5,0.3,0.6c0.7,1.5,1.2,3.2,0.5,4.8c-1.4,3.2-6.7,2.6-7.5-0.8C279.2,160.2,283.1,158.1,286.4,159.4z"/>
<path opacity="0.5" fill="#D59280" d="M271.8,184.7c1.7-1.7,2.3-4.2,1.5-6.5c-1.8-4.9-8.3-5.6-11-1c-1.8,3.2,0,6.9,3.1,8.1
	c0,0.1,0.1,0.3,0.2,0.4C267.3,187.6,270.3,186.2,271.8,184.7z M269,177.7c0.6,1.7,1.3,4.1-0.9,4.8c-2.5,0.8-4.4-2.2-2.8-4.2
	C266.3,177,267.9,177,269,177.7z"/>
<path opacity="0.5" fill="#D59280" d="M250.8,195.1c1.5-1.5,2.1-3.8,1.3-5.8c-1.6-4.4-7.5-5-9.8-0.9c-1.7,2.9,0,6.2,2.7,7.2
	c0,0.1,0.1,0.3,0.2,0.4C246.8,197.6,249.5,196.4,250.8,195.1z M248.4,188.8c0.5,1.5,1.1,3.7-0.8,4.3c-2.3,0.7-3.9-2-2.5-3.8
	C245.9,188.2,247.3,188.1,248.4,188.8z"/>
<path opacity="0.5" fill="#D59280" d="M229.6,202.9c1.5-1.5,2.1-3.8,1.3-5.8c-1.6-4.4-7.5-5-9.8-0.9c-1.7,2.9,0,6.2,2.7,7.2
	c0,0.1,0.1,0.3,0.2,0.4C225.6,205.4,228.3,204.2,229.6,202.9z M227.2,196.6c0.5,1.5,1.1,3.7-0.8,4.3c-2.3,0.7-3.9-2-2.5-3.8
	C224.8,196,226.2,195.9,227.2,196.6z"/>
<path fill="#FCF1EB" d="M236.6,83.3c-1.6,4.9-1.6,10.3,0.3,15c2.5,6.7,8.4,12,15.3,13.8c-0.9,4.7,1,9.8,4.8,12.7
	c3.8,2.9,9.2,3.4,13.5,1.3c1.3-0.6,2.6-1.5,4-1.3c1.6,0.2,2.7,1.7,3.7,2.9c2.8,3.1,7.2,4.7,11.3,4.1c4.1-0.5,7.9-3.1,9.9-6.8
	c0.5,6,7.6,9.9,13.4,8.6c5.9-1.3,10.3-6.4,12.5-12.1c4.5,7.8,14.8,11.7,23.3,8.7c8.5-3,14.2-12.4,12.8-21.3
	c5.6,5.3,14.8,5.7,21.6,2.1c6.8-3.6,11.5-10.4,14.1-17.7c1.1-3.3,1.9-6.6,2.4-10c0.5,2.3,0.7,4.8,0.5,7.6
	c-0.9,14.8-14.1,33.1-30.8,28.6c-0.7-0.2-1.2,0-1.5,0.4c-0.4,0.3-0.8,0.7-0.8,1.3c-2.2,20.4-26.2,29.2-40.7,14.5
	c-1-1.1-2.6-0.4-3,0.8c-4.5,11.8-18.1,3.1-23.6-2.4c-0.7-0.7-1.9-0.7-2.6,0c-2.6,2.3-5.7,3.6-9.3,3.3c-2.7-0.2-4.9-2.6-7.1-2.8
	c-1.8-0.2-3.3,1-4.9,1.7c-2.6,1-5.2,1.6-8,2c-12.8,1.8-28.2-6.3-25.7-20.7c1.4,0.3,2.8,0.3,4.3-0.1c0.1,0,0.1-0.1,0.1-0.2
	c-1.3-1.3-2.8-2.4-4.3-3.4c-0.2-0.2-0.4-0.3-0.6-0.4c-1.7-1.1-3.3-2.3-4.7-3.8c-3.3-3.7-5.4-8.6-5.3-13.7
	C231.4,90.9,233.4,86.7,236.6,83.3z"/>
<g>
	<path fill="#FEA739" d="M308.3,86.6l0.1,1.4c0.2,2.9-0.8,5.7-3.3,8.8c-1.9,2.2-3.4,3.9-3.4,5.8c0,2,1.3,3.3,4.2,3.4
		c1.9,0,4.2-0.6,5.7-1.6l1.9,6.2c-2,1.2-5.5,2.3-9.5,2.3c-7.5,0-10.9-4.2-10.9-8.9c0-4.4,2.7-7,4.9-9.4c2-2.3,2.9-4.3,2.9-6.9
		l-0.1-1H308.3z M309.8,78.4c0,3-2,5.2-5.1,5.2c-3,0-5.1-2.2-5.1-5.2c0-3,2.1-5.2,5.1-5.2S309.8,75.4,309.8,78.4z"/>
	<path fill="#FEA739" d="M323.8,89l-0.1-1.5c-0.2-2.9,0.8-5.9,3.4-8.9c1.8-2.2,3.3-4,3.3-5.9c0-2-1.3-3.3-4.2-3.4
		c-1.9,0-4.2,0.7-5.6,1.7l-1.9-6.2c2-1.2,5.5-2.3,9.5-2.3c7.5,0,10.9,4.2,10.9,8.9c0,4.3-2.7,7.2-4.8,9.6c-2.1,2.3-3,4.6-2.9,7.1v1
		H323.8z M322.3,96.9c0-3,2.1-5.2,5.1-5.2c3.1,0,5.1,2.2,5.1,5.2c0,3-2,5.2-5.1,5.2C324.4,102.1,322.3,99.8,322.3,96.9z"/>
</g>
</svg>
