<?xml version="1.0" encoding="UTF-8" standalone="no"?>
<svg width="611px" height="551px" viewBox="0 0 611 551" version="1.1" xmlns="http://www.w3.org/2000/svg" xmlns:xlink="http://www.w3.org/1999/xlink">
    <!-- Generator: Sketch 48 (47235) - http://www.bohemiancoding.com/sketch -->
    <title>Page 1 Copy</title>
    <desc>Created with Sketch.</desc>
    <defs>
        <rect id="path-1" x="0" y="0" width="720" height="676"></rect>
        <polygon id="path-3" points="0 0.590126536 1082.27304 0.590126536 1082.27304 393.690375 0 393.690375"></polygon>
    </defs>
    <g id="Large-Desktop-HD-Copy" stroke="none" stroke-width="1" fill="none" fill-rule="evenodd" transform="translate(-1309.000000, -493.000000)">
        <g id="Page-1-Copy" transform="translate(1200.000000, 404.000000)">
            <mask id="mask-2" fill="white">
                <use xlink:href="#path-1"></use>
            </mask>
            <g id="Mask"></g>
            <g mask="url(#mask-2)">
                <g transform="translate(109.000000, 56.000000)">
                    <g id="Group-16" stroke-width="1" fill="none" transform="translate(0.000000, 33.220690)">
                        <g id="Group-9" transform="translate(0.000000, 62.862174)">
                            <mask id="mask-4" fill="white">
                                <use xlink:href="#path-3"></use>
                            </mask>
                            <g id="Clip-8"></g>
                            <path d="M960.632475,264.845252 C959.92996,264.752789 959.249398,264.647117 958.599571,264.532639 C957.945353,264.413758 957.308698,264.294877 956.693997,264.15398 C956.017826,263.995472 955.363609,263.836964 954.740126,263.656441 C954.476683,263.590396 954.230802,263.511142 953.967359,263.431888 C952.417434,262.947557 951.008012,262.401585 949.756656,261.771955 C949.510776,261.653074 949.273677,261.538596 949.040969,261.406506 C948.180387,260.948593 947.394448,260.464263 946.665588,259.927096 C946.485569,259.812618 946.31433,259.680528 946.143092,259.548438 C945.506438,259.064107 944.918081,258.54015 944.382413,258.020595 C943.925778,257.562683 943.495487,257.10477 943.117885,256.62044 C942.990554,256.475141 942.872004,256.334244 942.766627,256.175736 C942.415369,255.731033 942.1168,255.286329 941.827012,254.828417 C941.726026,254.669909 941.633821,254.515803 941.541615,254.357295 C941.44941,254.198787 941.357205,254.057891 941.282563,253.899383 C941.124497,253.613188 940.979603,253.322589 940.8391,253.036394 C940.667862,252.697363 940.509796,252.358331 940.369293,252.001688 C940.263915,251.741911 940.158538,251.468924 940.066333,251.204744 C939.92583,250.852504 939.80728,250.500263 939.701903,250.148023 C939.535055,249.624065 939.390162,249.086899 939.271612,248.562941 C939.104765,247.858461 938.973043,247.167189 938.867666,246.471514 C938.762288,245.885915 938.687646,245.295912 938.621785,244.732327 C938.555924,244.168743 938.503236,243.635979 938.463719,243.112022 C938.450547,243.072395 938.450547,243.045977 938.450547,243.00635 C938.437375,242.786199 938.411031,242.561646 938.397858,242.354705 C938.331998,241.606194 938.279309,240.928131 938.217839,240.32492 L938.191495,240.32492 C937.695343,229.185318 928.540687,220.304458 917.300439,220.304458 L917.300439,220.291249 C900.374205,219.939009 898.846234,194.388373 917.664869,194.388373 L1061.35564,194.388373 C1072.90763,194.388373 1082.27304,184.996764 1082.27304,173.412459 L1082.27304,173.333205 C1082.27304,161.7489 1072.90763,152.357291 1061.35564,152.357291 L873.393218,152.357291 L856.374779,152.357291 C847.470395,151.824528 839.760287,149.587801 839.760287,141.715229 C839.760287,131.738021 851.316667,130.742942 864.58982,131.081973 C882.064894,131.526677 885.9902,118.229603 886.486351,110.828152 C887.592813,94.378527 895.364391,87.3821528 904.400497,87.3821528 L904.400497,87.3425257 L953.054089,87.3425257 C964.610469,87.3425257 973.971489,77.9509169 973.971489,66.3666119 L973.971489,66.2741488 C973.971489,54.7030528 964.610469,45.311444 953.054089,45.311444 L935.451684,45.311444 L934.836983,45.311444 C900.567397,45.311444 903.816531,26.6383016 902.824228,19.6551364 L902.811056,19.6551364 C901.858269,8.96023824 892.901196,0.590126536 881.999033,0.590126536 L147.382929,0.590126536 C135.826549,0.590126536 126.465529,9.97733229 126.465529,21.5660403 L126.465529,21.6452944 C126.465529,33.2295995 135.826549,42.6168052 147.382929,42.6168052 L167.084099,42.6168052 L172.445171,42.6168052 L173.841421,42.6168052 C183.307818,42.6300142 192.629321,44.2283049 198.09577,49.2345211 C208.839866,59.0708333 208.541297,76.8677778 192.19903,85.2643076 C187.755619,87.5494669 181.468105,88.0734245 173.894109,88.1790966 L166.131313,88.1790966 C163.496879,88.1658876 160.76146,88.1526786 157.929444,88.1790966 L108.832389,88.1790966 C97.2803996,88.1790966 87.9193801,97.5663023 87.9193801,109.15501 L87.9193801,109.229861 C87.9193801,120.81857 97.2803996,130.205775 108.832389,130.205775 L164.713109,130.205775 L164.713109,130.298238 C174.179506,130.324656 183.501009,131.984589 188.967458,137.215359 C199.711555,147.469956 199.412986,166.037427 183.070719,174.799406 C179.760114,176.578219 175.41769,177.335536 170.306889,177.64815 L20.9037888,177.64815 C9.36497115,177.64815 -0.000439072209,187.039758 -0.000439072209,198.624063 L-0.000439072209,198.703317 C-0.000439072209,210.287623 9.36497115,219.679231 20.9037888,219.679231 L137.328176,219.679231 L145.411495,219.679231 C151.699009,220.238413 160.146758,222.321034 165.117056,228.973974 C171.127954,237.044681 169.692188,250.658771 161.999643,257.184024 C158.517801,260.125231 154.394913,262.216658 150.939414,263.238156 C148.621113,263.929427 144.875827,264.898088 142.974644,266.020854 C137.925314,269.041316 135.997787,272.951184 135.356742,273.946263 C135.304053,274.012308 135.268927,274.065144 135.242583,274.104771 C133.025268,277.437845 131.721224,281.453385 131.721224,285.755121 L131.721224,285.847584 C131.721224,297.431889 141.082243,306.823498 152.625452,306.823498 L153.88998,306.823498 C161.3103,306.823498 170.460565,307.673278 175.927014,312.705912 C186.671111,322.617075 186.372542,340.532901 170.030274,348.995476 C168.348627,349.871674 166.118141,351.073694 161.569352,351.725339 C161.00734,351.778175 160.436546,351.831011 159.900878,351.949892 C159.861362,351.949892 159.835017,351.963101 159.795501,351.963101 L159.742812,351.963101 C149.846124,353.623033 142.320427,362.239713 142.320427,372.635207 L142.320427,372.72767 C142.320427,384.303169 151.685837,393.690375 163.237827,393.690375 L901.858269,393.690375 C913.41465,393.690375 922.775669,384.303169 922.775669,372.72767 L922.775669,372.635207 C922.775669,361.050902 913.41465,351.663696 901.858269,351.663696 L890.92098,351.663696 C886.135093,351.192575 881.217485,350.038988 878.714773,348.995476 C861.749023,341.893429 862.087108,322.617075 872.818033,312.705912 C878.284482,307.673278 887.439138,306.823498 894.859458,306.823498 L959.170365,306.823498 C970.726745,306.823498 980.087765,297.431889 980.087765,285.847584 L980.087765,285.755121 C980.087765,274.677161 971.508294,265.58936 960.632475,264.845252" id="Fill-7" fill="#DCE6F9" mask="url(#mask-4)"></path>
                        </g>
                        <path d="M815.063792,479.358792 L332.721017,479.358792 C321.182199,479.358792 311.82118,488.745997 311.82118,500.334706 L311.82118,500.427169 C311.82118,512.011474 321.182199,521.398679 332.721017,521.398679 L815.063792,521.398679 C826.615782,521.398679 835.981192,512.011474 835.981192,500.427169 L835.981192,500.334706 C835.981192,488.745997 826.615782,479.358792 815.063792,479.358792" id="Fill-10" fill="#DCE6F9"></path>
                        <path d="M320.699659,42.6080363 L803.029262,42.6080363 C814.581252,42.6080363 823.942271,33.2208306 823.942271,21.6321225 L823.942271,21.5528685 C823.942271,9.96856342 814.581252,0.581357661 803.029262,0.581357661 L320.699659,0.581357661 C309.147669,0.581357661 299.782259,9.96856342 299.782259,21.5528685 L299.782259,21.6321225 C299.782259,33.2208306 309.147669,42.6080363 320.699659,42.6080363" id="Fill-12" fill="#DCE6F9"></path>
                        <path d="M273.480516,476.83499 C261.116243,476.83499 251.105396,486.891452 251.105396,499.28591 C251.105396,511.671562 261.116243,521.728024 273.480516,521.728024 C285.84479,521.728024 295.855636,511.671562 295.855636,499.28591 C295.855636,486.891452 285.84479,476.83499 273.480516,476.83499" id="Fill-14" fill="#DCE6F9"></path>
                    </g>
                    <path d="M67.5084214,212.378668 L89.4871168,213.834366 L79.3174105,193.350623 L67.5084214,212.378668 Z M93.8995563,219.503448 C93.8424231,219.503448 93.7852899,219.503448 93.7281568,219.498927 L62.7619725,217.446484 C61.8390519,217.383193 61.0172131,216.827135 60.5997014,215.981745 C60.1821896,215.131835 60.2305331,214.123697 60.7271523,213.323515 L77.3704875,186.510653 C77.8715015,185.69691 78.7592633,185.226746 79.6953685,185.271954 C80.6314737,185.321683 81.470892,185.877742 81.8927985,186.732173 L96.2200424,215.597477 C96.6507387,216.456429 96.5936055,217.487172 96.0794069,218.291874 C95.5915774,219.051368 94.7741335,219.503448 93.8995563,219.503448 Z" id="Fill-20" fill="#607FB9"></path>
                    <path d="M169.880883,454.469052 L182.136428,455.325019 L176.465824,443.29496 L169.880883,454.469052 Z M186.446259,461.158621 C186.390455,461.158621 186.33465,461.153969 186.278846,461.153969 L165.244809,459.683938 C164.343351,459.61881 163.540623,459.046615 163.132821,458.176692 C162.725018,457.302117 162.772237,456.264722 163.257308,455.441319 L174.564175,436.251839 C175.053539,435.419132 175.929241,434.939977 176.834993,434.981845 C177.745037,435.028365 178.564935,435.60056 178.981323,436.484439 L188.717077,457.139297 C189.133465,458.023176 189.07766,459.079179 188.575419,459.911886 C188.103226,460.693421 187.300499,461.158621 186.446259,461.158621 Z" id="Fill-24" fill="#E76260"></path>
                    <path d="M138.823776,60.2565728 L150.637714,70.3873747 L160.752944,58.5552495 L148.939006,48.4244477 L138.823776,60.2565728 Z M150.91584,76.5241379 C150.329636,76.5241379 149.743432,76.3227218 149.264199,75.9113187 L133.586448,62.4678646 C132.521012,61.5550639 132.396925,59.9480205 133.308322,58.8766582 L146.731113,43.1790579 C147.646789,42.111981 149.251363,41.987703 150.316799,42.9005037 L165.990271,56.3439577 C167.055708,57.2567584 167.179795,58.8638019 166.268397,59.9351642 L152.845607,75.6327645 C152.34498,76.219871 151.63041,76.5241379 150.91584,76.5241379 Z" id="Fill-26" fill="#E76260"></path>
                    <path d="M290.529101,562.749536 C286.034765,562.749536 282.381305,566.408831 282.381305,570.910345 C282.381305,575.411859 286.034765,579.071154 290.529101,579.071154 C295.023436,579.071154 298.676897,575.411859 298.676897,570.910345 C298.676897,566.408831 295.023436,562.749536 290.529101,562.749536 M290.529101,584 C283.321594,584 277.460317,578.129362 277.460317,570.910345 C277.460317,563.691327 283.321594,557.82069 290.529101,557.82069 C297.736607,557.82069 303.597884,563.691327 303.597884,570.910345 C303.597884,578.129362 297.736607,584 290.529101,584" id="Fill-32" fill="#607FB9"></path>
                    <path d="M88.2815498,360.46731 C88.2683239,360.46731 88.2506893,360.46731 88.2374634,360.46731 C87.4747687,360.453929 86.7561604,360.106017 86.2712101,359.512782 L79.0234063,350.721314 C78.0931833,349.59729 78.243077,347.924637 79.3540543,346.98795 C80.4650315,346.051264 82.1182714,346.202918 83.0440857,347.326942 L88.3476794,353.763313 L94.0789111,347.260035 C94.5726788,346.702484 95.2780611,346.376874 96.014304,346.372414 C96.7946332,346.412557 97.4647465,346.680182 97.9629228,347.233273 L103.570713,353.415401 L109.760443,347.148525 C110.280662,346.626657 110.999271,346.341191 111.722288,346.376874 C112.454122,346.408097 113.14187,346.747088 113.613594,347.31356 L119.084716,353.865903 L125.459609,347.184208 C125.979829,346.635578 126.72048,346.33227 127.46554,346.376874 C128.219418,346.412557 128.920391,346.773851 129.387707,347.371546 L136.146152,355.931073 C137.049923,357.077398 136.86476,358.745592 135.736148,359.655515 C134.603128,360.569899 132.954297,360.382562 132.054934,359.240697 L127.156935,353.031806 L120.839355,359.655515 C120.323544,360.195225 119.631387,360.494072 118.864284,360.46731 C118.128041,360.440547 117.431476,360.101556 116.950934,359.526163 L111.448952,352.933677 L105.338577,359.120266 C104.835992,359.628753 104.16147,359.918679 103.429636,359.896377 C102.715436,359.878536 102.040915,359.570767 101.555964,359.035518 L96.062799,352.973821 L90.2345772,359.579688 C89.7364009,360.14616 89.0266099,360.46731 88.2815498,360.46731" id="Fill-38" fill="#F4A63F"></path>
                </g>
            </g>
        </g>
    </g>
</svg>