<?xml version="1.0" encoding="utf-8"?>
<!-- Generator: Adobe Illustrator 18.0.0, SVG Export Plug-In . SVG Version: 6.00 Build 0)  -->
<!DOCTYPE svg PUBLIC "-//W3C//DTD SVG 1.1//EN" "http://www.w3.org/Graphics/SVG/1.1/DTD/svg11.dtd">
<svg version="1.1" id="Capa_1" xmlns="http://www.w3.org/2000/svg" xmlns:xlink="http://www.w3.org/1999/xlink" x="0px" y="0px"
	 viewBox="0 0 600 600" enable-background="new 0 0 600 600" xml:space="preserve">
<g>
	<g>
		<path fill="#603016" d="M274.7,59.5c16.5-9.1,41.9-8.5,59.3-3.1c9.8,3.1,18.5,9.9,26.7,16c17.6,13.3,22.1,39.2,23.9,60
			c1.9,21.8-0.1,42.3,1.4,64.1c1,13.7,4,43.8-15.3,46.5c0.1-1.3,0.7-2.3,0.9-3.5c-3.6,16.7-22.9,19.1-36.5,17.1
			c-8.4-1.2-12.4-8.4-21.5-10.3c-6.7-1.7-7,1.1-12.9,3.1c-2.8,1.1-5.6,0-8.4,0.6c-7.7,1.7-16,6.6-24.4,6.6
			c-4.1,0-28.5-5.3-28.7-10.8c0.1,1.9-0.6,4.2-0.4,6.1c-7.2-2-12-13.8-8.8-20.1c-2.7,17-13-7-13.6-12.9c-1.1-10.7,2.4-20.9,3.8-30.8
			c4.1-28.8-7-66,5.3-92.4c7.8-16.8,30.3-33.8,47.3-35.8C272.8,59.9,272.7,60.6,274.7,59.5z"/>
	</g>
	<g>
		<path fill="#E29F8F" d="M307.3,219.6c0,0-0.8-12.4,0-14.3c0,0,16.5-0.5,29.2-8c5.8-3.4,10.4-7.5,18.5-19.3c1.3-1.9,7.7,1.9,13.8-2
			c14.9-9.6,10-25.3-7.2-24.2c0.6-9,2.2-18,3.9-27v-10.7c-3.3-13.5-9.4-29.2-20.5-38.8c-12.7-10.6-29.4-15.8-46.1-15.5l-6.8,0.2
			c-7,0.5-14,2-20.5,4.5l-4.3,1.8c-5.2,2.4-10,5.4-14.4,9c-11.1,9.6-17.1,25.3-20.5,38.8v10.7c1.7,9,3.3,18,3.9,27
			c-17.1-1.1-22.1,14.6-7.2,24.2c6.1,3.9,12.5,0.1,13.8,2c8.1,11.8,12.7,15.9,18.5,19.3c12.7,7.4,29.2,8,29.2,8
			c0.9,1.9,0,14.3,0,14.3c-4.1,3.4-6.8,3.8-8.7,4.9c0,0-3.9,18.4,18.7,18.4c23.5,0,13.3-16.2,14.8-19.1
			C315.5,223.8,311.4,223.1,307.3,219.6z"/>
	</g>
	<g>
		<path fill="#C04949" d="M317.6,172.4c1.8-0.1-6.5,5.4-18.6,5.4c-8,0-13.5-2.2-17.2-4.7C299.3,173.8,298.9,173.9,317.6,172.4z"/>
	</g>
	<g opacity="0.65">
		<g>
			<path fill="#E1B09F" d="M237.7,167.1c-0.6-4.8-4.7-10.8-8.7-8.3c-1.1,0.7-1.3,2.6-1.4,3.8c-0.2,3.7,1.4,8.4,5.3,9.5
				C237,173.2,238.2,170.5,237.7,167.1z"/>
		</g>
	</g>
	<g opacity="0.65">
		<g>
			<path fill="#E1B09F" d="M360.2,167.1c0.6-4.8,4.7-10.8,8.7-8.3c1.1,0.7,1.3,2.6,1.4,3.8c0.2,3.7-1.4,8.4-5.3,9.5
				C360.9,173.2,359.7,170.5,360.2,167.1z"/>
		</g>
	</g>
	<g>
		<path fill="#832819" d="M272.8,113c0,0,0-0.2,0-0.5c0-0.2,0-0.3,0-0.5c0-0.2,0-0.4,0.2-0.7c0.1-0.3,0.3-0.5,0.4-0.8
			c0.2-0.3,0.4-0.5,0.7-0.7c0.3-0.2,0.5-0.5,0.8-0.6c0.3-0.2,0.6-0.3,1-0.5c0.3-0.1,0.7-0.2,1-0.3c0.3-0.1,0.7-0.1,1-0.1
			c0.6,0,1.3,0.1,1.7,0.2c0.5,0.1,0.9,0.4,1.1,0.5c0.3,0.2,0.4,0.3,0.4,0.3s-0.2,0.1-0.5,0.1c-0.3,0.1-0.7,0.1-1.1,0.2
			c-0.2,0.1-0.5,0.1-0.7,0.2c-0.2,0-0.5,0.2-0.8,0.2c-0.5,0.1-1,0.3-1.6,0.5c-0.3,0.1-0.5,0.2-0.7,0.3c-0.3,0.1-0.5,0.2-0.7,0.3
			c-0.2,0.1-0.5,0.2-0.6,0.4c-0.2,0.1-0.3,0.2-0.5,0.4c-0.2,0.1-0.4,0.3-0.5,0.4c-0.1,0.2-0.3,0.3-0.4,0.4
			C272.9,112.9,272.8,113,272.8,113z"/>
	</g>
	<g>
		<path fill="#A15B48" d="M298.7,129.5c0,0-0.2,0.7-0.5,1.9c-0.2,0.6-0.3,1.3-0.4,2.2c-0.1,0.8-0.1,1.8-0.1,2.8c0,1,0.1,2.1,0.3,3.3
			c0.2,1.1,0.5,2.4,1,3.5c0.4,1.2,1,2.3,1.8,3.4c0.7,1.1,1.6,2.1,2.6,2.9c0.9,0.9,2.2,1.6,3.3,2.5c0.6,0.5,1.1,1,1.6,1.6
			c0.5,0.7,0.8,1.5,0.8,2.4c0,0.9-0.3,1.6-0.6,2.3c-0.4,0.6-0.7,1.1-1.2,1.7c-1,1.1-2.3,1.4-3.4,1.5c-2.2,0.2-4-0.4-5.1-1
			c-0.6-0.3-0.9-0.6-1.2-0.9c-0.2-0.2-0.3-0.4-0.3-0.4s0.1,0.1,0.4,0.3c0.3,0.2,0.7,0.4,1.3,0.6c1.1,0.4,2.9,0.6,4.8,0.2
			c0.9-0.2,1.9-0.6,2.5-1.4c0.6-0.8,1.3-2,1.2-2.9c0-0.9-0.8-1.8-1.9-2.5c-1-0.8-2.2-1.5-3.4-2.5c-1.1-1-2.1-2.1-2.9-3.4
			c-0.8-1.2-1.4-2.6-1.8-3.9c-0.5-1.3-0.7-2.7-0.8-3.9c-0.1-1.3-0.1-2.5,0-3.6c0.1-1.1,0.3-2.1,0.6-2.9c0.2-0.8,0.5-1.6,0.8-2.2
			c0.2-0.6,0.5-1,0.7-1.3C298.6,129.6,298.7,129.5,298.7,129.5z"/>
	</g>
	<g opacity="0.6">
		<g>
			<path fill="#F7B9CE" d="M257.1,159c2.4,1.3,9.4,2.3,9.4-2c0-4.3-7.3-4.6-9.9-3.4C253,155.2,254,157.4,257.1,159z"/>
		</g>
	</g>
	<g>
		<path fill="#603016" d="M238.5,136.6c13.9-21.2,22-35.1,39-55.1c12.9,11.5,29.5,20.9,47,21.9c4.3,0.3,9.9,0,14.1-0.9
			c0.1,2,1.3,3.6,2.3,5.3c2.5,4,5.5,8.1,8.6,12c2.9,3.6,6.9,7.4,9,11.6c3.8,8,0,17.1,1.7,25.3c10.2-12.9,9.6-39.6,4-57
			c-4.7-15.6-19.6-31.5-34.6-37.8c-11.7-4.5-31.1-4.4-43.1-2.9c-8.7,0.9-38.7,14.2-42.9,20.2c0,0-12.1,17.4-14.8,34.3
			c-1.1,7.2,3.1,34.7,5.4,43.2c0,0,1.4,5.1,2.2,1.6C237.2,154.8,238.5,136.6,238.5,136.6z"/>
	</g>
	<g>
		<g>
			<path d="M278.7,148.5c3.2-0.2,3.3-4.7,2.8-7c-0.3-1.2-0.9-2.8-2-3.4c-1.3-0.7-3,0.1-3.6,1.3C274.8,142,274.6,148.7,278.7,148.5z"
				/>
		</g>
	</g>
	<g>
		<path fill="#832819" d="M322.7,113c0,0-0.1-0.1-0.3-0.3c-0.1-0.1-0.2-0.2-0.4-0.4c-0.1-0.2-0.3-0.3-0.5-0.4
			c-0.2-0.1-0.4-0.2-0.5-0.4c-0.2-0.1-0.4-0.2-0.6-0.4c-0.2-0.1-0.4-0.2-0.7-0.3c-0.2-0.1-0.5-0.2-0.7-0.3c-0.5-0.2-1-0.4-1.6-0.5
			c-0.3,0-0.5-0.2-0.8-0.2c-0.2,0-0.5-0.1-0.7-0.2c-0.5-0.1-0.8-0.1-1.1-0.2c-0.3-0.1-0.5-0.1-0.5-0.1s0.1-0.1,0.4-0.3
			c0.3-0.1,0.6-0.4,1.1-0.5c0.5-0.1,1.1-0.3,1.7-0.2c0.3,0,0.7,0,1,0.1c0.3,0.1,0.7,0.2,1,0.3c0.3,0.1,0.6,0.3,1,0.5
			c0.3,0.1,0.6,0.4,0.8,0.6c0.3,0.2,0.5,0.4,0.7,0.7c0.2,0.3,0.3,0.6,0.4,0.8c0.1,0.3,0.2,0.5,0.2,0.7c0,0.2,0,0.4,0,0.5
			C322.7,112.8,322.7,113,322.7,113z"/>
	</g>
	<g opacity="0.6">
		<g>
			<path fill="#F7B9CE" d="M339.3,159c-2.4,1.3-9.4,2.3-9.4-2c0-4.3,7.3-4.6,9.9-3.4C343.4,155.2,342.4,157.4,339.3,159z"/>
		</g>
	</g>
	<g>
		<g>
			<path d="M317.3,148.5c-3.2-0.2-3.3-4.8-2.7-7.1c0.3-1.2,0.9-2.7,2.1-3.3c1.3-0.6,3,0.1,3.5,1.4
				C321.3,142,321.4,148.8,317.3,148.5z"/>
		</g>
	</g>
	<g>
		<path fill="#E0AF6B" d="M232.7,138c0.1,1.5,3-63.9,66.3-64.7c62.9-0.8,66.7,51.3,69.1,76.5c0,0,12.5-94.9-69.1-89.9
			C222.2,64.7,232.2,123.1,232.7,138z"/>
	</g>
	<g>
		<path fill="#E29F8F" d="M292.2,397.6c-3.5-10.2-13.7-20.6-24.1-13.3c-13.4,9.4-10.8,44.8-10.1,59.6c0.5,11.6,2.7,23.5,4.4,35
			c1.3,9.1-1.2,24.4,4.2,32.2c4.3,6.3,16.4,8.3,22.2,3c7-6.4,5.1-16.2,4.4-24.5c-1.3-15.7-2.7-31.7-1.7-48.5
			C292.3,426.7,297.3,412.3,292.2,397.6z"/>
	</g>
	<g>
		<path fill="#E29F8F" d="M311.6,443.2c-0.2-9.9-2-19.5-3.2-29.5c-1-9.3,1.1-17.2,7.8-24.2c5.2-5.4,15.2-10.2,22.3-5.1
			c8.3,5.8,8.2,19,8.2,28.1c-0.1,11.3,0.8,21.9,0.2,33.2c-0.7,14.1-3,27.5-3.8,41.6c-0.4,6.6,2,17.1-1.8,22.9
			c-4.4,6.8-17.5,9.6-23.5,4.2c-5.3-4.8-3.7-12.1-4-18.7C313.1,478.2,311.9,460.3,311.6,443.2z"/>
	</g>
	<g>
		<path fill="#FFFFFF" d="M264.8,496.1c0.3,0.2,0.5,0.4,0.7,0.5c2.3,1.8,4.1,2.3,7,2.6c5,0.5,10.2-0.6,14.7-2.7
			c2.3-1.1,9.9-7.4,8.6-0.6c-0.4,2.1-1.8,3.9-2.3,5.9c-0.6,2.2,0.1,3.2-2.1,4.7c-3.2,2.2-7,4.5-10.9,5.3c-4.7,1-13.4,0.7-17.1-3.1
			c-2.3-2.3-1.1-5.7-1.6-8.4c-0.3-1.8-4-4-2.2-6C261,493,263.4,494.9,264.8,496.1z"/>
	</g>
	<g>
		<path fill="#9CC680" d="M294.1,500.1c-0.7,4.8-6.4,6.8-10.4,7.9c-6.8,1.8-20.8,1.7-21.9-7.9c-2.5,2.7-4.2,6.3-6,9.5
			c-1.9,3.4-3.9,6.8-5.5,10.4c-1.9,4-3.8,7.7-3.2,12.2c0.3,2.1-0.2,5,1.1,6.8c1,1.4,3.8,2.6,5.4,3.1c8.2,2.4,16.7,2.6,25.1,1.5
			c2.9-0.4,6-0.1,8.5-2c2-1.6,3.5-3.4,4.4-5.6c3.1-7.5,7.8-18.8,5.5-27.1C296.4,506.6,296.4,501.4,294.1,500.1z"/>
	</g>
	<path fill="#D4D4D4" d="M247.3,536.3c0,0,2.4,4.9,17.7,5.1c15.3,0.2,21.2-1,23.8-3.8c3.6-3.7,8.2-20.6,8.8-26.3c0,0,0.5,5.7,0,8.4
		c-0.5,2.8-3.7,22.6-9.2,24.8c-5.5,2.2-14.7,3.4-23.1,2.8c-8.4-0.6-16.5-3.4-17.6-5.8C246.6,539.1,246.7,537,247.3,536.3z"/>
	<g>
		<path fill="#FFFFFF" d="M341.5,496.1c-0.3,0.2-0.5,0.4-0.7,0.5c-2.3,1.8-4.1,2.3-7,2.6c-5,0.5-10.2-0.6-14.7-2.7
			c-2.3-1.1-9.9-7.4-8.6-0.6c0.4,2.1,1.8,3.9,2.3,5.9c0.6,2.2-0.1,3.2,2.1,4.7c3.2,2.2,7,4.5,10.9,5.3c4.7,1,13.4,0.7,17.1-3.1
			c2.3-2.3,1.1-5.7,1.6-8.4c0.3-1.8,4-4,2.2-6C345.3,493,342.9,494.9,341.5,496.1z"/>
	</g>
	<g>
		<path fill="#9CC680" d="M312.2,500.4c0.7,4.8,6.4,6.8,10.4,7.9c6.8,1.8,20.8,1.7,21.9-7.9c2.5,2.7,4.2,6.3,6,9.5
			c1.9,3.4,3.9,6.8,5.5,10.4c1.9,4,3.8,7.7,3.2,12.2c-0.3,2.1,0.2,5-1.1,6.8c-1,1.4-3.8,2.6-5.4,3.1c-8.2,2.4-16.7,2.6-25.1,1.5
			c-2.9-0.4-6-0.1-8.5-2c-2-1.6-3.5-3.4-4.4-5.6c-3.1-7.5-7.8-18.8-5.5-27.1C309.9,506.9,309.9,501.7,312.2,500.4z"/>
	</g>
	<path fill="#D4D4D4" d="M359,536.3c0,0-2.4,4.9-17.7,5.1c-15.3,0.2-21.2-1-23.8-3.8c-3.6-3.7-8.2-20.6-8.8-26.3c0,0-0.5,5.7,0,8.4
		c0.5,2.8,3.7,22.6,9.2,24.8c5.5,2.2,14.7,3.4,23.1,2.8c8.4-0.6,16.5-3.4,17.6-5.8C359.7,539.1,359.6,537,359,536.3z"/>
	<g>
		<path fill="#D4D4D4" d="M259.3,513.4c-1.1,0.6-0.8,5.5,0.4,5.2c3.6-0.9,8.5-1.6,13-1.1c-4.6-0.3-9.1,0.1-13.7,2.7
			c-0.7,0.4-0.5,3.4,0.2,3.1c4.2-1.4,8.2-1.6,12.6-1c4.6,0.6,8.8,2.7,13.4,3.3c1.9,0.2,1.2-5,0.9-5.8c-0.8-1.8-1.9-3.2-3.2-4.3
			c1.8,0.6,3.4,1.6,4.4,3.1c1.4,2,2.3-4.3,1.2-5.8C282.5,504.7,266.6,509.8,259.3,513.4z"/>
		<path fill="#D4D4D4" d="M347.2,520.2c-4.5-2.5-8.8-2.9-13.2-2.7c4.5-0.4,9.2,0.2,12.6,1.1c1.2,0.3,1.3-4.6,0.2-5.2
			c-7.3-3.6-23.2-8.6-29.1-0.5c-1.1,1.5,0.1,7.8,1.5,5.7c1-1.4,2.4-2.4,4.1-3c-1.3,1.1-2.4,2.5-3.2,4.3c-0.4,0.9-0.8,6,1.1,5.8
			c3.9-0.5,7.5-2.4,11.5-3c4.9-0.8,9.4-0.9,14.2,0.7C348,523.6,348,520.6,347.2,520.2z"/>
	</g>
	<g>
		<path fill="#E29F8F" d="M274.5,228.1c5.5,9.3,5.2,23.3,0.6,32.7c-1.8,3.6-5.2,10.2-9.8,10.5c-8.5,0.5-5.5-12.8-4.2-20
			C262.3,244.1,271.2,222.5,274.5,228.1z"/>
	</g>
	<g>
		<path fill="#E29F8F" d="M324.3,227.8c-5.5,9.3-5.8,24.7-1.2,34.1c1.8,3.6,5.2,10.5,9.8,10.5c8.4,0,5.5-12.8,4.2-20
			C335.9,245.3,327.6,222.3,324.3,227.8z"/>
	</g>
	<g>
		<path fill="#9CC680" d="M356.3,370c-0.6-2.3-1.2-4.6-2-6.8c-3.8-10.4-6-22.5-7.1-33.6c-1.4-14.5-4-28.8-5.7-43.3
			c-0.4-3.2-4-21.4-2.6-22.8c-2.6,2.5-6,2.2-8.4-0.3c-7.6-7.9-6.3-26.2-4.1-36c-3.4-1.2-8.1-4.4-11.7-3.8c0.4,3.1,2.3,7,0.8,10.1
			c-0.9,2-2.8,3.4-4.6,4.3c-6.1,3.3-12.3,4.2-19.1,2.5c-8-2-8.8-9.1-7.5-17c-4.1-0.3-9,2.2-12.3,4.4c7.7,9.3,5,29.6-3.7,37.3
			c-2.6,2.3-5.4,2.9-8.6,1.3c1.1,0.5-1.9,35.4-2,38.5c-0.3,14.2-1.1,28.4-3.6,42.4c-3.5,19.9-1.1,41.9-8.3,60.9
			c-2.5,6.8-5.3,12.1,3.9,15.4c9.5,3.4,21.1-1.5,30.8-2.2c11.7-0.8,23.4-1.4,34.5,3.3c16.3,6.8,32.3-3.1,47.5-9.2
			c2-0.8,4.1-1.6,6.1-2.5c-1.3-7.7-5-14.4-7.4-21.7C358.9,384.3,358,377.1,356.3,370z"/>
	</g>
	<g>
		<path fill="#E29F8F" d="M366.6,289.2c-0.1-0.2-0.2-0.4-0.3-0.6c-6.3-14-11.9-29.1-20-42c-1.8-2.9-17.4-23.5-18.9-14
			c-3,17.9,5.7,30.9,9.6,42.2c9.1,25.9,30.2,51.6,26.1,80.7c-0.5,3.8-1.7,8.3-2.8,12c-0.9,2.8-5.6,6.9-4.4,10.1
			c2,5.3,9.2,0,10.7-2.9c1-2,1.5-4.9,3.4-6.3c2.3-1.6,3.8,1.3,5.2,2.6c2.5,2.3,4.9,4.5,7.2,7.1c1.4,1.6,2.9,3.6,5,4.4
			c2.4,1,4.6-0.9,5.1-3.1c0.7-2.9-1.2-4.7-3.1-6.5c-2.5-2.3-5.3-4.7-7.6-7.2c3.5,2.8,7.6,5.3,10.7,8.5c1.9,2,3.9,4.1,6.7,2
			c1.2-1,2.8-2.9,2.3-4.6c-0.7-2.1-3.6-3.9-5.2-5.2c-3.4-2.6-6.9-5-10.4-7.5c2.5,1.7,5.8,3.4,8.5,4.7c2.9,1.3,7.4,4.5,9.5,0.3
			c1.6-3.2-1.5-4.2-4-5.2c-3.1-1.3-6.7-3-10-3.7c2.5-0.4,5,0.2,7.5-0.3c6.1-1.1,2.1-6.2-2.6-5.5c-5.1,0.8-9.3,0.5-14.5,0.4
			c0.1-5.1,0.1-9.9-0.4-15C378.5,319.1,372.9,303.4,366.6,289.2z"/>
	</g>
	<g>
		<path fill="#E29F8F" d="M242,320.7c6-15.8,15.2-30.1,20.8-46c4-11.2,12.6-24.3,9.6-42.2c-1.6-9.5-17.1,11.1-18.9,14
			c-8.1,12.9-13.7,28-20,42c-0.1,0.2-0.2,0.4-0.3,0.6c-6.3,14.2-12,29.8-13.3,45.5c-0.4,4.6-2,13.1-1.9,20.1c-0.5,0.1-1,0.1-1.5,0.2
			c-5.6,1-11.3,2.6-15.6,4.5c-1.7,0.8-3.3,1.9-5,2.7c-1,3.3,0.1,6.9,3.9,5.6c-3.4,2.6-2.2,10.6,2.9,7.9c-0.8,0.4-0.7,2.6-0.4,3.3
			c0.4,0.8,1.2,1.6,2,2c1.4,0.7,3.7,0.7,4.9-0.4c-0.8,1.9,1.1,3.4,2.7,3.9c1.7,0.5,4.4-0.3,5.7-1.5c4.2-3.7,7.5-13,14.5-10
			c4.2,1.7,5.5,8.4,11.1,6c6.7-2.8-2.7-9.3-5.6-11.3c0.8,0.6,0.7-8.4-0.1-9.6c-0.4-0.6-0.8-1.1-1.3-1.6c-0.6-3.8-1.1-7.6-0.5-11.6
			C237.1,336.6,239.1,328.6,242,320.7z"/>
	</g>
</g>
</svg>
