<?xml version="1.0" encoding="utf-8"?>
<!-- Generator: Adobe Illustrator 18.0.0, SVG Export Plug-In . SVG Version: 6.00 Build 0)  -->
<!DOCTYPE svg PUBLIC "-//W3C//DTD SVG 1.1//EN" "http://www.w3.org/Graphics/SVG/1.1/DTD/svg11.dtd">
<svg version="1.1" id="Capa_1" xmlns="http://www.w3.org/2000/svg" xmlns:xlink="http://www.w3.org/1999/xlink" x="0px" y="0px"
	 viewBox="0 0 600 600" enable-background="new 0 0 600 600" xml:space="preserve">
<g>
	<defs>
		<rect id="SVGID_1_" width="600" height="603.3"/>
	</defs>
	<clipPath id="SVGID_2_">
		<use xlink:href="#SVGID_1_"  overflow="visible"/>
	</clipPath>
	<g clip-path="url(#SVGID_2_)">
		<g>
			<path fill="#603016" d="M226.6,221.6c22.9-12.7,58.4-11.8,82.5-4.3c13.7,4.3,25.8,13.7,37.1,22.3c24.5,18.5,30.7,54.6,33.2,83.4
				c2.6,30.3-0.2,58.8,1.9,89.2c1.3,19,5.5,61-21.3,64.7c0.1-1.8,0.9-3.2,1.3-4.9c-5,23.3-31.9,26.6-50.8,23.8
				c-11.7-1.7-17.2-11.7-29.9-14.3c-9.3-2.4-9.7,1.6-17.9,4.4c-3.9,1.6-7.8,0-11.7,0.8c-10.7,2.4-22.3,9.2-34,9.2
				c-5.7,0-39.7-7.3-39.9-15.1c0.1,2.6-0.8,5.9-0.6,8.4c-10.1-2.7-16.6-19.2-12.2-28c-3.8,23.7-18.1-9.7-18.9-17.9
				c-1.5-14.8,3.3-29.1,5.3-42.8c5.7-40.1-9.8-91.9,7.3-128.6c10.9-23.3,42.1-47,65.8-49.8C224,222.2,223.8,223.2,226.6,221.6z"/>
		</g>
		<g>
			<path fill="#E29F8F" d="M382.5,481.9c-0.3-0.1-0.6-0.2-0.8-0.4c-19.7-8.2-39.8-18.2-60.3-23.6c-4.6-1.2-40-7.4-32.6,3.8
				c14,21,35.2,26,50,33.6c34,17.6,79.8,23.7,103.4,57c3.1,4.4,6.2,10,8.6,14.9c1.8,3.7,0.8,12.3,5.1,14.5c7,3.5,9.3-8.7,8.1-13.1
				c-0.9-3-3.2-6.5-2.5-9.7c0.7-3.8,5.2-2.3,7.8-2.3c4.7,0,9.3-0.1,14.1,0.4c3,0.3,6.3,0.8,9.3-0.2c3.4-1.3,3.8-5.2,2.2-8.1
				c-2-3.6-5.7-3.6-9.3-3.6c-4.7,0-9.8,0.3-14.5-0.1c6.2-0.5,12.7-1.8,18.9-1.6c3.9,0.1,7.9,0.5,8.7-4.3c0.3-2.1,0.1-5.6-2.1-6.8
				c-2.7-1.5-7.4-0.5-10.2-0.3c-5.9,0.6-11.8,1.5-17.7,2.3c4.1-0.6,9.1-2,13.1-3.4c4.2-1.4,11.7-2.5,10-8.8c-1.4-4.8-5.6-2.8-9-1.5
				c-4.4,1.7-9.6,3.3-13.6,5.8c2.1-2.8,5.3-4.6,7.3-7.4c5.1-6.9-3.8-8.3-7.8-3c-4.4,5.7-9,9.4-14.4,14.2
				c-4.7-5.3-9.4-10.1-14.7-14.9C423.1,500.8,402.5,490.2,382.5,481.9z"/>
		</g>
		<g>
			<path fill="#E29F8F" d="M272,444.4c0,0-1.2-17.3,0-19.9c0,0,22.9-0.8,40.6-11.1c8.1-4.7,14.5-10.4,25.7-26.8
				c1.8-2.6,10.7,2.7,19.2-2.8c20.8-13.3,13.9-35.2-10-33.6c0.8-12.5,3.1-25,5.4-37.6v-14.9c-4.6-18.8-13.1-40.7-28.5-54
				c-17.7-14.7-40.9-22-64.1-21.6l-9.5,0.3c-9.8,0.7-19.4,2.8-28.5,6.3l-6,2.5c-7.2,3.3-13.9,7.5-20,12.5
				c-15.4,13.3-23.8,35.2-28.5,54v14.9c2.3,12.5,4.6,25,5.4,37.6c-23.9-1.6-30.8,20.3-10,33.6c8.5,5.5,17.4,0.2,19.2,2.8
				c11.2,16.4,17.7,22.1,25.7,26.8c17.7,10.3,40.6,11.1,40.6,11.1c1.2,2.6,0,19.9,0,19.9c-5.7,4.8-9.5,5.3-12.1,6.8
				c0,0-5.4,25.5,26.1,25.6c32.7,0,18.5-22.6,20.6-26.6C283.4,450.2,277.7,449.2,272,444.4z"/>
		</g>
		<g>
			<path fill="#C04949" d="M286.3,390.8c2.2,1-9-12.1-25.8-12.1c-11.1,0-18.2,8.9-24,11.1C258.2,381.5,266.4,381.5,286.3,390.8z"/>
		</g>
		<g opacity="0.65">
			<g>
				<path fill="#E1B09F" d="M175.2,371.3c-0.9-6.7-6.5-15-12.1-11.6c-1.6,1-1.8,3.6-1.9,5.3c-0.3,5.1,2,11.7,7.3,13.2
					C174.1,379.9,175.8,376,175.2,371.3z"/>
			</g>
		</g>
		<g opacity="0.65">
			<g>
				<path fill="#E1B09F" d="M345.6,371.3c0.9-6.7,6.5-15,12.1-11.6c1.6,1,1.8,3.6,1.9,5.3c0.3,5.1-2,11.7-7.3,13.2
					C346.7,379.9,344.9,376,345.6,371.3z"/>
			</g>
		</g>
		<g>
			<path fill="#832819" d="M224,326.2c0,0,0-0.2,0-0.7c0-0.2,0-0.5,0-0.7c0-0.3,0-0.6,0.2-1c0.2-0.4,0.4-0.8,0.6-1.2
				c0.3-0.4,0.6-0.7,0.9-1c0.4-0.3,0.7-0.7,1.2-0.9c0.4-0.2,0.9-0.5,1.3-0.7c0.5-0.1,1-0.2,1.4-0.4c0.5-0.2,0.9-0.1,1.4-0.1
				c0.9-0.1,1.7,0.1,2.4,0.3c0.7,0.1,1.2,0.6,1.6,0.7c0.4,0.2,0.5,0.4,0.5,0.4s-0.2,0.1-0.6,0.2c-0.4,0.1-0.9,0.1-1.6,0.3
				c-0.3,0.1-0.6,0.2-1,0.2c-0.3,0-0.7,0.2-1.1,0.3c-0.7,0.1-1.5,0.4-2.2,0.7c-0.4,0.1-0.7,0.3-1,0.4c-0.4,0.1-0.7,0.3-1,0.5
				c-0.3,0.2-0.7,0.3-0.9,0.5c-0.2,0.2-0.5,0.3-0.7,0.5c-0.3,0.1-0.5,0.4-0.7,0.6c-0.2,0.2-0.4,0.4-0.5,0.6
				C224.2,326.1,224,326.2,224,326.2z"/>
		</g>
		<g>
			<path fill="#A15B48" d="M260,318.9c0,0-0.3,0.9-0.8,2.6c-0.2,0.8-0.4,1.8-0.6,3c-0.1,1.2-0.2,2.5-0.2,3.9c0,1.4,0.2,3,0.4,4.6
				c0.3,1.6,0.7,3.3,1.4,4.9c0.6,1.6,1.4,3.3,2.5,4.8c1,1.5,2.2,2.9,3.6,4.1c1.3,1.2,3,2.2,4.6,3.5c0.8,0.6,1.6,1.3,2.3,2.3
				c0.7,0.9,1.1,2.1,1.1,3.4c0,1.2-0.4,2.3-0.9,3.1c-0.5,0.9-1,1.6-1.7,2.3c-1.4,1.5-3.3,1.9-4.8,2.1c-3.1,0.3-5.6-0.6-7.1-1.3
				c-0.8-0.4-1.3-0.9-1.6-1.2c-0.3-0.3-0.5-0.5-0.5-0.5s0.2,0.1,0.6,0.4c0.4,0.2,1,0.5,1.8,0.8c1.6,0.5,4,0.9,6.7,0.3
				c1.3-0.3,2.7-0.9,3.5-2c0.8-1.1,1.8-2.8,1.7-4c0-1.3-1.1-2.4-2.6-3.5c-1.4-1.1-3.1-2.1-4.7-3.5c-1.6-1.4-2.9-3-4-4.7
				c-1.1-1.7-1.9-3.6-2.5-5.4c-0.7-1.8-0.9-3.7-1.1-5.4c-0.2-1.8-0.1-3.4,0-4.9c0.1-1.5,0.4-2.9,0.8-4.1c0.3-1.2,0.7-2.2,1.1-3
				c0.3-0.8,0.7-1.4,0.9-1.8C259.9,319.2,260,318.9,260,318.9z"/>
		</g>
		<g opacity="0.6">
			<g>
				<path fill="#F7B9CE" d="M202.1,360.1c3.4,1.8,13.1,3.2,13.1-2.8c0-6-10.1-6.4-13.8-4.7C196.5,354.8,197.9,357.8,202.1,360.1z"/>
			</g>
		</g>
		<g>
			<path fill="#603016" d="M176.2,328.8c19.4-29.5,30.6-48.8,54.3-76.7c18,16,41.1,29,65.4,30.5c6,0.4,13.7,0,19.6-1.3
				c0.2,2.7,1.9,5.1,3.2,7.4c3.4,5.6,7.7,11.3,11.9,16.6c4,5.1,9.7,10.2,12.5,16.1c5.3,11.1,0.1,23.8,2.3,35.2
				c14.2-18,13.4-55.1,5.6-79.3c-6.6-21.8-27.2-43.9-48.2-52.6c-16.3-6.3-43.2-6.1-59.9-4.1c-12.1,1.2-53.8,19.8-59.6,28.1
				c0,0-16.9,24.3-20.6,47.7c-1.6,10,4.3,48.3,7.6,60.1c0,0,1.9,7.1,3.1,2.3C174.5,354.2,176.2,328.8,176.2,328.8z"/>
		</g>
		<g>
			<g>
				<path d="M232.3,345.4c4.4-0.2,4.6-5.1,3.9-7.5c-0.4-1.3-1.2-3-2.8-3.6c-1.8-0.7-4.2,0.1-5,1.4
					C226.8,338.4,226.5,345.7,232.3,345.4z"/>
			</g>
		</g>
		<g>
			<path fill="#832819" d="M293.4,326.2c0,0-0.2-0.2-0.5-0.5c-0.1-0.2-0.3-0.3-0.5-0.6c-0.2-0.2-0.4-0.5-0.7-0.6
				c-0.3-0.2-0.5-0.3-0.7-0.5c-0.2-0.2-0.6-0.3-0.9-0.5c-0.3-0.2-0.6-0.3-1-0.5c-0.3-0.1-0.7-0.3-1-0.4c-0.7-0.2-1.5-0.5-2.2-0.7
				c-0.4-0.1-0.7-0.2-1.1-0.3c-0.3,0-0.7-0.1-1-0.2c-0.6-0.2-1.2-0.2-1.6-0.3c-0.4-0.1-0.6-0.2-0.6-0.2s0.2-0.2,0.5-0.4
				c0.4-0.2,0.9-0.6,1.6-0.7c0.7-0.2,1.5-0.4,2.4-0.3c0.5,0,0.9,0,1.4,0.1c0.5,0.1,0.9,0.2,1.4,0.4c0.5,0.2,0.9,0.5,1.3,0.7
				c0.5,0.2,0.8,0.5,1.2,0.9c0.4,0.3,0.7,0.6,0.9,1c0.3,0.4,0.5,0.8,0.6,1.2c0.2,0.4,0.2,0.7,0.2,1c0,0.3,0,0.5,0,0.7
				C293.5,326,293.4,326.2,293.4,326.2z"/>
		</g>
		<g opacity="0.6">
			<g>
				<path fill="#F7B9CE" d="M316.6,360.1c-3.4,1.8-13.1,3.2-13.1-2.8c0-6,10.1-6.4,13.8-4.7C322.2,354.8,320.8,357.8,316.6,360.1z"
					/>
			</g>
		</g>
		<g>
			<g>
				<path d="M285.9,345.4c-4.4-0.2-4.5-5.1-3.8-7.6c0.4-1.3,1.2-3,2.9-3.6c1.8-0.7,4.2,0.1,4.9,1.5
					C291.5,338.5,291.7,345.7,285.9,345.4z"/>
			</g>
		</g>
		<g>
			<path fill="#E0AF6B" d="M168.2,330.8c0.1,2.1,4.2-89,92.2-90c87.5-1.1,92.8,71.4,96.1,106.4c0,0,17.4-132.1-96.1-125.1
				C153.5,228.8,167.4,310,168.2,330.8z"/>
		</g>
		<g>
			<path fill="#E29F8F" d="M226.3,456.2c7.7,12.9,7.2,32.4,0.9,45.5c-2.4,5-7.2,14.2-13.7,14.6c-11.8,0.8-7.6-17.8-5.9-27.8
				C209.4,478.5,221.7,448.5,226.3,456.2z"/>
		</g>
		<g>
			<path fill="#E29F8F" d="M295.6,455.8c-7.7,12.9-8,34.4-1.7,47.5c2.4,5,7.2,14.6,13.7,14.6c11.7,0,7.6-17.8,5.9-27.8
				C311.7,480.1,300.2,448.2,295.6,455.8z"/>
		</g>
		<g>
			<path fill="#9CC680" d="M340.2,653.7c-0.8-3.2-1.7-6.4-2.8-9.5c-5.3-14.5-8.4-31.4-9.9-46.7c-2-20.2-5.6-40-8-60.3
				c-0.5-4.5-5.6-29.8-3.6-31.7c-3.6,3.5-8.4,3-11.6-0.4c-10.5-10.9-8.8-36.5-5.7-50.1c-4.8-1.6-11.2-6.1-16.3-5.3
				c0.5,4.3,3.2,9.8,1.2,14c-1.3,2.7-3.9,4.7-6.5,6c-8.5,4.5-17.1,5.8-26.6,3.4c-11.1-2.8-12.3-12.7-10.5-23.6
				c-5.6-0.5-12.5,3.1-17.2,6.1c10.8,12.9,7,41.2-5.2,51.9c-3.6,3.2-7.5,4-11.9,1.9c1.5,0.7-2.6,49.3-2.7,53.6
				c-0.4,19.7-1.6,39.5-5,59c-4.9,27.7-1.6,58.3-11.5,84.8c-3.5,9.4-7.3,16.9,5.5,21.4c13.2,4.7,29.4-2,42.9-3
				c16.3-1.2,32.6-2,48,4.5c22.7,9.5,44.9-4.3,66.1-12.9c2.8-1.1,5.7-2.3,8.5-3.4c-1.8-10.7-7-20-10.3-30.1
				C343.8,673.5,342.6,663.5,340.2,653.7z"/>
		</g>
		<g>
			<path fill="#E29F8F" d="M181.2,585.1c8.4-21.9,21.2-41.9,29-64c5.5-15.6,17.6-33.8,13.4-58.7c-2.2-13.2-23.8,15.5-26.4,19.5
				c-11.3,18-19.1,39-27.8,58.5c-0.1,0.3-0.3,0.6-0.4,0.8c-8.8,19.7-16.6,41.5-18.5,63.3c-0.5,6.4-2.7,18.2-2.6,28
				c-0.7,0.1-1.3,0.2-2,0.3c-7.8,1.4-15.8,3.6-21.7,6.2c-2.4,1.1-4.6,2.6-6.9,3.7c-1.4,4.5,0.1,9.5,5.4,7.8
				c-4.7,3.6-3,14.7,4.1,11.1c-1.2,0.6-1,3.6-0.5,4.6c0.5,1.2,1.6,2.2,2.7,2.8c2,1,5.1,1,6.9-0.5c-1.1,2.6,1.5,4.8,3.7,5.5
				c2.4,0.7,6.1-0.5,7.9-2.1c5.9-5.2,10.4-18.1,20.2-14c5.8,2.4,7.7,11.6,15.5,8.4c9.4-4-3.8-12.9-7.8-15.7
				c1.1,0.8,0.9-11.7-0.2-13.4c-0.5-0.9-1.2-1.5-1.8-2.2c-0.8-5.3-1.5-10.6-0.7-16.1C174.3,607.2,177,596,181.2,585.1z"/>
		</g>
		
			<radialGradient id="SVGID_3_" cx="407.4551" cy="515.3981" r="21.3384" gradientTransform="matrix(0.9438 0.1706 -0.1641 0.6676 108.6865 97.2384)" gradientUnits="userSpaceOnUse">
			<stop  offset="0" style="stop-color:#C04949"/>
			<stop  offset="1" style="stop-color:#C65959;stop-opacity:0"/>
		</radialGradient>
		<path fill="url(#SVGID_3_)" d="M435.3,518.7c-1.9,6.4-15.4,8.1-30,3.8c-14.7-4.4-25-13.1-23.1-19.6c1.9-6.4,15.4-8.1,30-3.8
			C426.8,503.5,437.2,512.3,435.3,518.7z"/>
		
			<radialGradient id="SVGID_4_" cx="454.8503" cy="546.2701" r="16.6488" gradientTransform="matrix(0.9472 0.1595 -0.1855 0.7397 124.6034 66.3008)" gradientUnits="userSpaceOnUse">
			<stop  offset="0" style="stop-color:#C04949"/>
			<stop  offset="1" style="stop-color:#C65959;stop-opacity:0"/>
		</radialGradient>
		<path fill="url(#SVGID_4_)" d="M474.8,549.1c-1.7,5.6-12.3,7.3-23.7,3.9c-11.4-3.4-19.4-10.7-17.7-16.3c1.7-5.6,12.3-7.3,23.7-3.9
			C468.5,536.2,476.4,543.5,474.8,549.1z"/>
	</g>
	<g clip-path="url(#SVGID_2_)">
		<g>
			<g>
				<circle fill="#FFFFFF" cx="121" cy="117.8" r="55.8"/>
				<path fill="#FEA739" d="M121,178.7C121,178.7,121,178.7,121,178.7L121,178.7L121,178.7c-33.6,0-60.8-27.3-60.8-60.8
					C60.2,84.3,87.5,57,121,57c33.5,0,60.8,27.3,60.8,60.8c0,16.3-6.3,31.5-17.8,43C152.6,172.3,137.3,178.7,121,178.7z M121,67
					c-28,0-50.8,22.8-50.8,50.8c0,28,22.8,50.8,50.8,50.8l0,0c0,0,0,0,0,0c13.6,0,26.3-5.3,35.9-14.9c9.6-9.6,14.9-22.4,14.9-35.9
					C171.9,89.8,149.1,67,121,67z"/>
			</g>
			<g>
				<path fill="#FEA739" d="M113.5,119.5l0.1,1.7c0.2,3.5-1,6.8-3.9,10.5c-2.2,2.7-4,4.6-4,6.9c0,2.4,1.6,3.9,5,4c2.3,0,5-0.7,6.8-2
					l2.2,7.4c-2.5,1.4-6.5,2.8-11.4,2.8c-9,0-13.1-5-13.1-10.6c0-5.2,3.3-8.4,5.9-11.3c2.5-2.8,3.5-5.2,3.5-8.3l-0.1-1.2H113.5z
					 M115.2,109.7c0,3.6-2.4,6.2-6.1,6.2c-3.6,0-6.1-2.6-6.1-6.2c0-3.6,2.5-6.2,6.1-6.2C112.8,103.5,115.2,106.1,115.2,109.7z"/>
				<path fill="#FEA739" d="M132,122.4l-0.1-1.8c-0.2-3.5,1-7,4-10.7c2.2-2.6,3.9-4.8,3.9-7.1c0-2.4-1.6-3.9-5-4.1
					c-2.2,0-5,0.8-6.7,2l-2.3-7.4c2.5-1.4,6.5-2.8,11.4-2.8c9,0,13.1,5,13.1,10.6c0,5.2-3.2,8.6-5.8,11.4c-2.5,2.8-3.5,5.4-3.5,8.5
					v1.2H132z M130.2,131.8c0-3.6,2.5-6.2,6.1-6.2c3.7,0,6.1,2.6,6.1,6.2c0,3.5-2.5,6.2-6.1,6.2C132.7,138,130.2,135.3,130.2,131.8z
					"/>
			</g>
		</g>
		<g>
			<path fill="#FEA739" d="M52.6,108.2l-19.1-4.4c-0.3-0.1-0.6-0.3-0.7-0.6c-0.2-0.3-0.2-0.7-0.1-1.1l1.3-5.9c0.5-2,1.4-3.5,2.7-4.5
				c1.3-1,3.1-1.2,5.4-0.7l0.2,0c2.3,0.5,3.8,1.5,4.6,3c0.8,1.5,0.9,3.3,0.5,5.4l-0.8,3.3l6.8,1.6c0.4,0.1,0.6,0.3,0.7,0.8
				c0.1,0.4,0.1,0.9,0,1.4c-0.1,0.5-0.3,1-0.6,1.3C53.3,108.1,52.9,108.3,52.6,108.2z M43.6,102.1l0.8-3.3c0.2-1,0.1-1.8-0.3-2.5
				c-0.4-0.7-1.2-1.1-2.3-1.4l-0.4-0.1c-1.1-0.3-2-0.2-2.7,0.2c-0.7,0.4-1.1,1.1-1.4,2.1l-0.8,3.3L43.6,102.1z"/>
			<path fill="#FEA739" d="M56.5,93.2l-10.8-4.8c-0.3-0.1-0.5-0.4-0.6-0.8c-0.1-0.4,0-0.9,0.3-1.4c0.2-0.5,0.5-0.8,0.8-1
				s0.7-0.2,1-0.1l1.1,0.5c-0.5-0.6-0.9-1.3-1.1-2.1c-0.2-0.8-0.1-1.6,0.2-2.3l0.4-0.9c0.1-0.3,0.4-0.6,0.9-0.7
				c0.4-0.1,0.9-0.1,1.3,0.1c0.4,0.2,0.7,0.5,0.9,0.9c0.2,0.4,0.2,0.8,0.1,1.1l-0.4,0.9c-0.4,0.8-0.3,1.7,0.1,2.7
				c0.5,1,1.3,1.7,2.5,2.2l4.9,2.2c0.3,0.1,0.4,0.4,0.5,0.9c0.1,0.5,0,0.9-0.2,1.4c-0.2,0.5-0.5,0.9-0.9,1.1
				C57.1,93.3,56.8,93.3,56.5,93.2z"/>
			<path fill="#FEA739" d="M56.5,81.5l-2-1.4c-1.4-0.9-2.2-2.3-2.5-4c-0.3-1.7,0.1-3.4,1.1-4.8c1-1.4,2.3-2.4,4.1-2.8
				c1.7-0.4,3.3-0.1,4.7,0.8l2,1.4c1.3,0.9,2.2,2.3,2.5,4c0.3,1.8,0,3.4-1,4.8c-1,1.4-2.3,2.4-4.1,2.7
				C59.4,82.7,57.9,82.5,56.5,81.5z M58.7,78.3c0.6,0.4,1.3,0.5,2,0.4c0.8-0.1,1.3-0.5,1.7-1.1c0.4-0.6,0.5-1.2,0.3-2
				c-0.2-0.8-0.5-1.3-1.1-1.7l-2-1.4c-0.6-0.4-1.2-0.5-2-0.4c-0.8,0.1-1.3,0.5-1.7,1.1c-0.4,0.6-0.5,1.3-0.4,2
				c0.2,0.7,0.5,1.3,1.1,1.7L58.7,78.3z"/>
			<path fill="#FEA739" d="M68.8,72.1l-14-14.5c-0.2-0.3-0.3-0.6-0.2-1c0.1-0.4,0.4-0.8,0.8-1.2c0.4-0.4,0.8-0.6,1.2-0.7
				c0.4-0.1,0.8,0,1,0.2l6.4,6.6c-0.2-0.7-0.2-1.4,0-2.2c0.2-0.8,0.6-1.5,1.2-2.1c1.1-1,2.4-1.5,4-1.3c1.6,0.1,3,0.8,4.1,2l1.7,1.8
				c1.1,1.2,1.7,2.6,1.8,4.2c0.1,1.6-0.4,2.9-1.3,3.9c-0.7,0.6-1.4,1-2.3,1.2c-0.9,0.2-1.7,0.2-2.4-0.1l0.6,0.6
				c0.2,0.2,0.3,0.5,0.2,1c-0.1,0.4-0.3,0.8-0.6,1.1c-0.4,0.4-0.8,0.6-1.2,0.7C69.4,72.4,69,72.3,68.8,72.1z M68.7,66.4
				c0.3,0.3,0.8,0.4,1.6,0.4c0.8,0,1.4-0.2,1.9-0.7c0.5-0.5,0.7-1.1,0.7-1.9c0-0.8-0.3-1.4-0.8-1.9l-1.7-1.8
				c-0.5-0.5-1.1-0.8-1.9-0.8c-0.8,0-1.4,0.2-1.9,0.7c-0.5,0.5-0.8,1.1-0.8,1.8c-0.1,0.7,0.2,1.4,0.8,2L68.7,66.4z"/>
			<path fill="#FEA739" d="M80.2,61.9L68.6,45.3c-0.2-0.3-0.2-0.6-0.1-1c0.2-0.4,0.5-0.7,1-1.1c0.4-0.3,0.9-0.5,1.3-0.5
				s0.8,0.1,1,0.4l11.5,16.6c0.2,0.2,0.2,0.6,0,1c-0.2,0.4-0.5,0.8-0.9,1.1c-0.4,0.3-0.9,0.5-1.3,0.5C80.7,62.3,80.3,62.2,80.2,61.9
				z"/>
			<path fill="#FEA739" d="M82.9,54.1l-1.1-2.3c-0.7-1.5-0.8-3-0.1-4.7c0.6-1.6,1.8-2.8,3.4-3.7c1.5-0.8,3.1-0.9,4.6-0.5
				c1.6,0.4,2.7,1.4,3.4,2.8c0.3,0.5,0.4,1,0.4,1.4c0,0.4,0,0.8-0.3,1c-0.2,0.3-0.4,0.5-0.6,0.6c-0.2,0.2-0.5,0.3-0.9,0.5l-5.5,2.7
				l0.2,0.4c0.4,0.8,1,1.3,1.8,1.4c0.8,0.2,1.7,0.1,2.6-0.4c0.7-0.3,1.3-0.8,1.8-1.5c0.5-0.7,0.8-1.1,1-1.2c0.4-0.2,0.8-0.2,1.2,0.1
				c0.4,0.2,0.7,0.5,0.9,0.8c0.2,0.5,0,1.2-0.6,2.2c-0.7,0.9-1.7,1.7-3,2.4c-1.9,0.9-3.7,1.2-5.5,0.8C85,56.8,83.8,55.8,82.9,54.1z
				 M85.3,50.1l3.9-1.9c0.3-0.1,0.5-0.3,0.5-0.4c0.1-0.2,0-0.4-0.1-0.6c-0.3-0.6-0.8-1-1.4-1.1c-0.6-0.1-1.3-0.1-2,0.3
				c-0.6,0.3-1.1,0.8-1.4,1.4c-0.3,0.6-0.3,1.2,0,1.8L85.3,50.1z"/>
			<path fill="#FEA739" d="M97.6,51.7l-2.2-11.6c-0.1-0.4,0-0.7,0.4-1c0.3-0.3,0.7-0.5,1.3-0.6c0.5-0.1,0.9-0.1,1.3,0.1
				c0.4,0.2,0.6,0.4,0.7,0.8l0.2,0.9c0.6-1.7,1.7-2.7,3.5-3c0.8-0.2,1.6,0,2.4,0.4c0.8,0.4,1.4,1,1.9,1.9c0.3-1.1,0.8-1.9,1.5-2.6
				c0.7-0.7,1.5-1.1,2.4-1.2c1.4-0.3,2.8,0,4,0.9c1.3,0.9,2.1,2.2,2.4,4.1l1.3,7c0.1,0.3-0.1,0.6-0.4,0.9c-0.3,0.3-0.8,0.5-1.3,0.6
				c-0.5,0.1-1,0.1-1.4-0.1c-0.4-0.2-0.7-0.4-0.7-0.7l-1.3-7c-0.2-0.8-0.5-1.4-1.1-1.8s-1.2-0.5-1.8-0.4c-0.6,0.1-1.1,0.5-1.5,1
				c-0.4,0.6-0.5,1.3-0.3,2.1l1.4,7c0.1,0.4-0.1,0.7-0.4,1c-0.3,0.3-0.8,0.5-1.3,0.6c-0.5,0.1-1,0.1-1.4-0.1
				c-0.4-0.1-0.7-0.4-0.7-0.8l-1.3-7c-0.2-0.8-0.5-1.4-1.1-1.8c-0.6-0.4-1.2-0.5-1.8-0.4c-0.6,0.1-1.1,0.5-1.5,1
				c-0.4,0.6-0.5,1.2-0.3,2.1l1.3,7c0.1,0.3-0.1,0.6-0.4,0.9c-0.3,0.3-0.8,0.5-1.3,0.6c-0.5,0.1-1,0.1-1.4-0.1
				C97.9,52.3,97.6,52,97.6,51.7z"/>
		</g>
	</g>
</g>
</svg>
