<?xml version="1.0" encoding="UTF-8" standalone="no"?>
<svg width="57px" height="59px" viewBox="0 0 57 59" version="1.1" xmlns="http://www.w3.org/2000/svg" xmlns:xlink="http://www.w3.org/1999/xlink">
    <!-- Generator: Sketch 50.2 (55047) - http://www.bohemiancoding.com/sketch -->
    <title>Group 56</title>
    <desc>Created with Sketch.</desc>
    <defs></defs>
    <g id="BizMap_v5" stroke="none" stroke-width="1" fill="none" fill-rule="evenodd">
        <g id="Kid-dashboard-(first-use)-(marvin)-Copy-4" transform="translate(-700.000000, -203.000000)">
            <g id="Group-56" transform="translate(700.000000, 203.000000)">
                <ellipse id="Oval-Copy-8" fill="#FFFFFF" fill-rule="nonzero" cx="28.5" cy="29.5" rx="28.5" ry="29.5"></ellipse>
                <g id="Group-37" transform="translate(10.739130, 11.971014)">
                    <path d="M32.2173913,25.9074965 C22.9524338,26.1664757 13.6704673,26.5888227 5.04405692,29.0724638 C3.91720904,24.653254 2.79319599,20.2393141 1.65217391,15.7862262 C10.1446382,12.8945422 17.9503631,8.59578789 26.7553682,5.13043478 C29.4137371,11.8970204 31.1344834,18.7479249 32.2173913,25.9074965" id="Fill-1" fill="#8BC543"></path>
                    <path d="M2.83952759,16.386053 C3.70397437,19.6500949 4.55977668,22.8934222 5.41413825,26.1352699 L5.8658117,27.8464505 C14.1212785,25.6699294 22.9047782,25.2068083 31.9296026,24.9500942 C30.8274329,18.2977221 29.1734581,12.2246214 26.8891574,6.44152617 C23.3420442,7.81757287 19.9173941,9.32826501 16.5979185,10.7923491 C11.9399911,12.8475414 7.52843101,14.7939817 2.83952759,16.386053 Z M4.69880854,29.9275362 L3.81563208,26.5798957 C2.89283514,23.0798543 1.96931783,19.5783333 1.03427456,16.0516588 L0.826086957,15.2667203 L1.58031677,15.0181442 C6.47668742,13.406098 11.0755443,11.3775389 15.9438204,9.22987027 C19.5154264,7.65407485 23.2080549,6.0250131 27.0620468,4.55870957 L27.8076322,4.27536232 L28.1137904,5.02922877 C30.7193771,11.4404227 32.5527246,18.1823118 33.7190074,25.6388573 L33.8695652,26.598391 L32.9237164,26.6242843 C23.3773424,26.8817382 14.0960654,27.3115679 5.49842182,29.7048534 L4.69880854,29.9275362 Z" id="Fill-3" fill="#006738"></path>
                    <path d="M21.9981123,17.2133907 C23.0339605,21.0666367 21.3402851,24.4544543 18.449661,24.766461 C15.5434921,25.0769925 12.605527,22.9962101 11.788719,19.9314633 C10.9874558,16.8740926 12.4027381,13.4250539 15.0396996,12.26849 C17.6703018,11.1281534 20.9410667,13.3704711 21.9981123,17.2133907" id="Fill-5" fill="#006738"></path>
                    <path d="M1.65217391,15.5876066 C1.94995417,16.6656938 2.24565204,17.7389865 2.53996166,18.8115942 C4.32664318,18.3163864 5.34909147,16.4061036 4.81461409,14.5362319 C3.77064788,14.9108912 2.71765804,15.2636325 1.65217391,15.5876066" id="Fill-7" fill="#006738"></path>
                    <path d="M17.3746136,16.3780824 C17.20921,15.8923359 16.792921,15.7593067 16.1340864,15.9797551 C15.4696921,16.1994432 15.2007374,16.5369573 15.3195778,16.9862158 C15.393245,17.2613961 15.5523939,17.4278726 15.7991094,17.4833648 C16.0479098,17.5441781 16.5170167,17.5533001 17.2154647,17.5236536 C17.9118279,17.4924868 18.4678064,17.6293168 18.8799256,17.9371843 C19.2906547,18.2435315 19.5804585,18.7178755 19.7403024,19.3526147 C19.9244703,20.0907366 19.8118846,20.7193944 19.4046303,21.2165435 C18.998766,21.7167332 18.4678064,22.0200397 17.8193965,22.1477477 C16.2557067,22.4533347 15.1979575,21.9265392 14.6259946,20.5666009 C15.0395036,20.4130473 15.4530127,20.2617741 15.8672167,20.1097408 C16.1542407,20.8486228 16.7060494,21.123043 17.5316775,20.940603 C18.3058777,20.7703256 18.6123609,20.3469128 18.4420924,19.6696042 C18.3670353,19.3716189 18.2169211,19.171695 17.9924448,19.0751539 C17.7693584,18.9778525 17.2891319,18.9314824 16.561495,18.9512467 C15.834553,18.9687305 15.2778795,18.8547055 14.8900844,18.6076514 C14.5015944,18.359837 14.2451493,17.9911562 14.1131044,17.4909665 C13.9741097,16.9580896 14.0429121,16.4366153 14.3222913,15.9273036 C14.6002806,15.4172317 15.0978814,15.0242255 15.8227384,14.7627282 C17.2585531,14.237453 18.2127513,14.6274185 18.6394648,15.9159011 C18.2176161,16.0694547 17.7964623,16.2237686 17.3746136,16.3780824" id="Fill-9" fill="#8BC543"></path>
                    <path d="M16.5217391,15.005165 C16.1077847,15.1338781 15.6938302,15.2618955 15.2820621,15.3913043 C15.1465066,14.961333 15.0094935,14.5306659 14.8695652,14.0986073 C15.2776893,13.9601538 15.6858135,13.8217002 16.0946664,13.6811594 C16.240425,14.1264372 16.3825397,14.5675405 16.5217391,15.005165" id="Fill-11" fill="#8BC543"></path>
                    <path d="M19,22.864614 C18.5669764,22.9371513 18.1354059,23.0112655 17.704562,23.0869565 C17.5868609,22.6012722 17.4677068,22.1195301 17.3478261,21.6377881 C17.7764904,21.5486934 18.2066078,21.461964 18.6381783,21.3768116 C18.7587855,21.8703804 18.8801193,22.3663145 19,22.864614" id="Fill-13" fill="#8BC543"></path>
                    <path d="M5.00512321,28.2173913 C6.08346838,27.9300011 7.16940752,27.6666189 8.26086957,27.4265386 C7.76588014,25.551794 5.91294901,24.4191799 4.13043478,24.9127568 C4.42107711,26.0135955 4.71310016,27.1151403 5.00512321,28.2173913" id="Fill-15" fill="#006738"></path>
                    <path d="M32.2173913,25.4988391 C31.9542482,23.529615 31.6517922,21.5891898 31.3049506,19.6666667 C29.5054323,19.972558 28.5460697,22.5955956 29.0438223,25.6521739 C30.1027354,25.6008028 31.1622826,25.5541019 32.2173913,25.4988391" id="Fill-17" fill="#006738"></path>
                    <path d="M27.0933999,5.13043478 C26.0357321,5.5530189 24.990106,5.98050051 23.9565217,6.41287962 C24.939932,9.04073711 27.0512538,10.6897947 28.9130435,10.1629638 C28.3651435,8.47542591 27.7590416,6.79628374 27.0933999,5.13043478" id="Fill-19" fill="#006738"></path>
                    <path d="M9.03809921,20.6259836 C9.22869841,21.3220486 8.84451022,22.0196122 8.18376632,22.1926919 C7.52227498,22.3635238 6.83910764,21.9604205 6.65523547,21.2845855 C6.47061585,20.6087505 6.85181426,19.9074406 7.50583112,19.7133815 C8.16059544,19.5230688 8.84675256,19.931417 9.03809921,20.6259836" id="Fill-21" fill="#006738"></path>
                    <path d="M26.3543067,15.9737624 C26.6008972,16.9315976 26.2600422,17.8094888 25.6152182,17.9402385 C24.9703942,18.0672525 24.2716072,17.4374124 24.0345798,16.5326241 C23.8009677,15.6308245 24.107669,14.7499448 24.7415637,14.566148 C25.3754584,14.3890755 26.1070331,15.0159271 26.3543067,15.9737624" id="Fill-23" fill="#006738"></path>
                    <path d="M34.6956522,20.2258662 C25.6258803,21.8630742 16.5610343,23.6599376 8.41590207,27.3623188 C6.71791468,23.236407 5.02274203,19.114191 3.30434783,14.9587133 C11.2623003,10.8801068 18.358241,5.53608276 26.5462979,0.855072464 C30.0647135,7.0313747 32.6725632,13.4316381 34.6956522,20.2258662" id="Fill-25" fill="#8BC543"></path>
                    <path d="M3.77507089,15.8134896 C5.14360287,19.1226295 6.49790155,22.4115963 7.85220022,25.700563 L8.31193588,26.8183037 C16.0762021,23.4209998 24.6047966,21.6502476 33.3974188,20.0505933 C31.4004866,13.5600767 28.947377,7.73676755 25.919242,2.30123072 C22.6384659,4.20422897 19.4964645,6.22453023 16.4512496,8.18207064 C12.1826823,10.926363 8.13828959,13.5264548 3.77507089,15.8134896 Z M7.45793776,29.0724638 L6.34987521,26.3819664 C4.89380842,22.8464392 3.43702997,19.3086706 1.96388322,15.7477402 L1.65217391,14.993863 L2.35529903,14.6337353 C6.91849562,12.2958941 11.1343996,9.58597081 15.5972515,6.71690394 C18.8730459,4.61068011 22.2605717,2.43272961 25.8288605,0.393749541 L26.518464,0 L26.9219781,0.70755373 C30.3493572,6.72138686 33.0714762,13.1872474 35.2420547,20.4727347 L35.5217391,21.4096643 L34.6001328,21.5762794 C25.296535,23.2551318 16.2776033,25.0654831 8.20874444,28.7310149 L7.45793776,29.0724638 Z" id="Fill-27" fill="#006738"></path>
                    <path d="M22.459293,13.8951344 C23.985995,17.6225829 22.7948624,21.2944315 20.0312682,22.0487871 C17.2503409,22.8061481 14.1158177,21.1546803 12.9115119,18.1906037 C11.7217658,15.2310351 12.6321018,11.536646 15.0365535,9.96857812 C17.4368453,8.4185426 20.9152578,10.1812102 22.459293,13.8951344" id="Fill-29" fill="#006738"></path>
                    <path d="M3.30434783,15.3578528 C3.75539247,16.5119305 4.20435216,17.6621483 4.65261687,18.8115942 C6.3497679,17.9747914 7.08506102,15.6813033 6.28513439,13.6811594 C5.30520689,14.2639879 4.31346466,14.8259736 3.30434783,15.3578528" id="Fill-31" fill="#006738"></path>
                    <path d="M18.3454716,13.7568558 C18.100809,13.3007391 17.6398289,13.234381 16.9699906,13.556256 C16.2949308,13.8796564 16.0577275,14.2564485 16.2471918,14.6851066 C16.3643016,14.9459626 16.5560036,15.0855435 16.8275194,15.1023237 C17.0997811,15.1244431 17.5988032,15.058085 18.3357746,14.9177414 C19.0712541,14.779686 19.6821646,14.8277384 20.1625386,15.0687633 C20.6421667,15.3090254 21.0173657,15.7353954 21.273963,16.3379575 C21.5753157,17.0419637 21.5424951,17.6849509 21.1807227,18.2432743 C20.8204422,18.8031232 20.2990424,19.1875426 19.6284581,19.4171264 C18.0090605,19.966297 16.812601,19.6085734 16.0129721,18.348532 C16.4306887,18.1319147 16.8476593,17.9152975 17.2668677,17.6994429 C17.6763791,18.3897198 18.3007162,18.5750649 19.1525596,18.2631055 C19.9499507,17.9725027 20.2177369,17.504945 19.9417456,16.8596696 C19.8186684,16.5736432 19.6321878,16.3989765 19.3808119,16.3387203 C19.1286901,16.2769386 18.6117659,16.3066853 17.8434658,16.4401643 C17.0736738,16.5728805 16.465747,16.5469474 16.0181936,16.3616024 C15.5706401,16.17702 15.2476557,15.8513314 15.0365596,15.3753835 C14.8135288,14.8674007 14.8135288,14.3395868 15.0387974,13.7896535 C15.2625741,13.2389574 15.7362349,12.7721624 16.4702226,12.3976586 C17.9202958,11.6494137 18.9884567,11.8866249 19.6239826,13.0993766 C19.1958231,13.3182821 18.7699014,13.5371876 18.3454716,13.7568558" id="Fill-33" fill="#8BC543"></path>
                    <path d="M17.3478261,12.3029372 C16.9832459,12.477981 16.6200261,12.6523642 16.2568063,12.826087 C16.0724757,12.4409906 15.8854243,12.0545731 15.6956522,11.6661741 C16.0520701,11.4825432 16.4105286,11.2995729 16.7689871,11.115942 C16.9642007,11.5129282 17.1573738,11.9085932 17.3478261,12.3029372" id="Fill-35" fill="#8BC543"></path>
                    <path d="M20.6521739,20.1292348 C20.266533,20.2583577 19.8828971,20.388948 19.4999296,20.5217391 C19.3335092,20.0925522 19.1664204,19.6648325 19,19.2378465 C19.3796257,19.0940506 19.7599198,18.9517219 20.1422189,18.8115942 C20.3119811,19.2488513 20.4830801,19.6875758 20.6521739,20.1292348" id="Fill-37" fill="#8BC543"></path>
                    <path d="M8.09079662,27.3623188 C9.23840366,26.9203244 10.3968008,26.4995456 11.5652174,26.101397 C10.725129,24.3157394 8.50082143,23.4642812 6.60869565,24.2153182 C7.10272931,25.2640827 7.59830441,26.3142616 8.09079662,27.3623188" id="Fill-39" fill="#006738"></path>
                    <path d="M34.6956522,19.8496408 C34.116481,18.0485352 33.4953518,16.2798554 32.8240228,14.5362319 C30.7605852,15.122844 30.0008445,17.7404901 31.0055903,20.5217391 C32.2373592,20.2977064 33.4698773,20.0758844 34.6956522,19.8496408" id="Fill-41" fill="#006738"></path>
                    <path d="M26.256613,0.855072464 C25.2000376,1.45213826 24.1584541,2.05428855 23.1304348,2.66007063 C24.553956,5.20740607 27.0233441,6.57295801 28.9130435,5.74273149 C28.0877724,4.09390016 27.2032475,2.46250142 26.256613,0.855072464" id="Fill-43" fill="#006738"></path>
                    <path d="M11.4523156,18.7474154 C11.7391125,19.4112352 11.4605098,20.160006 10.8317913,20.4253835 C10.2053076,20.6907611 9.47378926,20.39005 9.19518654,19.743521 C8.91732874,19.100751 9.19295176,18.3489731 9.8104963,18.061794 C10.4287858,17.7791255 11.1632839,18.0850991 11.4523156,18.7474154" id="Fill-45" fill="#006738"></path>
                    <path d="M27.0879041,12.3629674 C27.4440239,13.2975747 27.2298264,14.2452266 26.6325702,14.4807968 C26.035314,14.7148322 25.2895651,14.1861422 24.9511857,13.3037133 C24.6141203,12.4251211 24.7961225,11.4797712 25.3756384,11.1927899 C25.9564683,10.9104127 26.7317844,11.4298948 27.0879041,12.3629674" id="Fill-47" fill="#006738"></path>
                    <path d="M15.6238032,26.3152115 C15.0418334,30.7602885 11.0887231,33.8756858 6.7942857,33.2733018 C2.49984831,32.6709177 -0.509971044,28.5791408 0.0719987717,24.1340638 C0.653968588,19.6889869 4.6070789,16.5735895 8.90151629,17.1759736 C13.1959537,17.7783577 16.205059,21.8701345 15.6238032,26.3152115" id="Fill-49" fill="#E8AF2E"></path>
                    <path d="M14.8088975,26.570608 C14.3186119,30.314264 10.9901014,32.9374061 7.37387839,32.4299463 C3.75765539,31.9232461 1.22255609,28.4773809 1.71284165,24.7344845 C2.20239326,20.9908285 5.53163773,18.3669268 9.14786074,18.8743866 C12.7640837,19.3818465 15.299183,22.8277117 14.8088975,26.570608" id="Fill-51" fill="#F9CA35"></path>
                    <path d="M9.10039694,23.5972032 C9.12529516,23.0949432 8.71516608,22.7827276 7.86655162,22.6612707 C7.0158623,22.5390994 6.55732,22.7134257 6.49438283,23.1813919 C6.45634387,23.4686018 6.56423618,23.696512 6.82151783,23.8644083 C7.07810786,24.0337335 7.6106532,24.2602149 8.41707901,24.5424235 C9.22419644,24.8253466 9.79547236,25.186145 10.1315984,25.6276765 C10.4677244,26.0670646 10.5963652,26.5964738 10.5119879,27.2123316 C10.4158531,27.9310706 10.0299306,28.441904 9.35491212,28.7441173 C8.68058522,29.0463306 7.94124629,29.1399238 7.13758695,29.024897 C5.19760033,28.7455462 4.19475519,27.8196161 4.13043478,26.2442488 L5.75435228,26.3406999 C5.76472654,27.1637489 6.28551439,27.648862 7.31394937,27.7967536 C8.27737231,27.9353573 8.80507634,27.6667233 8.89567821,26.9915659 C8.9351004,26.6929248 8.84933985,26.4528689 8.63424686,26.2735413 C8.4205371,26.0934994 7.89214146,25.8541579 7.0518264,25.5562313 C6.21289457,25.2575902 5.6236366,24.901793 5.2882022,24.489554 C4.95345941,24.0758862 4.8213605,23.6029188 4.8932887,23.0699374 C4.97005822,22.4969467 5.28266926,22.0475562 5.82835534,21.721766 C6.37542465,21.3959757 7.11891328,21.3009536 8.06020447,21.4366995 C9.92411318,21.7039047 10.8156079,22.4826576 10.7339971,23.7708151 L9.10039694,23.5972032 Z" id="Fill-53" fill="#C38728"></path>
                    <polygon id="Fill-55" fill="#C38728" points="8.90065601 21.3768116 7.43478261 21.1497751 7.61909414 19.6666667 9.08695652 19.892966"></polygon>
                    <polygon id="Fill-57" fill="#C38728" points="8.07648404 30.7826087 6.60869565 30.55567 6.79374444 29.0724638 8.26086957 29.2994024"></polygon>
                </g>
            </g>
        </g>
    </g>
</svg>