<?xml version="1.0" encoding="utf-8"?>
<!-- Generator: Adobe Illustrator 18.0.0, SVG Export Plug-In . SVG Version: 6.00 Build 0)  -->
<!DOCTYPE svg PUBLIC "-//W3C//DTD SVG 1.1//EN" "http://www.w3.org/Graphics/SVG/1.1/DTD/svg11.dtd">
<svg version="1.1" id="Capa_1" xmlns="http://www.w3.org/2000/svg" xmlns:xlink="http://www.w3.org/1999/xlink" x="0px" y="0px"
	 viewBox="-344.1 841.9 53.9 167.9" enable-background="new -344.1 841.9 53.9 167.9" xml:space="preserve">
<path fill="#EFCC3A" d="M-306.4,852.4c0-5.8-4.7-10.5-10.5-10.5c-0.1,0-0.1,0-0.2,0s-0.1,0-0.2,0c-5.8,0-10.5,4.7-10.5,10.5
	l0.2,114.4c0,5.8,4.7,10.5,10.5,10.5c5.8,0,10.5-4.7,10.5-10.5L-306.4,852.4z"/>
<circle fill="#FFFFFF" cx="-317.1" cy="982.9" r="23.8"/>
<path fill="#EFCC3A" d="M-317.1,1009.8c-14.8,0-26.9-12-26.9-26.9S-332,956-317.1,956s26.9,12,26.9,26.9S-302.3,1009.8-317.1,1009.8
	z M-317.1,962.3c-11.3,0-20.6,9.2-20.6,20.6c0,11.4,9.2,20.6,20.6,20.6c11.3,0,20.6-9.2,20.6-20.6
	C-296.5,971.5-305.8,962.3-317.1,962.3z"/>
<g>
	<path fill="#EFCC3A" d="M-326.8,977.4c0-0.5,0.2-0.9,0.6-1.2l2.9-2.2c0.2-0.2,0.4-0.2,0.7-0.2c0.4,0,0.7,0.1,1,0.3
		c0.3,0.2,0.4,0.5,0.4,0.8V991c0,0.3-0.2,0.6-0.5,0.8c-0.3,0.2-0.7,0.3-1.1,0.3c-0.4,0-0.8-0.1-1.1-0.3c-0.3-0.2-0.5-0.4-0.5-0.8
		v-13.3l-0.8,0.8c-0.2,0.2-0.4,0.2-0.6,0.2c-0.3,0-0.5-0.1-0.8-0.4S-326.8,977.7-326.8,977.4z"/>
	<path fill="#EFCC3A" d="M-319.2,987.6c0-0.5,0.1-0.9,0.4-1.2c0.3-0.2,0.7-0.3,1.2-0.3c0.6,0,1.1,0.1,1.3,0.3
		c0.2,0.2,0.3,0.5,0.3,0.9c0,0.6,0.2,1.1,0.7,1.4c0.5,0.3,1.1,0.5,1.9,0.5c1.8,0,2.6-0.9,2.6-2.8v-0.5c0-0.9-0.2-1.6-0.7-2.1
		s-1.1-0.7-1.9-0.7h-3.7c-0.5,0-0.8-0.1-1-0.3c-0.2-0.2-0.3-0.5-0.3-0.9c0-0.1,0-0.2,0.1-0.3c0.1-0.1,0.1-0.3,0.1-0.3l0.5-6.6
		c0-0.7,0.3-1,0.6-1h7.7c0.3,0,0.5,0.1,0.7,0.4c0.2,0.3,0.3,0.6,0.3,1c0,0.4-0.1,0.7-0.3,1s-0.4,0.4-0.7,0.4h-5.6l-0.3,4.1h1.9
		c1.8,0,3.2,0.4,4.3,1.3c1.1,0.9,1.6,2.2,1.6,4.1v0.5c0,1.9-0.5,3.4-1.6,4.3c-1.1,0.9-2.5,1.4-4.2,1.4c-1.8,0-3.3-0.4-4.3-1.3
		C-318.7,989.9-319.2,988.9-319.2,987.6z"/>
</g>
</svg>
