<?xml version="1.0" encoding="UTF-8" standalone="no"?>
<svg width="43px" height="36px" viewBox="0 0 43 36" version="1.1" xmlns="http://www.w3.org/2000/svg" xmlns:xlink="http://www.w3.org/1999/xlink">
    <!-- Generator: Sketch 48 (47235) - http://www.bohemiancoding.com/sketch -->
    <title>Page 1</title>
    <desc>Created with Sketch.</desc>
    <defs>
        <polygon id="path-1" points="0.0928935849 0.0963572093 26.7274674 0.0963572093 26.7274674 16.3888649 0.0928935849 16.3888649"></polygon>
        <polygon id="path-3" points="0 0.0273487565 29.7711336 0.0273487565 29.7711336 35.0526059 0 35.0526059"></polygon>
    </defs>
    <g id="KIDDSBAY-flow-Copy" stroke="none" stroke-width="1" fill="none" fill-rule="evenodd">
        <g id="Page-1">
            <g id="Group-3" transform="translate(15.428571, 9.257143)">
                <mask id="mask-2" fill="white">
                    <use xlink:href="#path-1"></use>
                </mask>
                <g id="Clip-2"></g>
                <path d="M26.7275178,8.24500306 C26.7275178,8.29641568 26.7275178,8.34782831 26.7218413,8.39362764 C26.6992612,8.67939508 26.6195373,8.9536808 26.4901119,9.19377648 C26.4845615,9.2108715 26.4732084,9.22809409 26.4556742,9.2451891 C26.3540009,9.39381369 26.2127178,9.55953329 26.0205982,9.77105223 L26.0035685,9.78814724 C25.8007265,10.0052795 25.5345594,10.2739519 25.1954801,10.6168728 L20.0696817,15.8001074 C19.6854424,16.1944409 19.1768235,16.3888649 18.6687092,16.3888649 C18.1652623,16.3888649 17.657148,16.1944409 17.272278,15.8001074 C16.4986273,15.0234323 16.4986273,13.7545738 17.272278,12.9772609 C17.272278,12.9772609 18.5727125,11.6564795 19.973685,10.2453751 L2.07085585,10.2453751 C0.980075256,10.2453751 0.0928935849,9.34801435 0.0928935849,8.24500306 C0.0928935849,7.1362509 0.980075256,6.24463096 2.07085585,6.24463096 L19.9741895,6.24463096 L17.2729087,3.51274525 C16.4991319,2.72969143 16.4991319,1.46657382 17.2729087,0.683647575 C18.0470639,-0.0994062458 19.2960311,-0.0994062458 20.0703125,0.683647575 L26.1454823,6.82764757 C26.5183685,7.20475854 26.7275178,7.71352664 26.7275178,8.24500306" id="Fill-1" fill="#0B37FE" mask="url(#mask-2)"></path>
            </g>
            <g id="Group-6">
                <mask id="mask-4" fill="white">
                    <use xlink:href="#path-3"></use>
                </mask>
                <g id="Clip-5"></g>
                <path d="M29.1008567,30.5946302 C25.9004942,33.4707436 21.7653325,35.0526059 17.4638733,35.0526059 C7.83436547,35.0526059 -5.12078479e-05,27.1950385 -5.12078479e-05,17.5428534 C-5.12078479e-05,7.88489046 7.83436547,0.0273230769 17.4638733,0.0273230769 C21.7653325,0.0273230769 25.9004942,1.60918543 29.1008567,4.48529879 C29.9260712,5.22731035 30.0007066,6.49857814 29.2613933,7.32687311 C28.5215679,8.15516807 27.2540457,8.23002406 26.4281911,7.48801249 C23.9620211,5.27340521 20.7789413,4.05388178 17.4638733,4.05388178 C10.0482088,4.05388178 4.01464407,10.1052757 4.01464407,17.5428534 C4.01464407,24.9804312 10.0482088,31.0260472 17.4638733,31.0260472 C20.7789413,31.0260472 23.9620211,29.8066522 26.4281911,27.5976944 C27.2540457,26.8556828 28.5215679,26.9247609 29.2613933,27.7530559 C30.0007066,28.5813508 29.9260712,29.8526186 29.1008567,30.5946302 Z" id="Fill-4" fill="#0B37FE" mask="url(#mask-4)"></path>
            </g>
        </g>
    </g>
</svg>