<?xml version="1.0" encoding="UTF-8" standalone="no"?>
<svg width="50px" height="50px" viewBox="0 0 50 50" version="1.1" xmlns="http://www.w3.org/2000/svg" xmlns:xlink="http://www.w3.org/1999/xlink">
    <!-- Generator: Sketch 48 (47235) - http://www.bohemiancoding.com/sketch -->
    <title>Artboard 6</title>
    <desc>Created with Sketch.</desc>
    <defs>
        <polygon id="path-1" points="0.324714367 0.395475 37.0907742 0.395475 37.0907742 2.25 0.324714367 2.25"></polygon>
    </defs>
    <g id="KIDDSBAY-flow-Copy" stroke="none" stroke-width="1" fill="none" fill-rule="evenodd">
        <g id="Artboard-6">
            <g id="Page-1" transform="translate(4.000000, 7.000000)">
                <path d="M3.40540541,33.9356575 C4.31239811,27.4911398 3.69133419,21.0209153 3.73921064,14.5625555 C3.96662377,13.144063 5.23401973,12.7413218 6.24075504,12.1441312 C10.2191549,9.7817346 14.3538181,7.68827158 18.3375375,5.33114823 C19.8556199,4.4320665 21.4887387,4.15126825 23.0686615,5.04903168 C27.6674603,7.66058725 32.3806306,10.0724201 36.8956456,12.8303072 C37.5552767,13.2330483 38.1949592,13.6872032 38.266109,14.5638738 C38.3080009,21.0222336 37.6915916,27.4911398 38.5945946,33.9349983 C37.887752,35.1524499 36.6675676,34.8373758 35.6149507,34.8406715 C25.8720935,34.8729699 16.1285714,34.8729699 6.38571429,34.8406715 C5.33309738,34.8373758 4.11291291,35.1524499 3.40540541,33.9356575" id="Fill-1" fill="#4F89FE"></path>
                <path d="M38.4180931,14.7406801 C33.2919393,11.9240448 28.1450372,9.14167982 23.0523483,6.27008259 C21.6347751,5.47087202 20.4487789,5.46893219 19.0305363,6.26878937 C13.9378474,9.1403866 8.79094538,11.9227516 3.66479158,14.7393869 C3.66479158,14.7393869 1.27071243,16.6992633 0.588697717,15.1118346 C-0.0384345603,13.6530813 -0.644818598,11.4028767 1.48421851,10.2273388 C7.55542117,6.87466341 13.7116247,3.6655355 19.7942054,0.331611771 C21.003627,-0.33116399 21.8824153,0.118230306 22.8609291,0.646511084 C28.5774038,3.73536944 34.2376574,6.92897869 40.0424795,9.85424459 C42.5650638,11.1254808 42.1079332,13.230198 41.6106448,14.8273259 C40.948709,16.9527346 38.4180931,14.7406801 38.4180931,14.7406801" id="Fill-3" fill="#414852"></path>
                <g id="Group-7" transform="translate(2.270270, 33.750000)">
                    <mask id="mask-2" fill="white">
                        <use xlink:href="#path-1"></use>
                    </mask>
                    <g id="Clip-6"></g>
                    <path d="M1.29800313,0.395475 C12.894006,0.705975 24.4893516,0.705225 36.0807542,0.395475 C36.9219491,0.642225 37.5508737,0.981225 36.6518467,2.006475 C36.3686006,2.330475 35.395969,2.237475 34.7493004,2.238225 C24.0418097,2.249475 13.3349761,2.264475 2.62814253,2.209725 C1.81783528,2.205225 0.324714367,2.344725 0.324714367,1.177725 C0.324714367,0.975225 0.956924893,0.658725 1.29800313,0.395475" id="Fill-5" fill="#414852" mask="url(#mask-2)"></path>
                </g>
                <path d="M9.2627615,32.6048415 C7.25376913,32.6048415 6.81081081,32.6278751 6.81081081,30.8434131 C6.81081081,27.8394516 6.8147308,24.7977406 6.8147308,21.8935912 C6.8147308,19.9280598 7.40076857,19.1154866 9.39996098,19.125084 C16.958999,19.125084 24.1992115,19.1525963 31.5988367,19.1353211 C33.4118298,19.1314822 34.0422941,19.9658093 34.0422941,21.708043 C34.0422941,24.6774542 34.0540541,27.6225521 34.0540541,30.6578649 C34.0540541,32.5843672 33.4804296,32.6777811 31.4596772,32.6105999 C28.2505161,32.6105999 13.0756004,32.6048415 9.2627615,32.6048415" id="Fill-8" fill="#FCFCFD"></path>
                <path d="M23.7092976,10.125 C26.4970632,10.125 27.2432432,10.9476249 27.2432432,13.8145183 C27.2432432,17.376182 26.800426,18 23.1171122,18 L16.2137903,17.984545 C13.7161691,17.984545 13.6216573,16.3786351 13.6216573,13.9177855 C13.6216573,11.9044269 13.5820021,10.1285125 16.1457154,10.1285125 L23.7092976,10.125 Z" id="Fill-10" fill="#F2F7FD"></path>
                <path d="M21.5398469,24.7450991 C18.7133317,24.7443374 15.8868165,24.7626181 13.0603014,24.7321503 C12.2960828,24.7237716 11.2994542,24.7984178 11.3534554,23.5141983 C11.3944689,22.5331338 12.2345625,22.5102829 12.9099185,22.5087595 C18.675736,22.4965724 24.4415535,22.4980958 30.2080545,22.5072361 C30.9066515,22.5087595 31.7740875,22.6595753 31.7836573,23.5393343 C31.7966449,24.7016824 30.8068519,24.7313886 30.0193923,24.7374821 C27.1928772,24.7595713 24.366362,24.7458608 21.5398469,24.7450991" id="Fill-12" fill="#CFD4DB"></path>
                <path d="M21.5322263,29.2552384 C24.3589107,29.2544774 27.1849117,29.242302 30.0115961,29.2620871 C30.7995959,29.2674139 31.7912591,29.2864381 31.7837413,30.4476746 C31.7789573,31.3189824 30.913046,31.4902001 30.2132092,31.491722 C24.4470737,31.5023756 18.6809382,31.5031365 12.9154862,31.491722 C12.2347856,31.4902001 11.4037294,31.4468249 11.3545222,30.4803962 C11.2875456,29.1806636 12.2956113,29.2773065 13.0528565,29.2689358 C15.8788575,29.2362142 18.7055419,29.2559994 21.5322263,29.2552384" id="Fill-14" fill="#CFD4DB"></path>
                <path d="M20.9228419,28.1168167 C18.2777334,28.1191523 15.6319612,28.140951 12.9875163,28.1020248 C12.3823133,28.093461 11.5176429,28.3371391 11.3683329,27.2946953 C11.228977,26.3192046 11.9741995,25.9050298 12.6192184,25.9003586 C18.2372538,25.8590968 23.8559527,25.8707747 29.4746517,25.9167076 C30.0287575,25.9213788 30.6419236,26.4102919 30.6485596,27.07593 C30.6585136,28.1464007 29.8316684,28.1012463 29.1893038,28.1059174 C26.4333741,28.126159 23.678108,28.1144812 20.9228419,28.1168167" id="Fill-16" fill="#D2D7DE"></path>
                <path d="M18.0156278,15.75 C16.5725678,15.75 15.8918919,15.6606828 15.8918919,13.9725873 C15.8918919,12.615561 16.6481985,12.375 18.0872068,12.375 C19.6477644,12.375 20.4324324,12.6489061 20.4324324,14.1458627 C20.4324324,15.75 19.5721337,15.75 18.0156278,15.75" id="Fill-18" fill="#5E9CEB"></path>
                <path d="M21.5675676,13.9725873 C21.5675676,12.615561 22.3238741,12.375 23.7628825,12.375 C25.32344,12.375 26.1081081,12.6489061 26.1081081,14.1458627 C26.1081081,15.75 25.2478094,15.75 23.6913034,15.75 C22.2482435,15.75 21.5675676,15.6606828 21.5675676,13.9725873 Z" id="Fill-20" fill="#5E9CEB"></path>
            </g>
        </g>
    </g>
</svg>