<?xml version="1.0" encoding="UTF-8" standalone="no"?>
<svg width="639px" height="203px" viewBox="0 0 639 203" version="1.1" xmlns="http://www.w3.org/2000/svg" xmlns:xlink="http://www.w3.org/1999/xlink">
    <!-- Generator: Sketch 48 (47235) - http://www.bohemiancoding.com/sketch -->
    <title>Group 2</title>
    <desc>Created with Sketch.</desc>
    <defs>
        <polygon id="path-1" points="0 -0.000646464646 638.089166 -0.000646464646 638.089166 202.720646 0 202.720646"></polygon>
        <linearGradient x1="50%" y1="-90.8609982%" x2="50%" y2="100%" id="linearGradient-3">
            <stop stop-color="#90E977" offset="0%"></stop>
            <stop stop-color="#57CE42" offset="100%"></stop>
        </linearGradient>
        <polygon id="path-4" points="0.518048231 0.374206864 69.2157808 0.374206864 69.2157808 135.757576 0.518048231 135.757576"></polygon>
    </defs>
    <g id="Artboard" stroke="none" stroke-width="1" fill="none" fill-rule="evenodd" transform="translate(-1234.000000, -814.000000)">
        <g id="Group-2" transform="translate(1234.000000, 814.000000)">
            <g id="Page-1">
                <mask id="mask-2" fill="white">
                    <use xlink:href="#path-1"></use>
                </mask>
                <g id="Clip-2"></g>
                <path d="M634.77398,42.4588283 C631.066505,35.2054949 624.692364,29.8753939 616.802263,27.4446869 C609.193374,25.1077172 601.199838,25.7638788 594.111354,29.3097374 C589.586101,31.5691313 585.797818,34.8499394 582.988929,38.8450909 C580.325495,34.8628687 576.731152,31.5723636 572.325495,29.1319596 C565.346909,25.2854949 557.369535,24.315798 549.660444,26.3844848 C549.41802,26.4523636 549.175596,26.5202424 548.929939,26.5945859 C547.669333,26.985697 546.463677,27.4673131 545.290343,27.9909495 C541.65398,26.2648889 537.700848,25.2725657 533.537616,25.1141818 C528.61802,24.9008485 523.982869,25.8479192 519.751758,27.8131717 C514.360242,25.9222626 508.642263,24.9525657 502.723879,24.9525657 C494.329535,24.9525657 486.129131,26.9178182 478.345697,30.8030707 C470.898424,34.5234747 464.29802,39.8083232 458.870949,46.3408485 C458.07903,47.2717576 457.361455,48.2737778 456.621253,49.2531717 C452.664889,45.4907475 448.34004,42.3327677 443.688727,39.8438788 C443.355798,39.666101 443.016404,39.4947879 442.673778,39.3331717 C434.263273,35.405899 425.464889,33.7380202 416.792566,34.3489293 C415.273374,31.3299394 413.224081,28.5436768 410.670545,26.0547879 C405.020444,20.5598384 397.644283,17.5343838 389.893172,17.5343838 C389.505293,17.5343838 389.117414,17.5408485 388.752162,17.5537778 C380.732768,17.8479192 373.524687,21.0479192 367.926303,26.7949899 C366.416808,28.3432727 365.104485,30.0240808 363.979636,31.7986263 C362.948525,31.3040808 361.949737,30.7933737 360.860444,30.3376162 C355.449535,28.1493333 349.747717,26.5525657 343.900444,25.586101 C337.681455,24.5646869 331.09398,24.4321616 325.569939,25.0624646 C317.178828,25.9254949 309.592566,28.2915556 302.901657,32.0895354 C301.741253,30.2083232 300.383677,28.4337778 298.799838,26.8079192 C293.185293,21.0479192 285.980444,17.8479192 277.986909,17.5537778 C269.750949,17.2273131 261.977212,20.2818586 256.036202,26.0612525 C253.485899,28.5436768 251.436606,31.3299394 249.917414,34.3489293 C241.251556,33.7347879 232.443475,35.405899 224.036202,39.336404 C223.75499,39.4689293 223.47701,39.6046869 223.205495,39.7469091 C222.452364,40.1412525 221.744485,40.6099394 221.010747,41.0333737 C219.798626,35.725899 217.180444,30.825697 213.253172,26.8014545 C207.638626,21.0479192 200.43701,17.8479192 192.449939,17.5537778 C184.191354,17.2046869 176.427313,20.2850909 170.496,26.0612525 C167.945697,28.5436768 165.896404,31.3299394 164.380444,34.3489293 C155.717818,33.7412525 146.903273,35.4026667 138.496,39.336404 C138.247111,39.4527677 138.001455,39.575596 137.755798,39.7016566 C136.98004,38.5703434 136.155798,37.4616566 135.228121,36.3982222 C134.727111,35.8293333 134.200242,35.2895354 133.641051,34.775596 C130.974384,32.3222626 127.965091,30.2471111 124.697212,28.6083232 C124.348121,28.4337778 123.99903,28.2689293 123.640242,28.1137778 C119.974788,26.5267071 115.966707,25.5279192 111.767919,25.1400404 C110.209939,22.0822626 108.163879,19.2701414 105.639434,16.8846869 C100.002263,11.5642828 92.626101,8.63256566 84.8749899,8.63256566 C76.7812525,8.63256566 69.175596,11.7873131 63.4576162,17.5182222 C61.9739798,19.0050909 60.5873131,20.3885253 59.2911515,21.6846869 C55.5707475,9.17236364 43.9440808,-0.00096969697 30.2745859,-0.00096969697 C29.7218586,-0.00096969697 29.2014545,0.011959596 28.6616566,0.0442828283 C12.4289293,0.900848485 -0.138343434,14.2374141 0.000646464646,30.5574141 L0.340040404,64.9945859 C0.340040404,65.1497374 0.343272727,65.3048889 0.349737374,65.4632727 C0.740848485,77.7105455 1.05115152,89.6572121 1.26771717,100.989737 C1.4939798,112.309333 1.24509091,123.499636 0.533979798,134.143677 C-0.0478383838,142.240646 2.55094949,150.053172 7.89074747,156.191354 C12.726303,161.718626 19.2846869,165.238626 26.5347879,166.234182 C27.9052929,166.502465 29.2984242,166.641455 30.6333737,166.641455 C38.5234747,166.641455 45.7089293,163.800242 51.456,158.373172 C54.455596,155.525495 56.7828687,152.215596 58.3828687,148.556606 C59.2911515,149.270949 60.2026667,149.985293 61.1141818,150.696404 C66.395798,154.69802 72.7570101,156.81196 79.515798,156.81196 C81.4907475,156.81196 83.4398384,156.588929 85.366303,156.204283 C86.4685253,157.490747 87.6774141,158.702869 89.0091313,159.81802 C94.5654949,164.469333 101.27903,166.929131 108.425697,166.929131 C110.416808,166.929131 112.259232,166.751354 114.001455,166.382869 C120.750545,165.144889 126.762667,161.728323 131.252364,156.627717 C133.957818,158.447515 136.808727,160.041051 139.81802,161.343677 C152.062061,166.654384 166.235798,167.074586 178.806303,162.381253 C183.386505,165.093172 188.567919,166.502465 194.072566,166.502465 L194.786909,166.502465 C195.304081,166.502465 195.81802,166.483071 196.33196,166.444283 C204.196202,165.865697 211.346101,162.326303 216.579232,156.495192 C219.346101,158.376404 222.271354,160.008727 225.358222,161.343677 C237.59903,166.657616 251.766303,167.071354 264.343273,162.381253 C268.923475,165.093172 274.108121,166.502465 279.612768,166.502465 L280.327111,166.502465 C280.844283,166.502465 281.358222,166.483071 281.872162,166.444283 C288.653576,165.946505 294.901657,163.231354 299.86004,158.754586 C303.848727,160.862061 308.147717,162.610747 312.773172,163.871354 C319.347717,165.710545 326.151758,166.644687 333.001051,166.644687 C335.916606,166.644687 338.825697,166.476606 341.608727,166.150141 C344.433778,165.826909 347.226505,165.329131 349.915798,164.669737 C355.966707,163.325091 361.432566,161.165899 366.413576,158.373172 C371.436606,163.085899 377.859232,165.930343 384.844283,166.444283 C385.35499,166.483071 385.872162,166.502465 386.386101,166.502465 L387.100444,166.502465 C392.605091,166.502465 397.789737,165.089939 402.369939,162.381253 C414.943677,167.068121 429.114182,166.647919 441.338828,161.350141 C447.803475,158.554182 453.595798,154.542869 458.67701,149.31297 C459.236202,148.727919 459.714586,148.07499 460.247919,147.470545 C460.532364,147.767919 460.771556,148.100848 461.059232,148.39499 C463.729131,151.187717 466.628525,153.718626 469.670141,155.906909 C472.815192,158.172768 476.19297,160.13802 479.984485,161.870545 C483.604687,163.464081 487.289535,164.682667 490.906505,165.490747 C500.564687,167.666101 511.024485,167.116606 521.219232,163.486707 C525.443879,165.662061 530.150141,166.786909 535.127919,166.786909 L535.842263,166.786909 C536.359434,166.786909 536.873374,166.767515 537.387313,166.73196 C538.777212,166.628525 540.134788,166.402263 541.476202,166.117818 C540.322263,171.464081 540.606707,176.962263 542.390949,182.298828 C545.054384,190.279434 550.759434,196.563071 558.47499,200.01196 C562.431354,201.809131 566.678626,202.720646 571.100444,202.720646 C576.705293,202.720646 582.219636,201.130343 587.097212,198.098424 C592.010343,195.024485 595.911758,190.631758 598.352162,185.46004 C601.345293,179.166707 604.041051,172.896 606.358626,166.816 C608.61802,160.900848 610.73196,154.927515 612.635798,149.064081 C614.542869,143.197414 616.34004,137.201455 617.978828,131.25398 C619.565899,125.490747 621.172364,119.536808 622.804687,113.411556 C624.685899,106.358626 626.735192,98.8822626 628.946101,90.9824646 C631.102061,83.286303 633.691152,74.7141818 636.716606,65.266101 C639.069737,57.6216566 638.381253,49.5279192 634.77398,42.4588283" id="Fill-1" fill="#FEFEFE" mask="url(#mask-2)"></path>
            </g>
            <g id="Page-1" transform="translate(19.393939, 19.393939)">
                <path d="M65.9277576,111.220687 C64.9806869,112.364929 63.8364444,113.244121 62.5047273,113.864727 C61.1762424,114.485333 59.8348283,114.792404 58.5063434,114.792404 C56.3148283,114.792404 54.4174545,114.171798 52.7948283,112.940283 C47.1802828,108.563717 41.591596,104.025535 36.022303,99.3225051 C30.4627071,94.6065455 24.9580606,89.7839192 19.5406869,84.841697 C19.4437172,88.5556364 19.181899,111.776646 19.181899,111.776646 C19.1075556,113.160081 19.0073535,114.540283 18.9006869,115.923717 C18.7035152,118.396444 17.7338182,120.465131 15.9786667,122.129778 C14.2138182,123.794424 12.0966465,124.621899 9.62391919,124.621899 C9.52694949,124.621899 9.42674747,124.599273 9.32977778,124.557253 C9.24250505,124.502303 9.14553535,124.479677 9.04533333,124.479677 C6.48533333,124.295434 4.35846465,123.251394 2.69381818,121.344323 C1.03563636,119.440485 0.295434343,117.206949 0.479676768,114.640485 C1.24250505,103.240081 1.50432323,91.5487677 1.26513131,79.5600808 C1.03563636,67.5843232 0.718868687,55.6538182 0.337454545,43.7750303 L0.00129292929,9.34109091 C-0.043959596,4.35361616 3.87038384,0.229171717 8.85139394,0.00937373737 C8.99038384,-0.000323232323 9.12290909,-0.000323232323 9.26513131,-0.000323232323 C14.3334141,-0.000323232323 18.4837172,4.09179798 18.5160404,9.19886869 C18.5709899,20.3471515 18.6485657,37.3427071 18.6808889,38.3544242 C18.7358384,39.8800808 18.7584646,41.4477576 18.7584646,43.0574545 L18.7810909,46.3867475 C23.8299798,42.6728081 28.9370505,38.5709899 33.7435152,34.4336162 C36.9952323,31.6441212 49.5431111,19.1414949 57.3200808,11.3483636 C60.8562424,7.80250505 66.5709899,7.71846465 70.2105859,11.1544242 C73.9891717,14.7229091 74.0829091,20.6930101 70.4142222,24.3713939 C61.8841212,32.9241212 47.7265455,46.9944242 43.5956364,50.4077576 C37.5479596,55.4049293 31.3903838,60.1726061 25.1002828,64.7431111 C31.1932121,70.5354343 37.5479596,76.2857374 44.1612929,81.9907879 C50.7778586,87.6926061 57.4590707,93.1164444 64.2178586,98.2558384 C66.212202,99.8655354 67.3758384,101.911596 67.7152323,104.384323 C68.0546263,106.853818 67.4534141,109.129374 65.9277576,111.220687" id="Fill-1" fill="#4E88FE"></path>
                <path d="M98.4090505,29.2302222 C100.406626,31.5122424 101.405414,33.9849697 101.405414,36.6451717 C101.405414,39.4055758 100.406626,41.9203232 98.4090505,44.2023434 C97.1710707,45.4403232 95.7876364,46.3906263 94.2684444,47.0564848 C92.0769293,48.0067879 89.5589495,48.4819394 86.7015758,48.4819394 C85.3698586,48.4819394 84.0381414,48.3623434 82.7064242,48.1231515 C81.3714747,47.8871919 80.1819798,47.5316364 79.1379394,47.0564848 C78.2813737,46.6750707 77.5185455,46.248404 76.8526869,45.7732525 C76.1868283,45.298101 75.5694545,44.7744646 74.9973333,44.2023434 C72.9997576,42.1142626 72.0009697,39.5930505 72.0009697,36.6451717 C72.0009697,33.8912323 72.9997576,31.4185051 74.9973333,29.2302222 C75.5694545,28.6613333 76.1868283,28.1409293 76.8526869,27.6625455 C77.5185455,27.1873939 78.2813737,26.7607273 79.1379394,26.3793131 C80.1819798,25.9041616 81.3714747,25.5486061 82.7064242,25.3094141 C84.0381414,25.0734545 85.3698586,24.9538586 86.7015758,24.9538586 C89.5589495,24.9538586 92.0769293,25.4290101 94.2684444,26.3793131 C95.7876364,27.1421414 97.1710707,28.0892121 98.4090505,29.2302222 M96.123798,62.0286061 C97.074101,67.7304242 97.4813737,73.4354747 97.3391515,79.1372929 C97.193697,84.8423434 96.9803636,90.308202 96.6959192,95.5348687 C96.5052121,99.1518384 96.3597576,102.620121 96.2660202,105.946182 C96.1722828,109.275475 96.3145051,112.029414 96.6959192,114.214465 C97.074101,116.780929 96.5052121,119.088808 94.9827879,121.131636 C93.4603636,123.177697 91.414303,124.389818 88.8446061,124.768 C88.5601616,124.861737 88.0817778,124.910222 87.4159192,124.910222 C85.2276364,124.910222 83.2526869,124.173253 81.4910707,122.699313 C79.7294545,121.228606 78.6595556,119.347394 78.2813737,117.068606 C77.8029899,113.836283 77.6155152,110.319515 77.7092525,106.515071 C77.8029899,102.713859 77.9969293,98.7219394 78.2813737,94.5360808 C78.4720808,89.7845657 78.614303,84.868202 78.7080404,79.7805253 C78.8017778,74.6960808 78.4720808,69.7764848 77.7092525,65.0217374 C77.3278384,62.5522424 77.8999596,60.2702222 79.4223838,58.1756768 C80.9448081,56.087596 82.9423838,54.8043636 85.4183434,54.3259798 C87.8910707,53.947798 90.1763232,54.5199192 92.2708687,56.0391111 C94.3621818,57.558303 95.6486465,59.5558788 96.123798,62.0286061" id="Fill-3" fill="#FE615D"></path>
                <path d="M182.342788,114.501172 C182.533495,117.067636 181.793293,119.32703 180.131879,121.272889 C178.464,123.225212 176.346828,124.291879 173.777131,124.482586 L173.062788,124.482586 C170.683798,124.482586 168.615111,123.674505 166.853495,122.058343 C165.091879,120.442182 164.118949,118.399354 163.928242,115.926626 C163.831273,115.451475 163.760162,114.927838 163.714909,114.358949 C163.663192,113.786828 163.643798,113.266424 163.643798,112.791273 L162.787232,113.644606 C159.548444,116.876929 155.957333,119.349657 152.007434,121.059556 C148.057535,122.769455 143.942788,123.62602 139.65996,123.62602 C135.283394,123.62602 131.116929,122.769455 127.170263,121.059556 C123.220364,119.349657 119.72299,116.925414 116.678141,113.786828 C112.68299,109.604202 109.683394,104.568242 107.685818,98.6724848 C106.638545,95.6308687 105.875717,92.424404 105.400566,89.0498586 C104.922182,85.6753131 104.734707,82.1326869 104.828444,78.4252121 C105.306828,65.1177374 108.778343,54.4219798 115.252687,46.3411717 C118.48501,42.5399596 122.198949,39.5468283 126.384808,37.3585455 C130.858343,35.2672323 135.328646,34.2231919 139.802182,34.2231919 C144.466424,34.2231919 148.985212,35.3157172 153.36501,37.5007677 C156.312889,39.0231919 158.837333,40.7815758 160.931879,42.7759192 C161.025616,39.9250101 161.074101,37.1452121 161.074101,34.4365253 C161.074101,31.7246061 161.119354,29.0870303 161.216323,26.5205657 C161.310061,24.0510707 162.286222,21.9112727 164.141576,20.104404 C165.996929,18.3007677 168.162586,17.444202 170.638545,17.5379394 C173.20501,17.6349091 175.393293,18.6078384 177.203394,20.4631919 C179.010263,22.3153131 179.866828,24.5262222 179.773091,27.0926869 C179.582384,33.2728889 179.511273,39.853899 179.559758,46.8421818 C179.60501,53.8272323 179.724606,61.0514747 179.915313,68.5149091 C180.10602,75.9783434 180.416323,83.584 180.84299,91.3286465 C181.272889,99.0797576 181.770667,106.801778 182.342788,114.501172 M149.654303,100.670061 C154.221576,95.9185455 156.503596,88.7880404 156.503596,79.2817778 C156.409859,73.673697 155.695515,69.2066263 154.363798,65.8773333 C153.028848,62.5512727 151.651879,60.0300606 150.223192,58.3201616 C147.272081,54.6126869 143.800566,52.7573333 139.802182,52.7573333 C137.898343,52.7573333 136.068848,53.2098586 134.307232,54.1149091 C132.545616,55.0167273 131.000566,56.3225859 129.668848,58.0324848 C128.333899,59.6518788 127.002182,62.0987475 125.670465,65.3763232 C124.335515,68.6571313 123.575919,73.1500606 123.388444,78.8518788 C123.194505,83.7003636 123.672889,88.0025859 124.813899,91.7585455 C125.958141,95.5145051 127.671273,98.5302626 129.953293,100.812283 C132.810667,103.663192 136.04299,105.088646 139.65996,105.088646 C143.370667,105.088646 146.703192,103.617939 149.654303,100.670061" id="Fill-5" fill="#FEA739"></path>
                <path d="M267.88202,114.501172 C268.072727,117.067636 267.332525,119.32703 265.671111,121.272889 C264.003232,123.225212 261.886061,124.291879 259.316364,124.482586 L258.60202,124.482586 C256.22303,124.482586 254.154343,123.674505 252.392727,122.058343 C250.631111,120.442182 249.658182,118.399354 249.467475,115.926626 C249.370505,115.451475 249.299394,114.927838 249.254141,114.358949 C249.202424,113.786828 249.18303,113.266424 249.18303,112.791273 L248.326465,113.644606 C245.087677,116.876929 241.496566,119.349657 237.546667,121.059556 C233.596768,122.769455 229.48202,123.62602 225.199192,123.62602 C220.822626,123.62602 216.656162,122.769455 212.709495,121.059556 C208.759596,119.349657 205.262222,116.925414 202.217374,113.786828 C198.222222,109.604202 195.222626,104.568242 193.225051,98.6724848 C192.177778,95.6308687 191.414949,92.424404 190.939798,89.0498586 C190.461414,85.6753131 190.273939,82.1326869 190.367677,78.4252121 C190.846061,65.1177374 194.317576,54.4219798 200.791919,46.3411717 C204.024242,42.5399596 207.738182,39.5468283 211.92404,37.3585455 C216.397576,35.2672323 220.867879,34.2231919 225.341414,34.2231919 C230.005657,34.2231919 234.524444,35.3157172 238.904242,37.5007677 C241.852121,39.0231919 244.376566,40.7815758 246.471111,42.7759192 C246.564848,39.9250101 246.613333,37.1452121 246.613333,34.4365253 C246.613333,31.7246061 246.658586,29.0870303 246.755556,26.5205657 C246.849293,24.0510707 247.825455,21.9112727 249.680808,20.104404 C251.536162,18.3007677 253.701818,17.444202 256.177778,17.5379394 C258.744242,17.6349091 260.932525,18.6078384 262.742626,20.4631919 C264.549495,22.3153131 265.406061,24.5262222 265.312323,27.0926869 C265.121616,33.2728889 265.050505,39.853899 265.09899,46.8421818 C265.144242,53.8272323 265.263838,61.0514747 265.454545,68.5149091 C265.645253,75.9783434 265.955556,83.584 266.382222,91.3286465 C266.812121,99.0797576 267.309899,106.801778 267.88202,114.501172 M235.193535,100.670061 C239.760808,95.9185455 242.042828,88.7880404 242.042828,79.2817778 C241.949091,73.673697 241.234747,69.2066263 239.90303,65.8773333 C238.568081,62.5512727 237.191111,60.0300606 235.762424,58.3201616 C232.811313,54.6126869 229.339798,52.7573333 225.341414,52.7573333 C223.437576,52.7573333 221.608081,53.2098586 219.846465,54.1149091 C218.084848,55.0167273 216.539798,56.3225859 215.208081,58.0324848 C213.873131,59.6518788 212.541414,62.0987475 211.209697,65.3763232 C209.874747,68.6571313 209.115152,73.1500606 208.927677,78.8518788 C208.733737,83.7003636 209.212121,88.0025859 210.353131,91.7585455 C211.497374,95.5145051 213.210505,98.5302626 215.492525,100.812283 C218.349899,103.663192 221.582222,105.088646 225.199192,105.088646 C228.909899,105.088646 232.242424,103.617939 235.193535,100.670061" id="Fill-7" fill="#FEA739"></path>
                <path d="M311.990626,124.624808 C307.041939,124.624808 302.18699,123.962182 297.42901,122.630465 C292.195879,121.201778 287.74497,119.113697 284.082747,116.353293 C280.417293,113.599354 277.731232,110.318545 276.018101,106.514101 C274.970828,104.141576 274.899717,101.762586 275.801535,99.3868283 C276.706586,97.0110707 278.348606,95.3011717 280.727596,94.253899 C283.106586,93.2098586 285.485576,93.1355152 287.864566,94.0405657 C290.243556,94.9423838 291.956687,96.584404 293.00396,98.9569293 C293.576081,100.194909 294.739717,101.335919 296.501333,102.37996 C298.259717,103.427232 300.402747,104.283798 302.927192,104.946424 C305.445172,105.612283 308.182949,105.993697 311.134061,106.087434 C314.081939,106.184404 317.033051,105.896727 319.984162,105.234101 C320.556283,105.140364 321.38699,104.923798 322.482747,104.590869 C323.575273,104.257939 324.67103,103.805414 325.766788,103.236525 C326.859313,102.664404 327.78699,101.975919 328.546586,101.167838 C329.309414,100.36299 329.690828,99.3868283 329.690828,98.2458182 C329.690828,97.9613737 329.571232,97.4862222 329.335273,96.8203636 C329.096081,96.1545051 328.168404,95.3011717 326.54901,94.253899 C324.835879,93.1128889 322.741333,92.0203636 320.268606,90.9730909 C317.792646,89.9290505 315.177697,88.8817778 312.420525,87.8345051 C308.609616,86.3153131 304.853657,84.7476364 301.142949,83.1314747 C297.42901,81.5153131 293.954263,79.4724848 290.721939,76.9997576 C282.25002,70.6320808 278.157899,62.4090505 278.445576,52.3306667 C278.917495,43.8716768 282.107798,37.1678384 288.01002,32.2256162 C293.052444,28.1399596 299.284364,25.7157172 306.70901,24.9528889 C310.894869,24.4777374 315.151838,24.5973333 319.483152,25.3084444 C323.814465,26.0227879 327.977697,27.1864242 331.976081,28.8025859 C336.730828,30.8001616 340.58699,33.2728889 343.538101,36.2175354 C346.48598,39.1654141 348.389818,42.4462222 349.246384,46.0567273 C349.912242,48.5294545 349.556687,50.8567273 348.176485,53.0417778 C346.796283,55.2300606 344.869818,56.6587475 342.393859,57.3213737 C339.921131,57.8934949 337.613253,57.5120808 335.473455,56.1803636 C333.330424,54.8518788 331.924364,52.9512727 331.261737,50.4785455 C331.067798,50.0033939 330.379313,49.2890505 329.189818,48.3387475 C328.000323,47.3884444 326.167596,46.4381414 323.694869,45.4878384 C321.031434,44.4405657 318.245172,43.7520808 315.345778,43.4191515 C312.439919,43.0862222 309.753859,43.1573333 307.281131,43.6324848 C304.801939,44.013899 302.875475,44.6086465 301.498505,45.4134949 C300.118303,46.2248081 299.093657,47.0781414 298.427798,47.9831919 C297.761939,48.8850101 297.357899,49.8126869 297.215677,50.7629899 C297.073455,51.7132929 297.002343,52.4728889 297.002343,53.0417778 C296.905374,54.9456162 297.238303,56.6102626 298.001131,58.0324848 C298.760727,59.4611717 300.047192,60.8381414 301.854061,62.1698586 C304.042343,63.7860202 306.683152,65.2599596 309.779717,66.5884444 C312.869818,67.9233939 315.985778,69.2518788 319.127596,70.583596 C322.269414,71.8183434 325.385374,73.0757172 328.478707,74.3621818 C331.568808,75.6454141 334.400323,77.1904646 336.97002,78.994101 C344.297697,83.9395556 348.056889,90.2134949 348.247596,97.8159192 C348.438303,104.852687 345.823354,110.745212 340.396283,115.49996 C336.116687,119.207434 330.689616,121.773899 324.124768,123.199354 C322.217697,123.674505 320.242747,124.033293 318.199919,124.269253 C316.150626,124.508444 314.081939,124.624808 311.990626,124.624808" id="Fill-9" fill="#4E88FE"></path>
                <path d="M356.812606,114.501172 C357.381495,106.801778 357.882505,99.0797576 358.312404,91.3286465 C358.739071,83.584 359.046141,75.9783434 359.240081,68.5149091 C359.427556,61.0514747 359.547152,53.8272323 359.595636,46.8421818 C359.644121,39.853899 359.569778,33.2728889 359.382303,27.0926869 C359.285333,24.5262222 360.141899,22.3153131 361.952,20.4631919 C363.758869,18.6078384 365.947152,17.6349091 368.516848,17.5379394 C370.989576,17.444202 373.155232,18.3007677 375.013818,20.104404 C376.869172,21.9112727 377.842101,24.0510707 377.939071,26.5205657 C378.032808,29.0870303 378.081293,31.7246061 378.081293,34.4365253 C378.081293,37.1452121 378.126545,39.9250101 378.223515,42.7759192 C380.314828,40.7815758 382.839273,39.0231919 385.790384,37.5007677 C390.166949,35.3157172 394.685737,34.2231919 399.34998,34.2231919 C403.823515,34.2231919 408.293818,35.2672323 412.770586,37.3585455 C416.859475,39.5468283 420.570182,42.5399596 423.902707,46.3411717 C430.373818,54.4219798 433.848566,65.1177374 434.323717,78.4252121 C434.417455,82.1326869 434.22998,85.6753131 433.751596,89.0498586 C433.276444,92.424404 432.513616,95.6308687 431.469576,98.6724848 C429.472,104.568242 426.472404,109.604202 422.477253,113.786828 C419.429172,116.925414 415.931798,119.349657 411.985131,121.059556 C408.035232,122.769455 403.872,123.62602 399.492202,123.62602 C395.209374,123.62602 391.094626,122.769455 387.14796,121.059556 C383.194828,119.349657 379.603717,116.876929 376.368162,113.644606 L375.511596,112.791273 C375.511596,113.266424 375.48897,113.786828 375.440485,114.358949 C375.392,114.927838 375.320889,115.451475 375.227152,115.926626 C375.036444,118.399354 374.060283,120.442182 372.298667,122.058343 C370.537051,123.674505 368.468364,124.482586 366.089374,124.482586 L365.378263,124.482586 C362.808566,124.291879 360.688162,123.225212 359.023515,121.272889 C357.358869,119.32703 356.618667,117.067636 356.812606,114.501172 M389.501091,100.670061 C392.44897,103.617939 395.781495,105.088646 399.492202,105.088646 C403.109172,105.088646 406.344727,103.663192 409.198869,100.812283 C411.484121,98.5302626 413.197253,95.5145051 414.338263,91.7585455 C415.482505,88.0025859 415.957657,83.7003636 415.766949,78.8518788 C415.576242,73.1500606 414.816646,68.6571313 413.484929,65.3763232 C412.14998,62.0987475 410.818263,59.6518788 409.486545,58.0324848 C408.151596,56.3225859 406.606545,55.0167273 404.844929,54.1149091 C403.083313,53.2098586 401.253818,52.7573333 399.34998,52.7573333 C395.354828,52.7573333 391.880081,54.6126869 388.92897,58.3201616 C387.503515,60.0300606 386.123313,62.5512727 384.791596,65.8773333 C383.456646,69.2066263 382.742303,73.673697 382.648566,79.2817778 C382.648566,88.7880404 384.933818,95.9185455 389.501091,100.670061" id="Fill-11" fill="url(#linearGradient-3)"></path>
                <path d="M523.397495,114.786263 C523.588202,117.352727 522.848,119.612121 521.186586,121.55798 C519.518707,123.510303 517.401535,124.57697 514.831838,124.767677 L514.120727,124.767677 C511.641535,124.767677 509.527596,123.959596 507.76598,122.343434 C506.004364,120.727273 505.028202,118.684444 504.840727,116.211717 C504.840727,115.549091 504.792242,115.025455 504.698505,114.64404 C504.601535,114.834747 504.414061,115.070707 504.126384,115.355152 C502.60396,116.974545 500.961939,118.351515 499.203556,119.492525 C497.438707,120.633535 495.609212,121.629091 493.705374,122.485657 C489.613253,124.008081 485.614869,124.767677 481.713455,124.767677 C479.240727,124.767677 476.835879,124.505859 474.505374,123.982222 C472.171636,123.461818 469.818505,122.676364 467.439515,121.629091 C465.157495,120.585051 462.991838,119.327677 460.945778,117.850505 C458.896485,116.379798 456.97002,114.692525 455.163152,112.788687 C450.405172,107.940202 446.859313,102.215758 444.528808,95.6088889 C442.195071,89.0020202 441.125172,81.8488889 441.319111,74.1462626 C441.506586,70.6294949 441.888,67.209697 442.460121,63.880404 C443.02901,60.5543434 443.885576,57.3705051 445.029818,54.3256566 C447.218101,48.4331313 450.169212,43.300202 453.879919,38.9268687 C457.590626,34.459798 461.873455,31.0141414 466.725172,28.589899 C471.580121,26.1656566 476.577293,24.9535354 481.713455,24.9535354 C489.519515,24.9535354 496.368808,27.6169697 502.27103,32.9373737 C502.649212,30.6553535 503.719111,28.7579798 505.48396,27.2355556 C507.242343,25.7163636 509.314263,25.0020202 511.693253,25.0957576 C514.16598,25.1894949 516.30901,26.1656566 518.115879,28.0177778 C519.922747,29.8731313 520.779313,32.0840404 520.685576,34.6472727 C520.207192,49.6711111 520.304162,63.9062626 520.97002,77.3559596 C521.635879,90.8088889 522.44396,103.285657 523.397495,114.786263 M490.993455,102.238384 C493.469414,99.6719192 495.37002,96.0840404 496.70497,91.4715152 C498.036687,86.8622222 498.702545,81.4674747 498.702545,75.2872727 C498.702545,70.4387879 498.275879,66.0686869 497.419313,62.1705051 C496.559515,58.2723232 495.392646,54.9236364 493.921939,52.1179798 C492.444768,49.3155556 490.683152,47.1757576 488.640323,45.6985859 C486.59103,44.2278788 484.283152,43.4909091 481.713455,43.4909091 C479.240727,43.4909091 476.719515,44.2020202 474.149818,45.6307071 C471.580121,47.0529293 469.272242,49.1216162 467.226182,51.830303 C465.176889,54.5389899 463.46699,57.819798 462.086788,61.6694949 C460.706586,65.5191919 459.969616,69.869899 459.875879,74.7183838 C459.681939,79.8513131 460.325172,84.580202 461.802343,88.9050505 C463.276283,93.2331313 465.490424,96.9147475 468.438303,99.9563636 C470.342141,101.953939 472.459313,103.49899 474.793051,104.591515 C477.123556,105.68404 479.431434,106.230303 481.713455,106.230303 C485.330424,106.230303 488.423758,104.898586 490.993455,102.238384" id="Fill-13" fill="#FE615D"></path>
                <g id="Group-17" transform="translate(526.868687, 24.943515)">
                    <mask id="mask-5" fill="white">
                        <use xlink:href="#path-4"></use>
                    </mask>
                    <g id="Clip-16"></g>
                    <path d="M62.7633131,1.57834343 C65.2360404,2.34117172 67.0461414,3.83773737 68.1903838,6.0680404 C69.3313939,8.30480808 69.5188687,10.6579394 68.7592727,13.1274343 C65.7111919,22.633697 63.0703838,31.3803636 60.8368485,39.364202 C58.6000808,47.3512727 56.5281616,54.9084444 54.6275556,62.0357172 C53.0081616,68.1221818 51.4146263,74.0147071 49.8437172,79.7197576 C48.2728081,85.4215758 46.5855354,91.0555152 44.7754343,96.6151111 C42.9685657,102.177939 40.9936162,107.760162 38.8538182,113.371475 C36.7140202,118.979556 34.2606869,124.681374 31.5002828,130.480162 C30.7374545,132.096323 29.5964444,133.379556 28.0740202,134.329859 C26.551596,135.280162 24.9354343,135.758545 23.222303,135.758545 C21.7936162,135.758545 20.461899,135.470869 19.2271515,134.90198 C16.8449293,133.854707 15.2513939,132.122182 14.4433131,129.697939 C13.632,127.273697 13.751596,124.872081 14.7988687,122.496323 C16.6057374,118.788848 18.2477576,115.104 19.7249293,111.44501 C21.1988687,107.78602 22.601697,104.149657 23.9366465,100.535919 C23.8396768,100.442182 23.7944242,100.29996 23.7944242,100.109253 C21.0307879,92.4098586 18.7746263,84.9496566 17.0130101,77.7221818 C15.2513939,70.4979394 13.5608889,63.1767273 11.9447273,55.7650101 C10.5192727,49.4878384 8.94836364,42.8130909 7.23523232,35.7310707 C5.52210101,28.6490505 3.42755556,20.7815758 0.954828283,12.1286465 C0.192,9.65915152 0.427959596,7.33187879 1.66593939,5.14359596 C2.90391919,2.95854545 4.75927273,1.48460606 7.23523232,0.721777778 C9.7079596,0.0591515152 12.0643232,0.34359596 14.3010909,1.57834343 C16.5346263,2.81632323 18.0344242,4.6199596 18.7972525,6.99571717 C21.2699798,15.8361212 23.3871515,23.894303 25.1487677,31.1670303 C26.9103838,38.4397576 28.5039192,45.2599596 29.9326061,51.6276364 C30.5952323,54.4785455 31.2384646,57.2615758 31.8590707,59.9702626 C32.4764444,62.6789495 33.1196768,65.4134949 33.7855354,68.1706667 C34.2606869,66.363798 34.761697,64.5827879 35.2853333,62.8211717 C35.8057374,61.0627879 36.3067475,59.2332929 36.7851313,57.3326869 C38.6857374,50.1084444 40.7802828,42.4316768 43.0655354,34.3023838 C45.3475556,26.1763232 48.0109899,17.2615758 51.0590707,7.56783838 C51.8186667,5.09511111 53.3410909,3.28824242 55.6263434,2.14723232 C57.911596,1.00945455 60.2873535,0.818747475 62.7633131,1.57834343" id="Fill-15" fill="#FEA739" mask="url(#mask-5)"></path>
                </g>
            </g>
        </g>
    </g>
</svg>