<?xml version="1.0" encoding="utf-8"?>
<!-- Generator: Adobe Illustrator 18.0.0, SVG Export Plug-In . SVG Version: 6.00 Build 0)  -->
<!DOCTYPE svg PUBLIC "-//W3C//DTD SVG 1.1//EN" "http://www.w3.org/Graphics/SVG/1.1/DTD/svg11.dtd">
<svg version="1.1" id="Capa_1" xmlns="http://www.w3.org/2000/svg" xmlns:xlink="http://www.w3.org/1999/xlink" x="0px" y="0px"
	 viewBox="0 0 168.3 167.4" enable-background="new 0 0 168.3 167.4" xml:space="preserve">
<g>
	<path fill="#508AFE" d="M120.6,129.4c-9.7,4.6-18.9,10.2-29.7,12.2c-8.6,1.6-16.5,0.1-24.3-3.3c-10.2-4.4-20.2-9.3-30.3-13.9
		c-7.2-3.3-10.5-9.2-10.7-16.6c-0.3-14.5-0.5-29,0-43.4c0.5-13.4,9.3-27.4,28-26.7c1.4,1.2,3.2,0.7,4.8,0.7c7.8,0,15.6,0,23.4,0
		c1.5,0,3.2-0.2,4.4,0.5C92.6,43,99,47,103.6,53.3c-7,1.2-14,3.4-21.1,2.7c-9.4-0.8-18.7-2.6-28-4.1C43.6,50,34.9,56.4,33.4,67.4
		c-0.2,0.2-0.2,0.3,0,0.5c-0.7,0.7-0.8,1.5-0.6,2.4c-0.6,10.9,4.1,18.2,14.1,22c10.3,3.8,20.6,7.5,30.8,11.5c4.4,1.7,8.6,1.8,13,0.1
		c11.9-4.6,23.9-9,35.9-13.5c-0.2,7.6,0.6,15.2-1.1,22.7C124.1,118.7,121.2,123.7,120.6,129.4z M57.5,110.3c-4,4.4-4.3,9.8,0.2,12.3
		c7.5,4.1,15,8.3,23.9,9.1c10.2,0.9,18.7-3.6,27.3-7.8c5.9-2.9,6.8-7.8,2.5-13.4c-2.3-2.8-5-1.9-7.7-0.8
		c-11.1,4.6-22.2,6.7-33.8,1.8c-2.1-0.9-4.4-1.4-6.6-2.3C61.2,108.4,59.2,108.4,57.5,110.3z"/>
	<path fill="#3E7EDB" d="M103.6,53.3C99,47,92.6,43,86.2,39c-1.1-0.7-2.9-0.5-4.4-0.5c-7.8,0-15.6,0-23.4,0c-1.6,0-3.3,0.5-4.8-0.7
		c2.4-8.2,5.6-10.8,12.3-10.3c3.5,0.2,5.6,2.6,7.9,4.7c6.9-8.5,12.2-9,19.4-1.6c1.5,1.5,1.9,0.7,3.1-0.1c7.5-5.6,14.4-3.8,17.9,4.7
		c0.7,1.8,1.5,2.4,3.4,2.7c15.3,1.7,24.5,11,25,26.4c0.5,14.5,0.3,29,0.1,43.4c-0.1,8.2-3.8,14.3-11.7,17.4c-3.5,1.4-7,3-10.5,4.4
		c0.6-5.7,3.6-10.7,4.8-16.2c1.8-7.5,0.9-15.1,1.1-22.7c7.4-5.5,10.3-12.9,8.9-22.1c-1-11.3-10.2-18.5-21.2-16.6
		C110.8,52.4,107.2,52.8,103.6,53.3z"/>
	<path fill="#FCFCFD" d="M135.5,68.4c1.4,9.1-1.5,16.5-8.9,22.1c-12,4.5-24,8.8-35.9,13.5c-4.5,1.7-8.6,1.7-13-0.1
		c-10.2-4-20.5-7.7-30.8-11.5c-10-3.7-14.7-11.1-14.1-22c0.8-0.7,0.8-1.5,0.6-2.4c-0.1-0.2-0.1-0.4,0-0.5c1.3-0.6,1.5-2.1,2.3-3.1
		c3.9-5.3,8.6-9.5,15.7-8.8c5.1,0.5,10.1,1.7,15.2,2.4c6.7,0.8,13.4,3,20.2,2.4c7.7-0.7,15.3-2.7,23-3.6c4-0.5,7.9-1.9,12.3-0.7
		C129,57.8,132.1,63.1,135.5,68.4z M49.3,83.5c3.8-2.7,7.3-4.2,11.5-2.6c3.9,1.5,5.8,4.9,7.6,8.6c4.5-6.5,4.4-13.8,0.2-18.8
		c-3.2-3.8-8-5-12.5-3.1C51.1,69.8,48.3,75.9,49.3,83.5z M100.2,89.7c1.9-4.2,4-7.4,8.1-8.9c4.1-1.5,7.5,0.7,11.1,2.4
		c0.7-8-2-14.1-7.4-15.6c-4.4-1.2-8.8-0.7-12,3.3C95.7,76.1,95.6,83,100.2,89.7z"/>
	<path fill="#FCFCFD" d="M111.5,110.5c4.2,5.5,3.4,10.5-2.5,13.4c-8.6,4.2-17.1,8.7-27.3,7.8c-8.9-0.8-16.5-4.9-23.9-9.1
		c-4.4-2.4-4.1-7.9-0.2-12.3c8.2,5.1,16.5,9.2,26.6,9.3C94.6,119.7,102.8,114.6,111.5,110.5z"/>
	<path fill="#E0E2E5" d="M135.5,68.4c-3.3-5.4-6.5-10.6-13.4-12.5c-4.4-1.2-8.3,0.2-12.3,0.7c-7.7,0.9-15.3,2.8-23,3.6
		c-6.8,0.7-13.4-1.5-20.2-2.4c-5.1-0.6-10.1-1.9-15.2-2.4c-7.1-0.7-11.8,3.4-15.7,8.8c-0.8,1.1-1,2.5-2.3,3.1
		C34.9,56.4,43.6,50,54.5,51.9c9.3,1.6,18.6,3.3,28,4.1c7.1,0.6,14.1-1.5,21.1-2.7c3.6-0.5,7.2-0.9,10.7-1.5
		C125.3,49.9,134.4,57.1,135.5,68.4z"/>
	<path fill="#E0E2E5" d="M111.5,110.5c-8.7,4.2-16.9,9.3-27.3,9.1c-10.1-0.2-18.4-4.2-26.6-9.3c1.7-1.9,3.7-1.9,5.9-1.1
		c2.2,0.8,4.5,1.4,6.6,2.3c11.6,4.9,22.7,2.8,33.8-1.8C106.5,108.6,109.2,107.7,111.5,110.5z"/>
	<path fill="#E0E2E5" d="M33.3,68c0.2,0.9,0.3,1.8-0.6,2.4C32.6,69.5,32.6,68.7,33.3,68z"/>
	<path fill="#424353" d="M49.3,83.5c-1-7.6,1.8-13.8,6.7-15.8c4.5-1.9,9.3-0.7,12.5,3.1c4.2,5,4.3,12.3-0.2,18.8
		c-1.8-3.7-3.7-7.1-7.6-8.6C56.6,79.4,53.1,80.8,49.3,83.5z"/>
	<path fill="#424353" d="M100.2,89.7c-4.6-6.7-4.5-13.6-0.3-18.8c3.3-4,7.7-4.5,12-3.3c5.4,1.5,8.1,7.6,7.4,15.6
		c-3.5-1.7-6.9-3.9-11.1-2.4C104.2,82.2,102.1,85.5,100.2,89.7z"/>
</g>
</svg>
