<?xml version="1.0" encoding="utf-8"?>
<!-- Generator: Adobe Illustrator 18.0.0, SVG Export Plug-In . SVG Version: 6.00 Build 0)  -->
<!DOCTYPE svg PUBLIC "-//W3C//DTD SVG 1.1//EN" "http://www.w3.org/Graphics/SVG/1.1/DTD/svg11.dtd">
<svg version="1.1" xmlns="http://www.w3.org/2000/svg" xmlns:xlink="http://www.w3.org/1999/xlink" x="0px" y="0px"
	 viewBox="0 0 800 800" enable-background="new 0 0 800 800" xml:space="preserve">
<g id="Layer_2">
</g>
<g id="Layer_1">
	<g>
		<g>
			
				<rect x="347.7" y="316.9" transform="matrix(0.769 0.6393 -0.6393 0.769 348.8904 -155.7988)" fill="#434343" width="84.5" height="175.9"/>
			<g>
				<g>
					
						<rect x="130.6" y="489" transform="matrix(0.769 0.6393 -0.6393 0.769 372.4045 7.1063)" fill="#434343" width="91.6" height="59.5"/>
					<path opacity="0.3" fill="#434343" d="M192.6,570.9l20.5-24.7c-1.1-3.7-3.3-7.2-6.5-9.9l-59.9-49.8c-0.6-0.5-1.3-0.9-2-1.3
						l-22.5,27.1L192.6,570.9z"/>
					
						<rect x="348.9" y="170.2" transform="matrix(0.769 0.6393 -0.6393 0.769 218.2368 -223.2184)" fill="#434343" width="138" height="40.3"/>
					<polygon fill="#FFD847" points="149.3,451.9 342.2,153.5 374.8,180.7 468,258.1 242.5,529.3 					"/>
					<polygon opacity="0.2" fill="#FFFFFF" points="228.4,515.4 150.3,450.4 149.3,451.9 242.5,529.3 468,258.1 452.8,245.5 					
						"/>
					<polygon opacity="0.3" fill="#F56C00" points="179.8,469.2 246.4,524.6 242.5,529.3 149.3,451.9 342.2,153.5 369.3,176 					
						"/>
					<g>
						<path fill="#666666" d="M474.6,250.1L348.8,145.5c-4.4-3.7-11-3.1-14.6,1.3c-3.7,4.4-3.1,11,1.3,14.6l125.8,104.6
							c4.4,3.7,11,3.1,14.6-1.3C479.6,260.3,479,253.8,474.6,250.1z"/>
					</g>
					<g>
						<path fill="#666666" d="M249.1,521.4L156,443.9c-4.4-3.7-11-3.1-14.6,1.3c-3.7,4.4-3.1,11,1.3,14.6l93.2,77.5
							c4.4,3.7,11,3.1,14.6-1.4C254.2,531.6,253.5,525,249.1,521.4z"/>
					</g>
					<polygon opacity="0.3" fill="#F56C00" points="275.3,256.9 389.9,352.1 327,427.6 221.6,340 					"/>
					<polygon fill="#666666" points="532.8,180.2 407,75.6 361.9,129.8 487.7,234.4 					"/>
					<path fill="#666666" d="M94.1,521c-7.3,8.8-6.1,21.9,2.7,29.3l59.9,49.8c8.8,7.3,21.9,6.1,29.3-2.7l17.5-21
						c7.3-8.8,6.1-21.9-2.7-29.3l-59.9-49.8c-8.8-7.3-21.9-6.1-29.3,2.7L94.1,521z"/>
				</g>
				<g>
					<polygon fill="#434343" points="300.8,583.6 371.2,642.1 333.2,687.8 262.8,629.3 					"/>
					<path opacity="0.3" fill="#434343" d="M333.2,687.8l21.8-26.3c-1.2-2.1-2.7-4-4.6-5.6l-59.9-49.8c-1.8-1.5-3.8-2.5-5.8-3.3
						l-22,26.4L333.2,687.8z"/>
					
						<rect x="526.8" y="318.1" transform="matrix(-0.769 -0.6393 0.6393 -0.769 837.7722 979.1818)" fill="#434343" width="138" height="40.3"/>
					<polygon fill="#FFD847" points="387.7,650.1 645.9,406 613.2,378.8 520,301.4 294.5,572.6 					"/>
					<polygon opacity="0.2" fill="#FFFFFF" points="373.7,636.1 295.6,571.3 294.5,572.6 387.7,650.1 645.9,406 630.5,393.3 					
						"/>
					<polygon opacity="0.3" fill="#F56C00" points="325,590 392.2,645.8 387.7,650.1 294.5,572.6 520,301.4 546.6,323.4 					"/>
					<g>
						<path fill="#666666" d="M526.7,293.4L652.5,398c4.4,3.7,5,10.2,1.3,14.6c-3.7,4.4-10.2,5-14.6,1.3L513.4,309.4
							c-4.4-3.7-5-10.2-1.4-14.6C515.7,290.3,522.3,289.7,526.7,293.4z"/>
					</g>
					<g>
						<path fill="#666666" d="M301.2,564.6l93.2,77.4c4.4,3.7,5,10.2,1.3,14.6c-3.7,4.4-10.2,5-14.6,1.3l-93.2-77.5
							c-4.4-3.7-5-10.2-1.3-14.6C290.2,561.6,296.8,561,301.2,564.6z"/>
					</g>
					<polygon opacity="0.3" fill="#F56C00" points="556.4,490.6 441.9,395.4 379.1,470.9 484.5,558.5 					"/>
					
						<rect x="543.4" y="267.6" transform="matrix(-0.769 -0.6393 0.6393 -0.769 912.3258 935.4571)" fill="#666666" width="163.6" height="70.5"/>
					<path fill="#666666" d="M329.9,716.9c-7.3,8.8-20.4,10-29.3,2.7l-59.9-49.8c-8.8-7.3-10-20.4-2.7-29.3l17.5-21
						c7.3-8.8,20.4-10,29.3-2.7l59.9,49.8c8.8,7.3,10,20.4,2.7,29.3L329.9,716.9z"/>
				</g>
			</g>
			<g>
				<g>
					<path fill="#666666" d="M392.1,507.4l-103.3-85.9c-4.4-3.7-11-3.1-14.6,1.3c-3.7,4.4-3.1,11,1.4,14.6l103.3,85.9
						c4.4,3.7,11,3.1,14.6-1.3C397.2,517.6,396.6,511,392.1,507.4z"/>
				</g>
				<g>
					<path fill="#666666" d="M504.5,372.2l-103.3-85.9c-4.4-3.7-11-3.1-14.6,1.3c-3.7,4.4-3.1,11,1.4,14.6l103.3,85.9
						c4.4,3.7,11,3.1,14.6-1.3C509.6,382.4,508.9,375.8,504.5,372.2z"/>
				</g>
			</g>
			<path fill="#666666" d="M415.8,410.5c7.3-8.8,6.1-21.9-2.7-29.3l-4.1-3.4c-8.8-7.3-21.9-6.1-29.3,2.7l-28.4,34.1
				c-7.3,8.8-6.1,21.9,2.7,29.3l4.1,3.4c8.8,7.3,21.9,6.1,29.3-2.7L415.8,410.5z"/>
		</g>
		<g opacity="0.2">
			<path fill="#FFFFFF" d="M240,516.1c0.3,3.3-0.7,6.6-2.8,9.1c-2.6,3.1-6.7,4.6-10.7,4.3l9.3,7.8c4.4,3.7,11,3.1,14.6-1.4
				c3.7-4.4,3.1-11-1.3-14.6l-9.8-8.1C239.7,514.2,239.9,515.1,240,516.1z"/>
			<path fill="#FFFFFF" d="M195.4,548.9c0.6,6.1-1.3,12-5.2,16.7l-17.5,21c-4.4,5.2-10.8,8.2-17.6,8.2c-1.9,0-3.8-0.3-5.6-0.8l7.2,6
				c8.8,7.3,21.9,6.1,29.3-2.7l17.5-21c7.3-8.8,6.1-21.9-2.7-29.3l-7.8-6.5C194.3,543.1,195.1,545.9,195.4,548.9z"/>
			<path fill="#FFFFFF" d="M385.2,636.9c0.3,3.3-0.7,6.6-2.8,9.1c-2.6,3.1-6.7,4.6-10.7,4.3l9.3,7.8c4.4,3.7,11,3.1,14.6-1.3
				c3.7-4.4,3.1-11-1.3-14.6l-9.8-8.1C384.9,634.9,385.2,635.9,385.2,636.9z"/>
			<path fill="#FFFFFF" d="M334.1,685.2l-17.5,21c-4.4,5.2-10.8,8.2-17.6,8.2c-1.9,0-3.7-0.3-5.6-0.8l7.2,6
				c8.8,7.3,21.9,6.1,29.3-2.7l17.5-21c7.3-8.8,6.1-21.9-2.7-29.3l-7.8-6.5C340.9,668,340.1,677.9,334.1,685.2z"/>
		</g>
	</g>
</g>
</svg>
