<?xml version="1.0" encoding="UTF-8" standalone="no"?>
<svg width="57px" height="59px" viewBox="0 0 57 59" version="1.1" xmlns="http://www.w3.org/2000/svg" xmlns:xlink="http://www.w3.org/1999/xlink">
    <!-- Generator: Sketch 50.2 (55047) - http://www.bohemiancoding.com/sketch -->
    <title>Group 52</title>
    <desc>Created with Sketch.</desc>
    <defs>
        <polygon id="path-1" points="0 0.0961956522 25.7307087 0.0961956522 25.7307087 35.057971 0 35.057971"></polygon>
    </defs>
    <g id="BizMap_v5" stroke="none" stroke-width="1" fill="none" fill-rule="evenodd">
        <g id="Kid-dashboard-(first-use)-(marvin)-Copy-4" transform="translate(-597.000000, -203.000000)">
            <g id="Group-16-Copy-2" transform="translate(34.000000, 163.000000)">
                <g id="Group-52" transform="translate(563.000000, 40.000000)">
                    <ellipse id="Oval-Copy-7" fill="#FFFFFF" fill-rule="nonzero" cx="28.5" cy="29.5" rx="28.5" ry="29.5"></ellipse>
                    <g id="Group-34" transform="translate(15.695652, 10.260870)">
                        <g id="Group-3" transform="translate(0.000000, 2.462523)">
                            <mask id="mask-2" fill="white">
                                <use xlink:href="#path-1"></use>
                            </mask>
                            <g id="Clip-2"></g>
                            <path d="M24.859187,0.0961956522 L0.8721,0.0961956522 C0.390491304,0.0961956522 -0.000247826087,0.500644928 -0.000247826087,0.999152174 L-0.000247826087,34.155442 C-0.000247826087,34.6539493 0.390491304,35.0583986 0.8721,35.0583986 L24.859187,35.0583986 C25.3407957,35.0583986 25.7307087,34.6539493 25.7307087,34.155442 L25.7307087,0.999152174 C25.7307087,0.500644928 25.3407957,0.0961956522 24.859187,0.0961956522" id="Fill-1" fill="#4FC3F7" mask="url(#mask-2)"></path>
                        </g>
                        <polygon id="Fill-4" fill="#FAFAFA" points="24.7631957 3.6226 24.7631957 28.957542 18.8409783 35.0884116 0.96776087 35.0884116 0.96776087 3.6226"></polygon>
                        <path d="M16.7830304,1.99385797 L8.94842174,1.99385797 C8.79311739,1.99385797 8.66755217,2.12382899 8.66755217,2.28458261 L8.66755217,4.32649565 C8.66755217,4.4863942 8.79311739,4.61722029 8.94842174,4.61722029 L16.7830304,4.61722029 C16.9383348,4.61722029 17.0639,4.4863942 17.0639,4.32649565 L17.0639,2.28458261 C17.0639,2.12382899 16.9383348,1.99385797 16.7830304,1.99385797" id="Fill-6" fill="#E0E0E0"></path>
                        <path d="M12.8655609,1.46738986 C12.6722565,1.46738986 12.5153,1.30492609 12.5153,1.10483913 C12.5153,0.904752174 12.6722565,0.742288406 12.8655609,0.742288406 C13.0588652,0.742288406 13.2158217,0.904752174 13.2158217,1.10483913 C13.2158217,1.30492609 13.0588652,1.46738986 12.8655609,1.46738986 M12.8655609,8.55072465e-05 C12.0444304,8.55072465e-05 11.3786043,0.689273913 11.3786043,1.53921594 L11.3786043,2.20959275 L14.3525174,2.20959275 L14.3525174,1.53921594 C14.3525174,0.689273913 13.6866913,8.55072465e-05 12.8655609,8.55072465e-05" id="Fill-8" fill="#E0E0E0"></path>
                        <polygon id="Fill-10" fill="#BDBDBD" points="11.3785217 1.99394348 14.3532609 1.99394348 14.3532609 1.73485652 11.3785217 1.73485652"></polygon>
                        <path d="M16.2944,2.33058551 L9.45935652,2.33058551 C9.36766087,2.33058551 9.29248696,2.40754203 9.29248696,2.50331014 C9.29248696,2.59822319 9.36766087,2.67603478 9.45935652,2.67603478 L16.2944,2.67603478 C16.3869217,2.67603478 16.4612696,2.59822319 16.4612696,2.50331014 C16.4612696,2.40754203 16.3869217,2.33058551 16.2944,2.33058551" id="Fill-12" fill="#D3D3D3"></path>
                        <path d="M16.2944,2.90485217 L9.45935652,2.90485217 C9.36766087,2.90485217 9.29248696,2.9818087 9.29248696,3.07757681 C9.29248696,3.17248986 9.36766087,3.25030145 9.45935652,3.25030145 L16.2944,3.25030145 C16.3869217,3.25030145 16.4612696,3.17248986 16.4612696,3.07757681 C16.4612696,2.9818087 16.3869217,2.90485217 16.2944,2.90485217" id="Fill-14" fill="#D3D3D3"></path>
                        <path d="M16.2944,3.47903333 L9.45935652,3.47903333 C9.36766087,3.47903333 9.29248696,3.55598986 9.29248696,3.65175797 C9.29248696,3.74667101 9.36766087,3.82448261 9.45935652,3.82448261 L16.2944,3.82448261 C16.3869217,3.82448261 16.4612696,3.74667101 16.4612696,3.65175797 C16.4612696,3.55598986 16.3869217,3.47903333 16.2944,3.47903333" id="Fill-16" fill="#D3D3D3"></path>
                        <polygon id="Fill-18" fill="#EEEEEE" points="18.8411435 35.0882406 24.7633609 28.9582261 18.8411435 28.9582261"></polygon>
                        <polygon id="Fill-20" fill="#BDBDBD" points="18.8413913 35.0879841 23.4443478 33.7224333 24.7636087 28.9579696"></polygon>
                        <polygon id="Clip-23" points="0 37.5204942 25.7309565 37.5204942 25.7309565 -8.55072465e-05 0 -8.55072465e-05"></polygon>
                        <polygon id="Fill-22" fill="#BDBDBD" points="8.92917391 9.4305087 22.4588261 9.4305087 22.4588261 8.39245072 8.92917391 8.39245072"></polygon>
                        <polygon id="Fill-24" fill="#757575" points="6.11221739 7.07820435 19.6418696 7.07820435 19.6418696 6.04014638 6.11221739 6.04014638"></polygon>
                        <polygon id="Fill-25" fill="#BDBDBD" points="8.92917391 11.2834507 22.4588261 11.2834507 22.4588261 10.2453928 8.92917391 10.2453928"></polygon>
                        <polygon id="Fill-26" fill="#BDBDBD" points="8.92917391 13.1363928 22.4588261 13.1363928 22.4588261 12.0983348 8.92917391 12.0983348"></polygon>
                        <polygon id="Fill-27" fill="#BDBDBD" points="8.92917391 17.138987 22.4588261 17.138987 22.4588261 16.100929 8.92917391 16.100929"></polygon>
                        <polygon id="Fill-28" fill="#BDBDBD" points="8.92917391 18.991929 22.4588261 18.991929 22.4588261 17.953871 8.92917391 17.953871"></polygon>
                        <polygon id="Fill-29" fill="#BDBDBD" points="8.92917391 20.844871 22.4588261 20.844871 22.4588261 19.806813 8.92917391 19.806813"></polygon>
                        <polygon id="Fill-30" fill="#BDBDBD" points="8.92917391 24.8474652 22.4588261 24.8474652 22.4588261 23.8094072 8.92917391 23.8094072"></polygon>
                        <polygon id="Fill-31" fill="#BDBDBD" points="8.92917391 26.7004072 22.4588261 26.7004072 22.4588261 25.6623493 8.92917391 25.6623493"></polygon>
                        <polygon id="Fill-32" fill="#BDBDBD" points="8.92917391 28.5533493 22.4588261 28.5533493 22.4588261 27.5152913 8.92917391 27.5152913"></polygon>
                        <path d="M17.0639826,4.16651159 L17.0639826,4.32555507 C17.0639826,4.4863087 16.9384174,4.61627971 16.783113,4.61627971 L8.94850435,4.61627971 C8.7932,4.61627971 8.66763478,4.4863087 8.66763478,4.32555507 L8.66763478,4.16651159 L17.0639826,4.16651159 Z" id="Fill-33" fill="#BDBDBD"></path>
                        <polygon id="Fill-34" fill="#BDBDBD" points="17.0639826 4.3258971 17.8264609 2.55846232 17.0639826 2.55846232"></polygon>
                        <path d="M4.08086957,12.2992768 L7.04652174,12.2992768 L7.04652174,9.22956667 L4.08086957,9.22956667 L4.08086957,12.2992768 Z M3.27213043,13.1363928 L7.85526087,13.1363928 L7.85526087,8.39245072 L3.27213043,8.39245072 L3.27213043,13.1363928 Z" id="Fill-35" fill="#E0E0E0"></path>
                        <path d="M4.08086957,20.0077551 L7.04652174,20.0077551 L7.04652174,16.9380449 L4.08086957,16.9380449 L4.08086957,20.0077551 Z M3.27213043,20.844871 L7.85526087,20.844871 L7.85526087,16.100929 L3.27213043,16.100929 L3.27213043,20.844871 Z" id="Fill-36" fill="#E0E0E0"></path>
                        <path d="M4.08086957,27.7162333 L7.04652174,27.7162333 L7.04652174,24.6465232 L4.08086957,24.6465232 L4.08086957,27.7162333 Z M3.27213043,28.5533493 L7.85526087,28.5533493 L7.85526087,23.8094072 L3.27213043,23.8094072 L3.27213043,28.5533493 Z" id="Fill-37" fill="#E0E0E0"></path>
                        <polygon id="Fill-38" fill="#66BB6A" points="5.24631304 11.9852942 3.79818261 9.9450913 4.54413913 9.37817826 5.39831304 10.5812652 7.8394 8.39227971 8.44574783 9.11652609"></polygon>
                        <polygon id="Fill-39" fill="#66BB6A" points="5.24631304 19.6937725 3.79818261 17.6535696 4.54413913 17.0866565 5.39831304 18.2897435 7.8394 16.100758 8.44574783 16.8250043"></polygon>
                        <polygon id="Fill-40" fill="#66BB6A" points="5.24631304 27.4022507 3.79818261 25.3620478 4.54413913 24.7951348 5.39831304 25.9982217 7.8394 23.8092362 8.44574783 24.5334826"></polygon>
                    </g>
                </g>
            </g>
        </g>
    </g>
</svg>