<?xml version="1.0" encoding="utf-8"?>
<!-- Generator: Adobe Illustrator 18.0.0, SVG Export Plug-In . SVG Version: 6.00 Build 0)  -->
<!DOCTYPE svg PUBLIC "-//W3C//DTD SVG 1.1//EN" "http://www.w3.org/Graphics/SVG/1.1/DTD/svg11.dtd">
<svg version="1.1" id="Capa_1" xmlns="http://www.w3.org/2000/svg" xmlns:xlink="http://www.w3.org/1999/xlink" x="0px" y="0px"
	 viewBox="-1097.9 132.4 435.6 138.7" enable-background="new -1097.9 132.4 435.6 138.7" xml:space="preserve">
<path fill="#65C8D0" d="M-679.1,179v-36c0-5.8-4.7-10.5-10.5-10.5s-10.5,4.7-10.5,10.5v36c0,7-5.7,12.7-12.7,12.7h-144
	c-4.5,0-42,0-46.5,0h-144.4c-6.9,0-12.5-5.6-12.5-12.5v-36c0-5.8-4.7-10.5-10.5-10.5s-10.5,4.7-10.5,10.5v36
	c0,18.4,15,33.5,33.5,33.5h144.4c6.9,0,12.5,5.6,12.5,12.5v35.5c0,5.8,4.7,10.5,10.5,10.5c0.1,0,0.1,0,0.2,0c0.1,0,0.1,0,0.2,0
	c5.8,0,10.5-4.7,10.5-10.5v-35.3c0-7,5.7-12.7,12.7-12.7h144C-694.2,212.6-679.1,197.5-679.1,179z"/>
</svg>
