<?xml version="1.0" encoding="utf-8"?>
<!-- Generator: Adobe Illustrator 18.0.0, SVG Export Plug-In . SVG Version: 6.00 Build 0)  -->
<!DOCTYPE svg PUBLIC "-//W3C//DTD SVG 1.1//EN" "http://www.w3.org/Graphics/SVG/1.1/DTD/svg11.dtd">
<svg version="1.1" xmlns="http://www.w3.org/2000/svg" xmlns:xlink="http://www.w3.org/1999/xlink" x="0px" y="0px"
	 viewBox="0 0 527 130" enable-background="new 0 0 527 130" xml:space="preserve">
<g id="Capa_2">
</g>
<g id="Layer_1">
	<path fill-rule="evenodd" clip-rule="evenodd" fill="#4E88FE" d="M524.6,56.4c-2.3,5.4-6.1,10-10.9,13.3
		c-4.8,3.2-10.6,5.2-16.8,5.2l-211.3,0c-1.9,0-3.7,0.4-5.3,1.1c-2.4,1-4.5,2.8-6,4.9c-1.5,2.2-2.3,4.8-2.3,7.6v33.3
		c0,4.6-3.7,8.3-8.3,8.3c-4.9,0-8.6-3.7-8.6-8.3l0-33.5c0-1.9-0.4-3.6-1.1-5.2c-1-2.4-2.7-4.5-4.9-5.9c-2.2-1.4-4.7-2.3-7.5-2.3
		H29.9c-4.1,0-8.1-0.8-11.7-2.4c-5.4-2.3-9.9-6.1-13.2-10.8C1.9,56.8,0,51,0,44.9V8.3C0,3.7,3.7,0,8.3,0c4.6,0,8.3,3.7,8.3,8.3v36.4
		c0,2.1,0.4,3.8,1.1,5.4c1,2.4,2.7,4.5,4.9,5.9c2.2,1.4,4.7,2.3,7.5,2.3h211.7c4.1,0,8.1,0.8,11.7,2.4c0.7,0.3,1.4,0.6,2.1,1V8.3
		c0-4.6,3.7-8.3,8.3-8.3c4.6,0,8.3,3.7,8.3,8.3v53.3c4.1-2.1,8.7-3.2,13.6-3.2l211.3,0c1.9,0,3.7-0.4,5.3-1.1c2.4-1,4.5-2.8,6-4.9
		c1.5-2.2,2.3-4.8,2.3-7.6l-0.1-36.4c0-4.6,3.7-8.3,8.2-8.3c4.6,0,8.3,3.7,8.3,8.2l0.1,36.4C527,48.8,526.2,52.8,524.6,56.4z"/>
</g>
</svg>
