<?xml version="1.0" encoding="utf-8"?>
<!-- Generator: Adobe Illustrator 18.0.0, SVG Export Plug-In . SVG Version: 6.00 Build 0)  -->
<!DOCTYPE svg PUBLIC "-//W3C//DTD SVG 1.1//EN" "http://www.w3.org/Graphics/SVG/1.1/DTD/svg11.dtd">
<svg version="1.1" id="Capa_1" xmlns="http://www.w3.org/2000/svg" xmlns:xlink="http://www.w3.org/1999/xlink" x="0px" y="0px"
	 viewBox="0 0 445 346.1" enable-background="new 0 0 445 346.1" xml:space="preserve">
<g>
	<path fill="#FFFFFF" d="M247.8,75.9c0.4-0.2,0.2-0.9-0.2-0.9c-2,0-3.8,0.4-5.6,1.1c0.9-4.5,1.7-8.8,4.1-13.1
		c2.9-5.2,7.1-9.7,12.2-12.8c11.2-6.7,23.1-5.2,34.6-0.9c-0.4,2.1-0.6,4.2-0.4,6.4c0.1,0.6,1,0.8,1.2,0.2
		c3.8-12.4,11.6-23,25.8-23.4c6.7-0.2,13.1,2.2,18,6.8c4.2,3.9,5.9,8.7,8.5,13.6c0.5,1,2,0.5,2.1-0.6c0.1-2.5-0.4-4.9-1.2-7.2
		c7.8-0.9,15.1-2.4,22.3,2.8c7.6,5.6,7.9,14.1,4.8,22.2c-0.3,0.8,0.8,1.2,1.3,0.7c2.9-2.4,4.3-5.6,4.5-9
		c13.4,4.4,23.7,13.8,22.7,29.4c-0.9,15-14.3,33.5-31.1,28.9c-0.7-0.2-1.2,0-1.6,0.4c-0.4,0.3-0.8,0.7-0.8,1.3
		c-2.2,20.6-26.5,29.6-41.2,14.7c-1-1.1-2.6-0.4-3.1,0.8c-4.6,11.9-18.3,3.1-23.9-2.4c-0.7-0.7-1.9-0.7-2.6,0
		c-2.6,2.3-5.8,3.6-9.4,3.4c-2.7-0.2-4.9-2.6-7.2-2.8c-1.8-0.2-3.3,1.1-4.9,1.7c-2.6,1-5.3,1.7-8.1,2.1c-13,1.8-28.5-6.4-26-20.9
		c1.4,0.3,2.8,0.3,4.4-0.1c0.1,0,0.1-0.1,0.1-0.2c-1.3-1.4-2.8-2.4-4.3-3.5c-0.2-0.2-0.4-0.3-0.6-0.4c-1.7-1.1-3.3-2.3-4.7-3.9
		c-3.4-3.8-5.4-8.7-5.4-13.8C231.9,86.7,239.7,80.1,247.8,75.9z"/>
</g>
<path opacity="0.5" fill="#4FC3F7" d="M228.2,96.6c-0.1,6.4,4.2,16.7,10.8,20.5c-2.9,14.3,9.5,25.5,23.4,26.3
	c4.4,0.2,8.9-0.5,13.2-1.8c3.6-1.1,4.3-1.7,7.9-0.6c5.8,1.8,11.1,1.4,15.9-2.1c4.7,4.5,10.4,8.7,17.2,8.2c4.5-0.3,8.2-2.5,10.5-6.1
	c16.5,14,42.2,4.7,45-17.1c17.2,3.5,31.4-13.9,33.5-29.6c2.1-15-8.8-35.5-25.9-34.9c-0.4-4.6-2.7-9.3-6-12.4c-7-6.7-19.4-8.9-28-4.1
	c-5-9.3-17.2-15-27.2-14.4c-10.9,0.7-21.6,8.3-25,18.7c-10.9-7.4-27-6.3-37.8,0.6c-9.5,6-18.3,18.5-17.3,30.3
	C232.3,81.9,228.3,89.4,228.2,96.6z M231.8,96.6c0.1-9.9,7.9-16.5,16-20.6c0.4-0.2,0.2-0.9-0.2-0.9c-2,0-3.8,0.4-5.6,1.1
	c0.9-4.5,1.7-8.8,4.1-13.1c2.9-5.2,7.1-9.7,12.2-12.8c11.2-6.7,23.1-5.2,34.6-0.9c-0.4,2.1-0.6,4.2-0.4,6.4c0.1,0.6,1,0.8,1.2,0.2
	c3.8-12.4,11.6-23,25.8-23.4c6.7-0.2,13.1,2.2,18,6.8c4.2,3.9,5.9,8.7,8.5,13.6c0.5,1,2,0.5,2.1-0.6c0.1-2.5-0.4-4.9-1.2-7.2
	c7.8-0.9,15.1-2.4,22.3,2.8c7.6,5.6,7.9,14.1,4.8,22.2c-0.3,0.8,0.8,1.2,1.3,0.7c2.9-2.4,4.3-5.6,4.5-9
	c13.4,4.4,23.7,13.8,22.7,29.4c-0.9,15-14.3,33.5-31.1,28.9c-0.7-0.2-1.2,0-1.6,0.4c-0.4,0.3-0.8,0.7-0.8,1.3
	c-2.2,20.6-26.5,29.6-41.2,14.7c-1-1.1-2.6-0.4-3.1,0.8c-4.6,11.9-18.3,3.1-23.9-2.4c-0.7-0.7-1.9-0.7-2.6,0
	c-2.6,2.3-5.8,3.6-9.4,3.4c-2.7-0.2-4.9-2.6-7.2-2.8c-1.8-0.2-3.3,1.1-4.9,1.7c-2.6,1-5.3,1.7-8.1,2.1c-13,1.8-28.5-6.4-26-20.9
	c1.4,0.3,2.8,0.3,4.4-0.1c0.1,0,0.1-0.1,0.1-0.2c-1.3-1.4-2.8-2.4-4.3-3.5c-0.2-0.2-0.4-0.3-0.6-0.4c-1.7-1.1-3.3-2.3-4.7-3.9
	C233.8,106.6,231.8,101.7,231.8,96.6z"/>
<path opacity="0.5" fill="#A7E7F9" d="M237.1,83.8c-1.6,4.9-1.6,10.4,0.3,15.2c2.6,6.7,8.5,12.1,15.5,13.9
	c-0.9,4.7,1.1,9.9,4.9,12.8c3.8,2.9,9.3,3.4,13.6,1.3c1.3-0.6,2.6-1.5,4-1.3c1.6,0.2,2.7,1.8,3.8,3c2.8,3.1,7.2,4.7,11.4,4.2
	c4.2-0.5,8-3.2,10-6.9c0.5,6.1,7.6,10,13.6,8.7c6-1.3,10.4-6.5,12.6-12.2c4.5,7.9,15,11.8,23.6,8.8c8.6-3,14.3-12.6,13-21.6
	c5.7,5.3,14.9,5.7,21.9,2.1c6.9-3.6,11.7-10.5,14.2-17.9c1.1-3.3,1.9-6.7,2.4-10.2c0.5,2.4,0.7,4.9,0.5,7.6
	c-0.9,15-14.3,33.5-31.1,28.9c-0.7-0.2-1.2,0-1.6,0.4c-0.4,0.3-0.8,0.7-0.8,1.3c-2.2,20.6-26.5,29.6-41.2,14.7
	c-1-1.1-2.6-0.4-3.1,0.8c-4.6,11.9-18.3,3.1-23.9-2.4c-0.7-0.7-1.9-0.7-2.6,0c-2.6,2.3-5.8,3.6-9.4,3.4c-2.7-0.2-4.9-2.6-7.2-2.8
	c-1.8-0.2-3.3,1.1-4.9,1.7c-2.6,1-5.3,1.7-8.1,2.1c-13,1.8-28.5-6.4-26-20.9c1.4,0.3,2.8,0.3,4.4-0.1c0.1,0,0.1-0.1,0.1-0.2
	c-1.3-1.4-2.8-2.4-4.3-3.5c-0.2-0.2-0.4-0.3-0.6-0.4c-1.7-1.1-3.3-2.3-4.7-3.9c-3.4-3.8-5.4-8.7-5.4-13.8
	C231.9,91.5,234,87.2,237.1,83.8z"/>
<g>
	<path fill="#FFCD9F" d="M77.7,333.9c0,0-9.7,42.7-10.3,65.5c0,0-6.2,20.8-3.4,30.6c2.8,9.8,6.5,3,6.5,3s1.4,2,3.1,1.8
		c1.7-0.2,2.3-1.9,2.3-1.9s1.3,1.9,3.5,1.1c2.2-0.8,2.3-3,2.3-3s2.3,1,3.7,0.2c1.3-0.8,1-4.3,0-6.4c-1-2.1-2.1-5.5-2.1-6.6
		c0-1.1,2.5-14.2,0.1-18.7c-2.4-4.5-3.2-5.5-3.1-7.3c0.1-1.8,6.8-44.9,10.8-52.4c4.1-7.4-3.6-5.5-3.6-5.5l-5.1-1.2L77.7,333.9z"/>
	<path fill="#FFCD9F" d="M179.5,408.2c0,0,9-11.6,11-29.6c2-18-8.8-41.7-8.5-41.9c0.3-0.2-11.7-3.6-11.7-3.6l-1.2,6.3
		c0,0,6.6,19.5,8.2,34.8c1.6,15.2-7.4,26.8-7.4,26.8h-2.8c0,0-4.6,2.6-7,10.2c-2.4,7.6,0.2,8.2,2.4,7c0,0-1.4,7.8,2.2,6.6
		c0,0,0.4,4.9,3.6,5c0,0,1,2.4,3.3,2.2c2.3-0.2,5.3-4,4.9-12.2"/>
	<path fill="#6991AC" d="M159.6,329.5l8.3,70.1c0,0-39.6,20.4-80.5-4.8c0,0,4.4-41.6,4.8-54.9c0,0-11.2-0.4-16.8-8.8l12.8-39.2
		l31.8-12.1h20l27.9,11c0,0,18.8,33,21.2,36.6c0,0-3,15.3-25.2,11.4L159.6,329.5z"/>
	<path fill="#E2A879" d="M120,271v8.9c0,0,9.5,6,20,0V271h-16.2H120z"/>
	<path fill="#E2A879" d="M189.2,211.1c0,0-1.3-15.9,6.1-16.7c7.4-0.8,5.5,31.7-10.9,34.4L189.2,211.1z"/>
	<path fill="#E2A879" d="M68.8,197.4c0,0-4,1.2-3.4,11.4c0.6,10.2,8.1,16.4,8.1,16.4v-8.4c0,0-0.7-10.8-0.9-11.6
		C72.4,204.4,68.8,197.4,68.8,197.4z"/>
	<path fill="#FFCD9F" d="M68.7,194.4c0,0-0.1,79.3,62.8,79.3c53.5,0,59.5-73.9,59.5-73.9s-8.1-38.7-8.1-40.5
		c0-1.8-15.3-9.9-17.1-10.5c-1.8-0.6-45.9,0.3-48.1,0c-2.1-0.3-24.9,4.2-28.5,4.2c-3.6,0-9.6,1.8-10.2,3
		C78.3,157.2,68.7,194.4,68.7,194.4z"/>
	<path fill="#735360" d="M189.2,211.1c0,0-3.1,0.9-5.9,0l-6.2-22.1l1.2-3.6c0,0-3.4-18.4-11-24c0,0-16.4,7.8-38.4,7.2
		c-22-0.6-42.4-6.4-42.4-6.4s-5.6,2.4-10.8,18.2v8.8c0,0-5.4,9.4-6.2,13.2c0,0-5-10.8-0.7-35.4l-4.7-3.8l4.7-0.6l-17.1-14l13.8-2.2
		c0,0-13-7.6-16.6-12.6c-3.6-5-8.8-10-8.8-10s42.8-3.4,46.3-4.6c0,0-8.3-8-12.7-15.2c0,0,43.8,8.8,51,11c0,0-9-13.4-12.6-15.6
		c0,0,35.8,13.8,58.3,32.2c0,0-4.2-14.2-5.8-18.4c0,0,21.2,28.8,24.9,39.4C189.2,152.6,201.7,186.4,189.2,211.1z"/>
	<ellipse fill="#3E3947" cx="101.2" cy="208.5" rx="4.6" ry="5.8"/>
	<ellipse fill="#3E3947" cx="151.5" cy="208.5" rx="4.6" ry="5.8"/>
	<path fill="#735360" d="M104.4,189.7c0,0-2.5-2.4-5.7-1.8c-3.2,0.6-5.7,4.2-5.7,4.2s0.5-6.9,6.4-7.5c0,0,2.1-0.4,5,1V189.7z"/>
	<path fill="#735360" d="M145.7,183.6v5.1c0,0,7.4-5.4,13.9,2.3C159.6,191,158.5,179.9,145.7,183.6z"/>
	<path fill="#E2A879" d="M117.3,222.1c0,0-5.6,7.1,2.7,12.8c0,0-8.5,0.6-9.5-5.6C109.4,222.4,117.3,222.1,117.3,222.1z"/>
	<path fill="#FDF5ED" d="M108.6,242c0,0,0.1,1.8,0.8,4.2c6.2,1.7,24.4,5.5,40.5-1.8c1.5-4.2,1.6-7.8,1.6-7.8
		C134.7,248.7,108.6,242,108.6,242z"/>
	<g>
		<path fill="#9E005D" d="M109.5,246.3c0.7,2.2,2,4.8,4.3,7.1c2.1-2.1,5.1-3.7,8.3-4.9C116.5,248,112,246.9,109.5,246.3z"/>
		<path fill="#DA727E" d="M130.1,258.9c12.4-0.4,17.7-8.2,19.9-14.5c-9.5,4.4-19.8,4.8-27.9,4.1c-3.2,1.2-6.2,2.8-8.3,4.9
			C116.9,256.6,121.9,259.1,130.1,258.9z"/>
	</g>
	<path fill="#E2A879" d="M125.6,263.1c0,0,7.3,2.2,11.9-0.4C137.6,262.7,132.6,268.7,125.6,263.1z"/>
	<path fill="#455C7B" d="M141.4,280.4c0,0-24.3,57.5-51.1,84.8c0,0-1.2,13-1.5,15.6c0,0,51.5-39,71.7-92.9
		C160.5,287.9,142.8,280.9,141.4,280.4z"/>
	<path fill="#4A7891" d="M92.2,340c0,0,1.4-27.2,1.5-27.6c0.1-0.4-4.2,27.3-4.2,27.3L92.2,340z"/>
</g>
<path fill="#D71865" d="M280.5,164.7c-0.8-3.9,3.1-6,6.4-4.7c0.1,0,0.2,0.1,0.3,0.1c0.1,0.2,0.3,0.5,0.3,0.6
	c0.7,1.5,1.2,3.2,0.5,4.8C286.6,168.7,281.3,168.1,280.5,164.7z"/>
<path fill="#D71865" d="M265.8,178.9c1-1.3,2.6-1.3,3.8-0.6c0.6,1.7,1.3,4.1-0.9,4.8C266.1,183.9,264.2,180.9,265.8,178.9z"/>
<path fill="#FFFFFF" d="M280.5,164.7c-0.8-3.9,3.1-6,6.4-4.7c0.1,0,0.2,0.1,0.3,0.1c0.1,0.2,0.3,0.5,0.3,0.6
	c0.7,1.5,1.2,3.2,0.5,4.8C286.6,168.7,281.3,168.1,280.5,164.7z"/>
<path fill="#FFFFFF" d="M265.8,178.9c1-1.3,2.6-1.3,3.8-0.6c0.6,1.7,1.3,4.1-0.9,4.8C266.1,183.9,264.2,180.9,265.8,178.9z"/>
<path opacity="0.5" fill="#4FC3F7" d="M291.5,167c0.8-2,0.8-4.4-0.2-6.4c-0.2-0.3-0.4-0.6-0.6-1c-0.2-0.3-0.3-0.6-0.6-0.9
	c-2.9-3.6-8.4-4.1-11.5-0.5c-3.1,3.4-2.7,9.4,1.2,12C283.7,172.9,289.7,171.5,291.5,167z M286.9,160c0.1,0,0.2,0.1,0.3,0.1
	c0.1,0.2,0.3,0.5,0.3,0.6c0.7,1.5,1.2,3.2,0.5,4.8c-1.4,3.2-6.7,2.6-7.5-0.8C279.7,160.8,283.6,158.7,286.9,160z"/>
<path opacity="0.5" fill="#4FC3F7" d="M272.2,185.4c1.7-1.7,2.3-4.2,1.5-6.5c-1.8-4.9-8.3-5.6-11-1c-1.8,3.2,0,6.9,3.1,8.1
	c0,0.1,0.1,0.3,0.2,0.4C267.8,188.2,270.7,186.8,272.2,185.4z M269.5,178.3c0.6,1.7,1.3,4.1-0.9,4.8c-2.5,0.8-4.4-2.2-2.8-4.2
	C266.8,177.6,268.4,177.6,269.5,178.3z"/>
<path opacity="0.5" fill="#4FC3F7" d="M251.3,195.7c1.5-1.5,2.1-3.8,1.3-5.8c-1.6-4.4-7.5-5-9.8-0.9c-1.7,2.9,0,6.2,2.7,7.2
	c0,0.1,0.1,0.3,0.2,0.4C247.3,198.3,250,197.1,251.3,195.7z M248.9,189.4c0.5,1.5,1.1,3.7-0.8,4.3c-2.3,0.7-3.9-2-2.5-3.8
	C246.4,188.8,247.8,188.8,248.9,189.4z"/>
<path opacity="0.5" fill="#4FC3F7" d="M230.1,203.5c1.5-1.5,2.1-3.8,1.3-5.8c-1.6-4.4-7.5-5-9.8-0.9c-1.7,2.9,0,6.2,2.7,7.2
	c0,0.1,0.1,0.3,0.2,0.4C226.1,206.1,228.8,204.9,230.1,203.5z M227.7,197.2c0.5,1.5,1.1,3.7-0.8,4.3c-2.3,0.7-3.9-2-2.5-3.8
	C225.2,196.6,226.6,196.6,227.7,197.2z"/>
<g>
	<g>
		<path fill="#DFDFDF" d="M338.9,114.7h-40.8c-2.1,0-3.7-1.7-3.7-3.7V76.4h48.3V111C342.6,113,340.9,114.7,338.9,114.7z"/>
	</g>
	<g>
		<path fill="#F2F2F2" d="M338.9,112.1h-40.8c-2.1,0-3.7-1.7-3.7-3.7V73.8h48.3v34.5C342.6,110.4,340.9,112.1,338.9,112.1z"/>
	</g>
	<g>
		<path fill="#FE615D" d="M338.9,63.6h-40.8c-2.1,0-3.7,1.7-3.7,3.7v6.4h48.3v-6.4C342.6,65.3,340.9,63.6,338.9,63.6z"/>
	</g>
	<g>
		<rect x="298.9" y="77.4" fill="#BFBFC4" width="5.4" height="5.4"/>
	</g>
	<g>
		<rect x="307.4" y="77.4" fill="#BFBFC4" width="5.4" height="5.4"/>
	</g>
	<g>
		<rect x="324.3" y="101.5" fill="#BFBFC4" width="5.4" height="5.4"/>
	</g>
	<g>
		<rect x="332.8" y="101.5" fill="#FE615D" width="5.4" height="5.4"/>
	</g>
	<g>
		<rect x="298.9" y="85.5" fill="#BFBFC4" width="5.4" height="5.4"/>
	</g>
	<g>
		<rect x="307.4" y="85.5" fill="#BFBFC4" width="5.4" height="5.4"/>
	</g>
	<g>
		<rect x="315.9" y="85.5" fill="#BFBFC4" width="5.4" height="5.4"/>
	</g>
	<g>
		<rect x="324.3" y="85.5" fill="#BFBFC4" width="5.4" height="5.4"/>
	</g>
	<g>
		<rect x="332.8" y="85.5" fill="#FE615D" width="5.4" height="5.4"/>
	</g>
	<g>
		<rect x="298.9" y="93.6" fill="#BFBFC4" width="5.4" height="5.4"/>
	</g>
	<g>
		<rect x="307.4" y="93.6" fill="#4E88FE" width="5.4" height="5.4"/>
	</g>
	<g>
		<rect x="315.9" y="93.6" fill="#BFBFC4" width="5.4" height="5.4"/>
	</g>
	<g>
		<rect x="324.3" y="93.6" fill="#BFBFC4" width="5.4" height="5.4"/>
	</g>
	<g>
		<rect x="332.8" y="93.6" fill="#FE615D" width="5.4" height="5.4"/>
	</g>
	<g>
		<g>
			<path fill="#E8E9EA" d="M302.3,60.8v5.5c0,1.3,1,2.3,2.3,2.3V58.5C303.4,58.5,302.3,59.6,302.3,60.8z"/>
		</g>
		<g>
			<path fill="#DFDFDF" d="M304.6,58.5v10.2c1.3,0,2.3-1,2.3-2.3v-5.5C306.9,59.6,305.9,58.5,304.6,58.5z"/>
		</g>
	</g>
	<g>
		<g>
			<path fill="#E8E9EA" d="M330,60.8v5.5c0,1.3,1,2.3,2.3,2.3V58.5C331.1,58.5,330,59.6,330,60.8z"/>
		</g>
		<g>
			<path fill="#DFDFDF" d="M332.3,58.5v10.2c1.3,0,2.3-1,2.3-2.3v-5.5C334.6,59.6,333.6,58.5,332.3,58.5z"/>
		</g>
	</g>
</g>
</svg>
