<?xml version="1.0" encoding="utf-8"?>
<!-- Generator: Adobe Illustrator 18.0.0, SVG Export Plug-In . SVG Version: 6.00 Build 0)  -->
<!DOCTYPE svg PUBLIC "-//W3C//DTD SVG 1.1//EN" "http://www.w3.org/Graphics/SVG/1.1/DTD/svg11.dtd">
<svg version="1.1" xmlns="http://www.w3.org/2000/svg" xmlns:xlink="http://www.w3.org/1999/xlink" x="0px" y="0px"
	 viewBox="0 0 167.1 170" enable-background="new 0 0 167.1 170" xml:space="preserve">
<g id="Capa_2">
</g>
<g id="Layer_1">
	<g>
		<path fill="#FFFFFF" d="M96.3,164c35.8,0,64.9-29,64.9-64.9c0-35.8-29-64.9-64.9-64.9c-35.8,0-64.9,29-64.9,64.9
			C31.4,134.9,60.4,164,96.3,164z"/>
		<path fill="#FE615D" d="M96.3,170L96.3,170L96.3,170L96.3,170c-39.1,0-70.9-31.8-70.9-70.9c0-39.1,31.8-70.9,70.9-70.9
			c39.1,0,70.9,31.8,70.9,70.9c0,18.9-7.4,36.7-20.8,50.1C133,162.6,115.2,170,96.3,170z M96.3,40.2c-32.5,0-58.9,26.4-58.9,58.9
			c0,32.5,26.4,58.9,58.9,58.9l0,0h0c15.7,0,30.5-6.1,41.6-17.2c11.1-11.1,17.2-25.9,17.2-41.6C155.1,66.6,128.7,40.2,96.3,40.2z"/>
	</g>
	<g>
		<path fill="#FE615D" d="M1.2,54.1c-0.5-0.3-0.8-0.6-1-1c-0.2-0.4-0.2-0.8,0-1.3l7.7-13.1C8.2,38.2,8.5,38,9,38
			c0.5,0,1,0.1,1.4,0.4c0.5,0.3,0.8,0.6,1.1,1.1s0.2,0.8,0,1.2l-2.7,4.5l17.9,10.5c0.4,0.2,0.6,0.6,0.6,1.2c0,0.5-0.2,1.1-0.5,1.6
			c-0.3,0.6-0.7,1-1.2,1.2c-0.5,0.3-0.9,0.3-1.3,0L6.4,49.3l-2.7,4.6c-0.2,0.4-0.6,0.6-1.1,0.6C2.2,54.5,1.7,54.4,1.2,54.1z"/>
		<path fill="#FE615D" d="M14.6,35.6c-0.4-0.4-0.6-0.9-0.6-1.5c0-0.6,0.3-1.3,0.7-1.8c0.4-0.5,0.9-0.8,1.6-0.9
			c0.6-0.1,1.1,0,1.6,0.4c0.4,0.3,0.6,0.8,0.7,1.5c0,0.6-0.2,1.2-0.6,1.7c-0.5,0.6-1,0.9-1.7,1.1C15.6,36.1,15,36,14.6,35.6z
			 M31.5,49l-10.9-9c-0.3-0.3-0.5-0.7-0.4-1.1s0.3-1,0.7-1.5c0.4-0.5,0.9-0.8,1.3-1c0.5-0.2,0.9-0.1,1.2,0.2l10.9,9
			c0.3,0.2,0.4,0.6,0.3,1.2c0,0.5-0.3,1-0.6,1.5c-0.4,0.5-0.8,0.8-1.3,0.9C32.2,49.3,31.8,49.2,31.5,49z"/>
		<path fill="#FE615D" d="M35.4,42.9l-8.8-11.1c-0.3-0.3-0.3-0.7-0.2-1.2c0.2-0.5,0.5-0.9,1.1-1.3c0.5-0.4,0.9-0.6,1.4-0.6
			c0.5,0,0.8,0.1,1.1,0.5l0.7,0.9c-0.3-2.1,0.3-3.8,2-5.1c0.8-0.6,1.7-0.9,2.8-0.9c1,0,2.1,0.3,3,1c-0.3-1.3-0.2-2.5,0.2-3.6
			c0.4-1.1,1-2,1.8-2.6c1.4-1.1,2.9-1.5,4.8-1.2c1.8,0.3,3.4,1.3,4.8,3l5.3,6.7c0.2,0.3,0.2,0.7,0.1,1.2c-0.2,0.5-0.5,1-1,1.4
			c-0.5,0.4-1,0.6-1.5,0.6c-0.6,0-1-0.1-1.2-0.4l-5.3-6.7c-0.6-0.8-1.3-1.2-2.2-1.3c-0.8-0.1-1.5,0.1-2.2,0.6
			c-0.6,0.5-0.9,1.1-1,1.9c-0.1,0.8,0.2,1.6,0.8,2.4l5.3,6.7c0.3,0.4,0.3,0.8,0.1,1.3s-0.6,0.9-1.1,1.3c-0.5,0.4-1,0.6-1.5,0.7
			s-0.9,0-1.2-0.4l-5.3-6.7c-0.6-0.8-1.3-1.2-2.1-1.3c-0.8-0.1-1.6,0.1-2.2,0.6c-0.6,0.5-0.9,1.1-1,1.9s0.2,1.6,0.8,2.4l5.3,6.7
			c0.2,0.3,0.2,0.7,0.1,1.2s-0.5,1-1,1.4c-0.5,0.4-1,0.6-1.6,0.7C36,43.3,35.7,43.2,35.4,42.9z"/>
		<path fill="#FE615D" d="M48.5,7.5c-0.2-0.5-0.2-1.1,0.1-1.6c0.3-0.6,0.8-1,1.4-1.4c0.6-0.3,1.2-0.4,1.8-0.2c0.6,0.2,1,0.5,1.3,1
			c0.2,0.5,0.2,1,0,1.6c-0.2,0.6-0.7,1-1.3,1.3c-0.7,0.3-1.3,0.4-2,0.3C49.2,8.4,48.7,8,48.5,7.5z M58.3,26.7l-6.2-12.7
			c-0.2-0.4-0.2-0.8,0.1-1.2c0.3-0.4,0.7-0.8,1.3-1.1c0.6-0.3,1.1-0.4,1.6-0.3c0.5,0,0.8,0.3,1,0.7l6.2,12.7
			c0.2,0.3,0.1,0.7-0.2,1.2c-0.3,0.5-0.7,0.8-1.2,1.1c-0.6,0.3-1.1,0.4-1.6,0.3C58.8,27.2,58.5,27,58.3,26.7z"/>
		<path fill="#FE615D" d="M64.9,23.3L60.7,9.7c-0.1-0.4,0-0.8,0.3-1.2s0.8-0.7,1.5-0.9c0.6-0.2,1.1-0.2,1.5,0
			c0.5,0.1,0.8,0.4,0.9,0.8l0.3,1c0.1-0.9,0.5-1.7,1.2-2.4C67,6.3,67.9,5.8,69,5.4c1.6-0.5,3.2-0.2,4.8,0.8c1.6,1,2.7,2.5,3.3,4.4
			l2.5,8.2c0.1,0.4,0,0.8-0.4,1.2c-0.4,0.4-0.9,0.7-1.4,0.9c-0.6,0.2-1.1,0.2-1.6,0.1c-0.5-0.1-0.9-0.4-1-0.8L72.6,12
			c-0.2-0.8-0.8-1.4-1.6-1.9s-1.6-0.5-2.4-0.3c-0.8,0.2-1.3,0.7-1.7,1.5c-0.4,0.7-0.4,1.6-0.2,2.5l2.5,8.1c0.1,0.3,0,0.7-0.4,1.2
			c-0.4,0.4-0.8,0.7-1.4,0.9c-0.6,0.2-1.2,0.2-1.7,0.1C65.3,23.9,65,23.6,64.9,23.3z"/>
		<path fill="#FE615D" d="M81.2,22.8c-0.2-1.6,0.6-3,2.3-4c-1-0.4-1.6-1.1-1.7-2.2s0.4-2,1.6-3c-1.6-1-2.5-2.5-2.6-4.3l-0.1-0.8
			c-0.2-1.7,0.4-3.2,1.5-4.4S85,2.2,87,2c1.6-0.1,3,0.1,4.2,0.7c0.6-1.7,1.2-2.6,2-2.6c0.5-0.1,1,0.1,1.4,0.3s0.6,0.6,0.6,0.9
			c0,0.4-0.1,0.7-0.5,1.1c-0.8,0.7-1.3,1.2-1.6,1.5c0.9,0.9,1.5,2,1.6,3.4L94.8,8c0.2,1.7-0.4,3.2-1.6,4.5c-1.2,1.3-2.9,2-4.9,2.2
			c-0.9,0.1-1.6,0-2.4-0.1c-0.3,0.3-0.4,0.5-0.4,0.8c0,0.4,0.4,0.7,1.2,0.8s1.7,0.2,2.8,0.2c1.1,0,2.2,0.1,3.2,0.3
			c1.1,0.2,2,0.6,2.8,1.3c0.8,0.7,1.3,1.7,1.4,2.9c0.2,1.9-0.4,3.3-1.9,4.4c-1.4,1.1-3.2,1.7-5.4,1.9c-2.2,0.2-4.1-0.1-5.8-0.8
			C82.2,25.5,81.3,24.4,81.2,22.8z M85.1,8.9c0.1,0.9,0.4,1.7,0.9,2.2c0.5,0.6,1.2,0.8,2,0.7c0.8-0.1,1.4-0.4,1.8-1.1
			c0.4-0.6,0.6-1.4,0.5-2.4l-0.1-0.8c-0.1-0.9-0.4-1.6-0.9-2.2s-1.2-0.8-2-0.7c-0.8,0.1-1.4,0.4-1.8,1.1c-0.4,0.6-0.6,1.4-0.5,2.3
			L85.1,8.9z M85.5,21.9c0.1,0.8,0.5,1.4,1.2,1.8c0.7,0.4,1.6,0.5,2.5,0.5c1-0.1,1.8-0.4,2.4-0.9c0.6-0.5,0.9-1.2,0.8-1.9
			c0-0.3-0.1-0.6-0.3-0.9s-0.4-0.4-0.7-0.6c-0.3-0.1-0.6-0.3-0.8-0.3c-0.2-0.1-0.6-0.1-1.1-0.2c-0.5,0-0.9-0.1-1.1-0.1
			c-0.2,0-0.6,0-1.2,0C86,20,85.4,20.9,85.5,21.9z"/>
	</g>
	<g>
		<g>
			<path fill="#DFDFDF" d="M122.6,134H70c-2.1,0-3.7-1.7-3.7-3.7V86.4h60.1v43.9C126.3,132.4,124.6,134,122.6,134z"/>
		</g>
		<g>
			<path fill="#F2F2F2" d="M122.6,130.8H70c-2.1,0-3.7-1.7-3.7-3.7V83.1h60.1V127C126.3,129.1,124.6,130.8,122.6,130.8z"/>
		</g>
		<g>
			<path fill="#FE615D" d="M122.6,70.5H70c-2.1,0-3.7,1.7-3.7,3.7v8.9h60.1v-8.9C126.3,72.2,124.6,70.5,122.6,70.5z"/>
		</g>
		<g>
			<rect x="71.9" y="87.7" fill="#BFBFC4" width="6.7" height="6.7"/>
		</g>
		<g>
			<rect x="82.5" y="87.7" fill="#BFBFC4" width="6.7" height="6.7"/>
		</g>
		<g>
			<rect x="103.6" y="117.6" fill="#BFBFC4" width="6.7" height="6.7"/>
		</g>
		<g>
			<rect x="114.1" y="117.6" fill="#FE615D" width="6.7" height="6.7"/>
		</g>
		<g>
			<rect x="71.9" y="97.7" fill="#BFBFC4" width="6.7" height="6.7"/>
		</g>
		<g>
			<rect x="82.5" y="97.7" fill="#BFBFC4" width="6.7" height="6.7"/>
		</g>
		<g>
			<rect x="93" y="97.7" fill="#BFBFC4" width="6.7" height="6.7"/>
		</g>
		<g>
			<rect x="103.6" y="97.7" fill="#BFBFC4" width="6.7" height="6.7"/>
		</g>
		<g>
			<rect x="114.1" y="97.7" fill="#FE615D" width="6.7" height="6.7"/>
		</g>
		<g>
			<rect x="71.9" y="107.8" fill="#BFBFC4" width="6.7" height="6.7"/>
		</g>
		<g>
			<rect x="82.5" y="107.8" fill="#4E88FE" width="6.7" height="6.7"/>
		</g>
		<g>
			<rect x="93" y="107.8" fill="#BFBFC4" width="6.7" height="6.7"/>
		</g>
		<g>
			<rect x="103.6" y="107.8" fill="#BFBFC4" width="6.7" height="6.7"/>
		</g>
		<g>
			<rect x="114.1" y="107.8" fill="#FE615D" width="6.7" height="6.7"/>
		</g>
		<g>
			<g>
				<path fill="#FFFFFF" d="M76.2,67v6.9c0,1.6,1.3,2.9,2.9,2.9V64.2C77.4,64.2,76.2,65.4,76.2,67z"/>
			</g>
			<g>
				<path fill="#EAEAEB" d="M79,64.2v12.6c1.6,0,2.9-1.3,2.9-2.9V67C81.9,65.4,80.6,64.2,79,64.2z"/>
			</g>
		</g>
		<g>
			<g>
				<path fill="#FFFFFF" d="M110.6,67v6.9c0,1.6,1.3,2.9,2.9,2.9V64.2C111.9,64.2,110.6,65.4,110.6,67z"/>
			</g>
			<g>
				<path fill="#EAEAEB" d="M113.5,64.2v12.6c1.6,0,2.9-1.3,2.9-2.9V67C116.4,65.4,115.1,64.2,113.5,64.2z"/>
			</g>
		</g>
	</g>
</g>
</svg>
