<?xml version="1.0" encoding="UTF-8" standalone="no"?>
<svg width="111px" height="101px" viewBox="0 0 111 101" version="1.1" xmlns="http://www.w3.org/2000/svg" xmlns:xlink="http://www.w3.org/1999/xlink">
    <!-- Generator: Sketch 48 (47235) - http://www.bohemiancoding.com/sketch -->
    <title>Group 7</title>
    <desc>Created with Sketch.</desc>
    <defs></defs>
    <g id="Quiz---Wrong-answer" stroke="none" stroke-width="1" fill="none" fill-rule="evenodd" transform="translate(-431.000000, -194.000000)">
        <g id="Group-7" transform="translate(431.000000, 197.000000)">
            <circle id="Oval" fill="#FE615D" cx="49" cy="49" r="49"></circle>
            <path d="M36.5,69 L104.5,3" id="Path-6" stroke="#FFFFFF" stroke-width="12" stroke-linecap="round" stroke-linejoin="round"></path>
            <path d="M31,28 L64.5,68.5" id="Path-5" stroke="#FFFFFF" stroke-width="12" stroke-linecap="round" stroke-linejoin="round"></path>
        </g>
    </g>
</svg>